$MeshFormat
2.2 0 8
$EndMeshFormat
$Nodes
716
1 -250 0 0
2 -230 0 0
3 -170 0 0
4 0 0 0
5 230 0 0
6 170 0 0
7 250 0 0
8 250 100 0
9 200 100 0
10 30 100 0
11 0 100 0
12 -30 100 0
13 -200 100 0
14 -250 100 0
15 -240 0 0
16 -220 0 0
17 -210 0 0
18 -200 0 0
19 -190 0 0
20 -180 0 0
21 -160.0000000000212 0 0
22 -150.0000000000425 0 0
23 -140.0000000000637 0 0
24 -130.0000000000849 0 0
25 -120.0000000001061 0 0
26 -110.0000000001273 0 0
27 -100.0000000001486 0 0
28 -90.00000000016981 0 0
29 -80.00000000014921 0 0
30 -70.00000000008686 0 0
31 -60.0000000000245 0 0
32 -49.99999999996211 0 0
33 -39.9999999999151 0 0
34 -29.99999999993634 0 0
35 -19.99999999995757 0 0
36 -9.999999999978797 0 0
37 9.999999999976277 0 0
38 19.99999999995586 0 0
39 29.99999999991807 0 0
40 39.99999999989323 0 0
41 49.99999999987369 0 0
42 59.99999999985414 0 0
43 69.9999999998346 0 0
44 79.99999999981506 0 0
45 89.99999999983731 0 0
46 99.99999999990139 0 0
47 109.9999999999654 0 0
48 120.0000000000295 0 0
49 130.0000000000782 0 0
50 140.0000000000586 0 0
51 150.0000000000391 0 0
52 160.0000000000196 0 0
53 180 0 0
54 190 0 0
55 200 0 0
56 210 0 0
57 220 0 0
58 240 0 0
59 250 9.999999999961581 0
60 250 19.99999999991413 0
61 250 29.99999999986224 0
62 250 39.99999999984005 0
63 250 49.99999999982369 0
64 250 59.99999999980733 0
65 250 69.99999999983592 0
66 250 79.99999999989062 0
67 250 89.9999999999453 0
68 240 100 0
69 230 100 0
70 220 100 0
71 210 100 0
72 190.0000000000212 100 0
73 180.0000000000425 100 0
74 170.0000000000637 100 0
75 160.0000000000849 100 0
76 150.0000000001061 100 0
77 140.0000000001273 100 0
78 130.0000000001486 100 0
79 120.0000000001698 100 0
80 110.0000000001492 100 0
81 100.0000000000869 100 0
82 90.0000000000245 100 0
83 79.99999999996211 100 0
84 69.9999999999151 100 0
85 59.99999999993634 100 0
86 49.99999999995757 100 0
87 39.9999999999788 100 0
88 19.99999999999746 100 0
89 10.00000000002521 100 0
90 -9.999999999988614 100 0
91 -19.9999999999795 100 0
92 -39.99999999996376 100 0
93 -49.99999999992751 100 0
94 -59.99999999989127 100 0
95 -69.99999999985502 100 0
96 -79.99999999981878 100 0
97 -89.99999999978255 100 0
98 -99.99999999974629 100 0
99 -109.9999999997101 100 0
100 -119.9999999997156 100 0
101 -129.9999999997829 100 0
102 -139.9999999999138 100 0
103 -150.0000000000448 100 0
104 -160.000000000145 100 0
105 -170.0000000001088 100 0
106 -180.0000000000725 100 0
107 -190.0000000000363 100 0
108 -210 100 0
109 -220 100 0
110 -230 100 0
111 -240 100 0
112 -250 90.00000000007105 0
113 -250 80.00000000014211 0
114 -250 70.00000000021316 0
115 -250 60.00000000025813 0
116 -250 50.00000000025813 0
117 -250 40.00000000025814 0
118 -250 30.00000000021316 0
119 -250 20.00000000014211 0
120 -250 10.00000000007105 0
121 25.3126964271538 49.64113151596382 0
122 -35.59182293254867 51.77680842254296 0
123 -165.3258129177029 49.42492472641725 0
124 -95.33017381163623 49.65101273482972 0
125 165.0000000000742 50.00000000000318 0
126 84.9999999998262 49.99999999999265 0
127 -207.2368421053294 57.23684210531155 0
128 207.2368421053017 42.76315789470935 0
129 125.7587086345942 59.292834763264 0
130 -129.9999999999432 37.25000000013002 0
131 -6.375926278247849 34.15415744256705 0
132 -64.99999999987313 66.25000000006963 0
133 54.98739859020876 34.28486895174456 0
134 55.05640410786032 67.25268554123107 0
135 -4.999999999994306 67.06367924527264 0
136 -64.60750842594395 34.28993291545574 0
137 -121.3980362534924 68.05098187314445 0
138 139.6822250865322 31.77273845974549 0
139 -190.1557017132212 31.04973528396851 0
140 190.8753330503556 68.51995205957998 0
141 109.6189744563816 31.68915343043383 0
142 -218.5290485878812 31.19190378226947 0
143 218.5290485878611 68.80809621772661 0
144 -182.9943392965915 71.85169821106619 0
145 182.9943392965575 28.14830178894193 0
146 -149.9830972216786 73.30549145479459 0
147 149.1311282739577 72.48933848216707 0
148 100.8889102353191 71.61455975380778 0
149 -106.9743171961409 26.57754557400812 0
150 -155.4850568756346 26.48573992336794 0
151 20.0669002774635 26.52103537607129 0
152 -41.9121029419093 74.64417692131764 0
153 -30.19232721492135 26.12004201406245 0
154 -88.34717738708784 73.993567626447 0
155 78.94823788532902 25.35517621144633 0
156 20.17607927834449 73.85746072130063 0
157 -225.1445254703561 75.14452547032161 0
158 225.1445254703339 24.85547452968693 0
159 77.17613128247319 76.18726449948736 0
160 160.1325960821804 22.15281995604169 0
161 -82.61154885963678 20.88779264456313 0
162 226.2003579611148 50.21386419481018 0
163 -226.2003579611176 49.78613580518834 0
164 170.8963434653451 77.82725003757814 0
165 -203.9029862643038 78.92351187896124 0
166 204.1715926067968 21.59624957264478 0
167 106.6568813488382 49.94375059077812 0
168 144.312389629809 51.6515497503666 0
169 -144.6929028124131 52.43079582009722 0
170 125.0169417203938 80.22340879249879 0
171 39.05184776266906 20.62973432762442 0
172 -187.9043984002856 52.87793510834003 0
173 184.9731242327324 48.79874593736782 0
174 -21.19243985135655 79.57309150558376 0
175 -48.80756014860285 20.42690849446987 0
176 39.22150430264481 79.30821433578811 0
177 -171.1088620034089 20.18566882438147 0
178 -113.1835186639208 50.42122803794192 0
179 -14.81892633175368 50.11513699356611 0
180 4.872342234416022 50.36524752604059 0
181 -54.62141312891683 49.59316037735278 0
182 45.75644534526466 50.66378054475651 0
183 65.37858687091631 50.40683962258252 0
184 -74.96722825619196 49.80388971169558 0
185 125.5476382710721 18.26737406977268 0
186 -165.8345694217439 79.7653739084583 0
187 -136.8274544309326 17.67948431965064 0
188 -104.9901774950511 81.99845959321442 0
189 203.6732686715473 82.25903224205233 0
190 -204.2421333374023 17.61117982353983 0
191 95.26899165157553 17.73846193760037 0
192 125.128085608895 40.62681142422576 0
193 -133.5354580033027 82.74610794097363 0
194 3.431436686681366 18.48317789881218 0
195 -57.99862108241473 82.47901837967132 0
196 62.50690993649651 16.93076416171733 0
197 233.4470454080269 82.96378328759509 0
198 -233.4470454080398 17.03621671240322 0
199 2.743547546138372 83.5970074803069 0
200 -205.3236496559022 39.7618594445686 0
201 205.7378716128028 59.14419761068575 0
202 61.4354012457727 82.93441386959483 0
203 -74.54057202713103 84.67513802254018 0
204 -14.26832588627792 16.56794186993582 0
205 -102.0958379601376 63.9415809920102 0
206 -65.6426021436593 16.24444094273765 0
207 92.67932460070195 35.04882684592722 0
208 35.08902637239807 36.78037143832646 0
209 34.95886676748877 63.8034344564818 0
210 -26.34406109369433 64.02220733251937 0
211 -44.53379391276721 36.44139736774665 0
212 145.6836215410385 16.00117652594547 0
213 -119.2138226618432 17.09073048717326 0
214 -174.3124299991269 36.40638394210335 0
215 185.2901164110039 84.39305190577103 0
216 174.9763001449404 62.71111511813882 0
217 154.2741188777074 37.61714278230988 0
218 -234.5889022716046 36.38240662285683 0
219 234.5889022715871 63.61759337714831 0
220 -168.5129422857566 65.44197627279078 0
221 -85.13399247516827 37.28243302349789 0
222 -188.253672528698 15.61122991308845 0
223 90.82354585557431 85.25661112044152 0
224 174.1234749325146 14.76854637018413 0
225 -129.2519794105427 54.12946177587222 0
226 109.8650749994158 85.22365706694946 0
227 139.8943929288851 84.55047134320901 0
228 169.6061742135154 35.45827349492514 0
229 87.56969566707659 65.03012402795852 0
230 -235.1998954991656 64.01604217727741 0
231 235.1998954991743 35.98395782274066 0
232 156.8104586237594 85.68720329225063 0
233 -190.7086789333155 84.99109132342423 0
234 190.1734271501219 14.98911240474279 0
235 -235.7018120305895 85.70181203055893 0
236 235.7018120305726 14.29818796944393 0
237 110.5466785440186 14.59746256496943 0
238 -99.16301013138657 13.92253960385628 0
239 -154.2539569216182 40.71305543806454 0
240 -51.11054740742683 63.49799379622127 0
241 -24.96526280631632 39.39867689890512 0
242 14.92506750575541 39.91933432752114 0
243 -79.29382151808304 63.53092313673673 0
244 69.3076964453913 36.49936396903216 0
245 218.1222862898589 85.8606263227865 0
246 -218.1222862898736 14.13937367720504 0
247 160.5900730743169 63.73162457184946 0
248 14.60816061471722 60.93862701136172 0
249 114.976043362319 69.59087423313835 0
250 135.0239566376899 69.59087423293458 0
251 73.89862667089444 62.29383697318551 0
252 -215.5041305862893 86.48001752643407 0
253 217.1970471025311 14.04778315562008 0
254 -196.252275638831 66.42975487316518 0
255 196.2522756387984 33.57024512685352 0
256 -152.6628789257875 86.0306487809371 0
257 -136.7228859770696 65.95566893105836 0
258 27.39150234876614 13.08773944460779 0
259 -32.84560123987651 87.01972194942938 0
260 -36.57004992454576 13.59115819596839 0
261 27.33232537822544 87.05052682173479 0
262 -221.1506591304552 61.4554906585041 0
263 221.1506591304465 38.54450934150434 0
264 -103.9651134447036 38.92842841543849 0
265 -161.9791637437852 14.02428791321111 0
266 -154.4237961020998 59.65143152041072 0
267 -120.386442861937 86.30383874916564 0
268 -94.80526940013894 87.10126959059787 0
269 -8.878860259773846 85.28665201656852 0
270 -117.1210912223168 35.73116909670178 0
271 74.5172887693388 12.03696234891359 0
272 50.92811012520228 14.42231011613275 0
273 -142.577518213056 33.20792733085473 0
274 -146.53546610313 13.28683280290684 0
275 -178.0394714319515 86.93147106372206 0
276 216.5206422988541 53.17712638861406 0
277 -216.5146748413205 46.71208969269954 0
278 48.20982607791269 85.73876009367719 0
279 12.48933300557743 12.09256501863292 0
280 -14.60946672520746 27.41768470713908 0
281 -92.19478882453934 62.37659940413669 0
282 7.053927691001088 69.56891758748138 0
283 -37.64648395278032 61.85238179487753 0
284 6.952744442859282 29.61096892057559 0
285 -46.79446821885458 89.53615516274532 0
286 75.15792929931507 90.4793730450437 0
287 12.9688188431419 90.01970895635357 0
288 -74.82083486390599 13.46879902966652 0
289 200.2195496721956 49.87641519940297 0
290 134.8775000965896 10.81856030825666 0
291 -93.61112382581619 29.65728808473209 0
292 -175.6259704425573 55.8146743840715 0
293 135.9599289229792 42.9324993353613 0
294 80.97050189944311 38.73904467669853 0
295 -25.43207221948968 10.09956898075321 0
296 65.37854182478569 72.12935718832669 0
297 156.3390652659773 11.44899160630053 0
298 -211.4813269069971 72.4901057209625 0
299 211.9878880241962 27.19958355640457 0
300 -109.3468619242916 11.21613322499504 0
301 98.67703480716948 60.81192157465738 0
302 174.5089242504257 89.12405765451039 0
303 -165.2623443318075 29.58749521393023 0
304 -126.5958417165818 25.99028168680534 0
305 128.0856159244474 30.08273032066735 0
306 -76.32231030217191 30.30786616938833 0
307 118.6417267128721 51.82690856940142 0
308 -239.7788467494327 75.48225414164315 0
309 239.7788467494323 24.51774585839035 0
310 194.3686986481244 90.1745333887539 0
311 -198.5984361548851 50.24962829776186 0
312 -55.19728041763975 10.56540323304205 0
313 -5.408349398315687 45.0345267176435 0
314 54.99999999990224 55.50190100941767 0
315 -64.99999999987618 54.68822176424916 0
316 -239.5978211403617 46.05938871896144 0
317 239.5978211403463 53.94061128104487 0
318 86.56350859727729 10.96910886412069 0
319 150.1383024309447 26.69339239386076 0
320 100.9148228594735 39.32422134295479 0
321 -206.2759320832446 89.36067351038329 0
322 206.4299203048869 10.62292985369203 0
323 -15.96784253071512 69.6012981661878 0
324 -54.1694527378297 30.18908800542152 0
325 -84.5654985079952 91.35219037189084 0
326 43.97358046932598 69.6674055376896 0
327 -201.4385375205688 30.01159429693406 0
328 201.3434039424407 69.82746473191762 0
329 44.36382826308158 30.17707141837857 0
330 -142.3351177861653 88.55621993490124 0
331 -183.8594712377431 39.64261593922936 0
332 150.7689734699363 59.5568935019475 0
333 175.0012849970647 43.8341388843096 0
334 240.3932114581847 73.7489489264355 0
335 -240.3932114581954 26.25105107358617 0
336 -65.64305228079098 90.59470241855325 0
337 -5.279390094958393 10.19028188378435 0
338 29.93105426205434 26.95328924040443 0
339 -160.3784808566188 72.08637913611973 0
340 180.293572211272 75.04070510625387 0
341 224.557144144587 61.04154763397197 0
342 -224.5562916506671 38.94262609193432 0
343 159.6433221920541 74.76837785595632 0
344 135.9287123632944 58.68503369091358 0
345 -64.29766394025997 44.70221678491555 0
346 -5.732093567787089 55.7264007599743 0
347 54.49488183775908 45.28351650225945 0
348 -39.43681515696057 26.37715211074657 0
349 -30.20165474001992 73.39985749009867 0
350 100.1657738521614 89.19372484312763 0
351 29.58216507589269 73.70320359966786 0
352 -127.5635029712574 10.31990020144582 0
353 -16.03840757747048 39.15976567674414 0
354 -85.53410228737781 54.72487617850017 0
355 -178.6592776266224 10.69631855763673 0
356 -73.22351706784443 73.22260050395766 0
357 -196.4867194430499 10.11896353652541 0
358 -224.7125263203815 90.17358147386534 0
359 225.7627462559561 8.366896292798145 0
360 -101.4838826465698 73.28544958277874 0
361 -45.01481445988218 54.70483865148442 0
362 95.1976897395474 49.91916669865789 0
363 120.0888914715532 88.16053431366743 0
364 185.2337927293567 59.27383764777038 0
365 154.4604193511656 48.37345606749285 0
366 36.55707491800089 11.65682209930584 0
367 113.3634475579524 41.08824991929093 0
368 -86.03284914005013 9.967111207084461 0
369 4.643518399968457 38.45183037574122 0
370 -23.56269752305101 88.35443873450288 0
371 -135.5684618519877 46.26795343418097 0
372 -164.2278731691663 39.61421882905958 0
373 186.6704543196219 38.07969916599669 0
374 194.2017676802365 78.69752850702923 0
375 37.20452732228001 88.39661446305423 0
376 53.83563962788128 23.993202423418 0
377 -6.236465973445341 22.45972590262238 0
378 134.8809609897272 22.02439587017531 0
379 171.6907064556007 25.40112433036743 0
380 -104.3667565453395 54.34643921407154 0
381 -112.2859645510662 60.56153665098591 0
382 -145.5296164588834 64.07922867044707 0
383 3.791455222438184 60.35713191150285 0
384 130.4013757980599 89.5283630395426 0
385 51.52612795171085 76.94493753471713 0
386 112.1575456468278 59.54032975334685 0
387 -186.5170377779226 62.55944485440135 0
388 -180.1219437850619 27.74074788018468 0
389 23.37612264929491 35.50860851641931 0
390 -110.1989465794395 71.32786863422348 0
391 75.12209006332517 46.96227747078171 0
392 35.124042351461 47.16834004440184 0
393 -51.31123504871209 73.9010340265488 0
394 63.47844196452156 27.92539443809778 0
395 -25.60294230672276 53.18813920578511 0
396 -122.8662635851797 44.13603742450037 0
397 -103.0711477847054 92.61903984036896 0
398 239.7377240495236 89.73772404952507 0
399 -239.7377240495228 10.26227595047532 0
400 -34.35076127773194 35.28136670585794 0
401 119.3819477996906 10.19593237580427 0
402 -4.998401698212101 77.43019884159912 0
403 65.66459341913854 61.62364114363183 0
404 118.3926642260133 27.06369287274116 0
405 89.08328991689174 25.65820603032151 0
406 98.99311633727015 28.66042984610263 0
407 -163.8397166854829 89.77598941064832 0
408 -195.1216659545714 39.65414294973753 0
409 146.8502474678926 91.00976068114284 0
410 24.54939729765945 65.0027586899657 0
411 -229.6154729584394 27.17052737966473 0
412 229.615472958425 72.82947262035461 0
413 128.7055514488717 49.89943476300017 0
414 -73.10691443508894 39.81625877695464 0
415 125.0000000000076 69.90293552912587 0
416 195.7249066388644 60.11306988768406 0
417 -173.0348882018146 73.66602109373305 0
418 209.6641616907105 89.81187932541006 0
419 -210.065929176851 10.3151184891847 0
420 103.360670716993 9.900497774320167 0
421 210.6135422996208 73.45063326619385 0
422 -210.6135422996512 26.54936673376455 0
423 87.01889591931675 75.52615858690406 0
424 44.88150469296978 40.51386940548886 0
425 163.5839543554861 91.93413235086173 0
426 -43.85528445831348 9.977805274568091 0
427 225.465193259407 90.55521816357596 0
428 -225.465193259418 9.4447818364221 0
429 166.9316129489326 8.391422540125944 0
430 15.28688928066051 50.38592384642608 0
431 -155.1590788755177 50.47210826656787 0
432 -125.153298859045 80.18119611632939 0
433 -193.2007214011888 76.12098849584073 0
434 191.4584362245988 24.39483183376375 0
435 45.72343662293333 60.52643600573236 0
436 145.7737553786478 41.72987364899909 0
437 -95.50394948517784 40.11625394694105 0
438 -145.8508961455878 24.22031262081001 0
439 -174.0413427336255 45.14008103070837 0
440 -73.40729151767029 21.06174726002073 0
441 -61.95376864504516 74.51339003050697 0
442 -242.0783024240983 56.53133060568609 0
443 242.0783024241001 43.46866939436675 0
444 181.6903601764645 10.49295895122571 0
445 -138.07304211934 8.676765223430539 0
446 4.128275919455336 8.15320496024589 0
447 -55.00324542880564 91.34712420586644 0
448 64.85471243453708 7.789964180536536 0
449 -15.57764430511121 59.95281028388422 0
450 -53.48291939554201 40.02183716378539 0
451 -128.5882758979898 90.46863321885149 0
452 65.50254148255252 91.14465271613773 0
453 -169.154088958863 9.538060955605461 0
454 84.86044873171775 91.71242456447345 0
455 -214.6950542817796 37.9837725218975 0
456 214.6950542817546 62.01622747812563 0
457 -142.3848521574678 79.48236041906014 0
458 -205.1505895166691 65.70457030099782 0
459 204.6181844132936 32.58649302822884 0
460 -145.328807025099 42.25697522973746 0
461 -195.5121840836758 21.68677784687429 0
462 4.610651352642368 92.83320466685437 0
463 -116.1601533534937 27.3277567407007 0
464 168.1987782709761 69.08000837799733 0
465 -57.93527315510175 20.41143443012209 0
466 175.4371038486092 53.82913029192054 0
467 -194.5964782486794 57.45663282110949 0
468 -177.4440687821663 65.23444578220331 0
469 -184.6710370288196 91.87642258625061 0
470 -196.1570013646838 91.80378377595066 0
471 196.1570013646724 8.196216224056505 0
472 -74.9498245631182 93.32440616259686 0
473 -14.99595764013247 7.371558546894673 0
474 -42.80428281975536 44.36808332191396 0
475 161.4345186795478 31.43574878467378 0
476 -135.4092028718608 27.88231668141785 0
477 80.61469318687976 57.64653020902652 0
478 12.87665743974545 22.64569494434539 0
479 71.75097916978669 20.98865158708813 0
480 163.1444083048436 41.1689208827387 0
481 182.2990577406323 19.23109057051693 0
482 11.32554663938402 77.64062690514403 0
483 62.42564074172537 41.9827639953417 0
484 193.6733367140925 43.44024518955354 0
485 90.28049471230625 56.72300053673493 0
486 148.9794289907932 80.72435600005169 0
487 -137.3086055914533 57.66646051025335 0
488 -116.7042760211201 8.190906697995135 0
489 -65.64751685046264 7.37753954586757 0
490 207.9306350607852 50.69422409765593 0
491 -154.3384196268725 8.05952989999011 0
492 145.3800373807406 7.653745688100532 0
493 133.6138439805953 78.25279034760439 0
494 116.3861560197448 78.25279034771175 0
495 -84.56384746774567 80.17077573423836 0
496 70.97969242213897 80.91203518046628 0
497 -22.84336441427305 20.51335348389712 0
498 177.5175810598948 34.56617625672335 0
499 30.34146023956347 56.55306442716799 0
500 167.3652059207238 58.56413262347507 0
501 -113.6393433285052 91.67075010239807 0
502 -221.6078134826966 20.98769211822387 0
503 221.6078134826799 79.01230788176896 0
504 -182.4103838332755 80.84594049437902 0
505 -88.3075780108567 45.02665892956831 0
506 55.60229940371489 92.16122976565869 0
507 106.4601829274323 66.57861180464651 0
508 184.9150754397725 92.86392510248356 0
509 98.61583584949739 79.09293071251467 0
510 -58.20928469701742 60.22768485741818 0
511 -71.36661797115505 60.46911088216108 0
512 106.9866129974173 21.88497137942786 0
513 -14.78443302570559 92.4846871388891 0
514 227.1490967330401 33.09518568344009 0
515 -227.1490967330396 66.9048143165697 0
516 81.00277391842266 83.34564449946939 0
517 143.3141865327465 66.44217485511251 0
518 243.1140278785771 64.99999999982161 0
519 -243.1140278785922 35.00000000023565 0
520 -157.9226485568076 33.87146000003414 0
521 79.65849405793203 68.08004518488704 0
522 -207.5576618481034 49.06105381015526 0
523 -241.6952539722242 91.6952539722362 0
524 241.6952539722221 8.304746027771394 0
525 56.55198315368622 7.730434249848057 0
526 -163.667481683981 58.10926819235804 0
527 -3.437806920834115 92.28750028853543 0
528 -129.1803227418345 62.67496790134238 0
529 89.15881294808453 42.68833777832245 0
530 45.0554606557023 7.253135505271914 0
531 159.0705621643436 55.74026057318072 0
532 107.9604369833867 75.47840865890365 0
533 -65.59821321176642 25.03239617506776 0
534 -115.292491430231 79.23988298388682 0
535 -186.3550088647203 7.495548526120137 0
536 -227.7341717904515 58.54652533602533 0
537 227.73417179045 41.45347466397841 0
538 -111.3259160642281 41.59651244091763 0
539 141.5470244582105 75.84098434558435 0
540 82.68871599836649 18.79109449658177 0
541 153.0733963300353 19.07409512053712 0
542 -120.9529874956969 54.91057110064035 0
543 -243.4114089345393 65.20592538501559 0
544 243.4114089345414 34.79407461504001 0
545 93.06230796402693 92.95369912193516 0
546 241.9870316906767 81.83179320040243 0
547 -241.9870316906923 18.16820679958753 0
548 94.7062488687924 7.583135875948459 0
549 -95.56062444519483 6.213575663441897 0
550 174.5490896115824 6.730585572307155 0
551 -214.7806511904078 55.47499878504733 0
552 214.8257631749421 44.48267907080872 0
553 126.8106538235854 7.679040234336705 0
554 -13.06892752431111 77.33712729713096 0
555 -100.0252146955387 23.29641344589905 0
556 -181.2237660815739 19.58386786116822 0
557 -161.0556886591212 21.91678179283299 0
558 -157.5074766706734 80.01338849470224 0
559 155.4489320894658 93.72621926485104 0
560 -82.29879769156192 71.37041147861412 0
561 -57.37497466425805 68.03860251872561 0
562 166.235656197645 16.84586919885398 0
563 107.8002054036518 92.2551422777052 0
564 21.1648780915145 7.964927844561815 0
565 -154.2074485256885 17.99891415885316 0
566 73.83884439272413 29.71330440074262 0
567 -154.8629954795834 93.78699222980742 0
568 -101.5302729347597 32.02517674471947 0
569 147.1902016292585 34.09213100775649 0
570 -229.1282005707726 80.53154556950524 0
571 228.0210133664901 18.42152649893515 0
572 -85.9785756064084 28.16492909618104 0
573 182.258967677595 67.95539852902562 0
574 -39.04991158558551 92.07569813468287 0
575 72.17561556593958 55.39406331735494 0
576 45.12802344472962 93.1887016096629 0
577 142.5962775120607 24.12292581243175 0
578 137.8319535200753 92.35228260014722 0
579 -231.7726423363299 43.81018572803338 0
580 231.7726867185493 56.18899033015982 0
581 177.7600743158938 81.81605272535316 0
582 -211.4225170888855 80.47883282486666 0
583 218.680410280509 22.11358338258137 0
584 22.04642764210798 82.17787341878567 0
585 -198.0490640093473 84.24000979691203 0
586 198.0015489585287 16.37628044302274 0
587 23.05534326522167 92.06523046260874 0
588 22.21260688674541 18.40571517197448 0
589 -38.42984702393221 82.67613906828899 0
590 -132.8064948219055 73.02876789664691 0
591 119.0797546582591 34.89324818263986 0
592 116.3257331463 18.68339936066277 0
593 136.5002654104846 50.85303256561036 0
594 -31.29632757143651 57.70988418893124 0
595 -23.83326500265343 31.31514824776764 0
596 22.38121908034833 57.19148351393865 0
597 -215 93.97465823040565 0
598 215.3199499754646 6.237506525725991 0
599 93.3505387235613 70.30863327636301 0
600 -31.20170918666787 44.40893022583882 0
601 28.11454735953736 42.74284930701046 0
602 -234.421918464639 93.5141294953321 0
603 234.6319624517502 6.193966058002693 0
604 243.3857251330642 15.67540373406168 0
605 -243.3857251330676 84.32459626596464 0
606 -98.03100307318097 57.19319677892421 0
607 -187.3167738743411 23.29187243519767 0
608 165.0886005774141 83.86820423823144 0
609 -34.99999999992572 5.966549558736426 0
610 -81.01730849350436 44.76736487833744 0
611 -213.3860790558209 63.64390166967198 0
612 213.1701434462557 36.30334229989784 0
613 -109.5128107026071 33.69776483541436 0
614 58.74449015822063 75.15709688828346 0
615 83.10403973901799 30.90291163302724 0
616 13.80683511918117 32.10957874344565 0
617 -43.86260224728357 66.62921353700119 0
618 -135.467308008204 93.26624175033076 0
619 216.4731948074392 93.11533169147457 0
620 -216.604565694074 6.83119202895196 0
621 -109.4701189263542 19.60511186314579 0
622 38.38085026534225 55.7430110957081 0
623 -150.2786322980656 33.3156866634125 0
624 -128.271830937361 18.46388439292886 0
625 112.2028682612248 7.387435788247172 0
626 46.74914888777698 20.21880545443707 0
627 -31.01025469871304 18.3151591030102 0
628 14.8894370103988 68.68006805253729 0
629 212.5754545504546 81.76694721448892 0
630 -212.7141162864659 18.23265419694879 0
631 132.7358368424266 36.05189618418884 0
632 -137.5924178051967 38.31509664992073 0
633 -94.72322290637918 78.16258829624562 0
634 -22.21743867149659 45.81768437327832 0
635 -91.51056779436911 20.28456651982805 0
636 -49.34595338261131 81.63275663985635 0
637 -102.6611041521602 6.94192549465637 0
638 191.6719553770445 52.7964882878963 0
639 -145.2356535102278 5.799322013863764 0
640 31.29286893186726 18.84613480539451 0
641 -173.0157710165274 92.54198548718882 0
642 202.7087115422636 92.76588217535827 0
643 -29.05829127756363 81.77628769549227 0
644 -40.65898447261539 18.50023947853171 0
645 231.0586755636942 27.37477807863864 0
646 -231.2801130045533 72.41583633506342 0
647 -0.3171235426617956 27.94511161349585 0
648 -141.485389327401 71.17030347440141 0
649 37.10893916505076 28.63511660618347 0
650 -172.7954919451339 29.10922520170064 0
651 31.40187124759105 81.26135580449609 0
652 -219.7013760612498 79.25714443330915 0
653 211.4607551367519 19.15031273217841 0
654 -102.8544854882203 46.30556627952218 0
655 118.9916434002482 62.57228826559113 0
656 -94.99999999976444 94.51825250654259 0
657 -181.1928709490883 47.57946296422062 0
658 -46.73690548904008 28.35863649459615 0
659 -23.39325371942089 71.36536784920077 0
660 21.26398457687017 43.68985946491318 0
661 -16.59527379879035 85.0876144752057 0
662 36.93402915383807 71.62056448240685 0
663 -123.6788355131553 33.20632728949471 0
664 1.856176957053201 75.45543671310445 0
665 -51.8589273534686 56.39624253941986 0
666 124.5381448482262 94.53175374378395 0
667 -77.93371838935033 56.7798031440951 0
668 9.639711838057982 55.5117325738328 0
669 -66.75483954517478 81.58740091602485 0
670 233.5320597763384 93.6003898586706 0
671 -233.5320597763458 6.399610141321717 0
672 154.1512553161934 67.1823455563306 0
673 220.1631675218842 30.44515327904292 0
674 -219.6688438929864 69.81599704488983 0
675 114.915173735547 94.17840258055304 0
676 80.26996718587829 7.286696324587363 0
677 -154.2183192687028 66.99752133980819 0
678 30.22120545101051 7.27066463221511 0
679 130.5088056681141 64.18926710768504 0
680 -163.0943344659084 6.324375753761338 0
681 -200.3669243328788 59.41548567966918 0
682 9.744229825245341 44.43726710461033 0
683 200.4000377087363 40.44731128774964 0
684 -36.1244689582442 68.97696942451796 0
685 221.2863188711615 45.57433073194314 0
686 -221.2761029827505 54.39504805549294 0
687 -189.7410935286334 69.24047160861836 0
688 199.0569853684489 26.88872442967312 0
689 -200.8920062640529 71.98561458395265 0
690 43.47883886139407 14.6073924542425 0
691 -30.05710849160882 92.78603128410199 0
692 -147.9265365377727 93.5186438372213 0
693 187.6894246986358 75.61305034568622 0
694 -172.9369542192573 82.70318959096018 0
695 -149.5876031167065 79.5173146212959 0
696 -209.2938950603413 33.44745371765596 0
697 209.3105073249448 66.48721496642852 0
698 31.51843919314118 93.50247434947956 0
699 -189.968731474686 45.45037225795903 0
700 189.3913327883739 31.42650652168115 0
701 -234.1116211330037 53.85546766616656 0
702 234.1116230585101 46.14449658738729 0
703 -121.8923541194561 93.0701797496767 0
704 -160.2402040394318 64.45731529229748 0
705 188.0210341586202 6.843865333718949 0
706 143.0823907301854 58.69870547459456 0
707 -94.15175579029372 69.61566271555151 0
708 -159.7416804710012 45.05607681502731 0
709 -75.21445726498442 5.850290338200002 0
710 72.66463508439936 69.36820876954106 0
711 62.01913578863723 34.88421094477562 0
712 175.2516288728855 69.79473964899647 0
713 -203.5568016979659 6.602547398049076 0
714 -86.06562501704857 65.93419039169079 0
715 244.7442600688352 94.74426006880921 0
716 -244.7442600688424 5.255739931191272 0
$EndNodes
$Elements
1449
1 15 2 1 14 11
2 1 2 50 1 1 15
3 1 2 50 1 15 2
4 1 2 20 2 2 16
5 1 2 50 2 2 16
6 1 2 20 2 16 17
7 1 2 50 2 16 17
8 1 2 20 2 17 18
9 1 2 50 2 17 18
10 1 2 20 2 18 19
11 1 2 50 2 18 19
12 1 2 20 2 19 20
13 1 2 50 2 19 20
14 1 2 20 2 20 3
15 1 2 50 2 20 3
16 1 2 50 3 3 21
17 1 2 50 3 21 22
18 1 2 50 3 22 23
19 1 2 50 3 23 24
20 1 2 50 3 24 25
21 1 2 50 3 25 26
22 1 2 50 3 26 27
23 1 2 50 3 27 28
24 1 2 50 3 28 29
25 1 2 50 3 29 30
26 1 2 50 3 30 31
27 1 2 50 3 31 32
28 1 2 50 3 32 33
29 1 2 50 3 33 34
30 1 2 50 3 34 35
31 1 2 50 3 35 36
32 1 2 50 3 36 4
33 1 2 50 5 4 37
34 1 2 50 5 37 38
35 1 2 50 5 38 39
36 1 2 50 5 39 40
37 1 2 50 5 40 41
38 1 2 50 5 41 42
39 1 2 50 5 42 43
40 1 2 50 5 43 44
41 1 2 50 5 44 45
42 1 2 50 5 45 46
43 1 2 50 5 46 47
44 1 2 50 5 47 48
45 1 2 50 5 48 49
46 1 2 50 5 49 50
47 1 2 50 5 50 51
48 1 2 50 5 51 52
49 1 2 50 5 52 6
50 1 2 20 6 6 53
51 1 2 50 6 6 53
52 1 2 20 6 53 54
53 1 2 50 6 53 54
54 1 2 20 6 54 55
55 1 2 50 6 54 55
56 1 2 20 6 55 56
57 1 2 50 6 55 56
58 1 2 20 6 56 57
59 1 2 50 6 56 57
60 1 2 20 6 57 5
61 1 2 50 6 57 5
62 1 2 50 7 5 58
63 1 2 50 7 58 7
64 1 2 50 8 7 59
65 1 2 50 8 59 60
66 1 2 50 8 60 61
67 1 2 50 8 61 62
68 1 2 50 8 62 63
69 1 2 50 8 63 64
70 1 2 50 8 64 65
71 1 2 50 8 65 66
72 1 2 50 8 66 67
73 1 2 50 8 67 8
74 1 2 50 9 8 68
75 1 2 50 9 68 69
76 1 2 50 9 69 70
77 1 2 50 9 70 71
78 1 2 50 9 71 9
79 1 2 50 10 9 72
80 1 2 50 10 72 73
81 1 2 50 10 73 74
82 1 2 50 10 74 75
83 1 2 50 10 75 76
84 1 2 50 10 76 77
85 1 2 50 10 77 78
86 1 2 50 10 78 79
87 1 2 50 10 79 80
88 1 2 50 10 80 81
89 1 2 50 10 81 82
90 1 2 50 10 82 83
91 1 2 50 10 83 84
92 1 2 50 10 84 85
93 1 2 50 10 85 86
94 1 2 50 10 86 87
95 1 2 50 10 87 10
96 1 2 10 11 10 88
97 1 2 50 11 10 88
98 1 2 10 11 88 89
99 1 2 50 11 88 89
100 1 2 10 11 89 11
101 1 2 50 11 89 11
102 1 2 10 12 11 90
103 1 2 50 12 11 90
104 1 2 10 12 90 91
105 1 2 50 12 90 91
106 1 2 10 12 91 12
107 1 2 50 12 91 12
108 1 2 50 13 12 92
109 1 2 50 13 92 93
110 1 2 50 13 93 94
111 1 2 50 13 94 95
112 1 2 50 13 95 96
113 1 2 50 13 96 97
114 1 2 50 13 97 98
115 1 2 50 13 98 99
116 1 2 50 13 99 100
117 1 2 50 13 100 101
118 1 2 50 13 101 102
119 1 2 50 13 102 103
120 1 2 50 13 103 104
121 1 2 50 13 104 105
122 1 2 50 13 105 106
123 1 2 50 13 106 107
124 1 2 50 13 107 13
125 1 2 50 14 13 108
126 1 2 50 14 108 109
127 1 2 50 14 109 110
128 1 2 50 14 110 111
129 1 2 50 14 111 14
130 1 2 50 15 14 112
131 1 2 50 15 112 113
132 1 2 50 15 113 114
133 1 2 50 15 114 115
134 1 2 50 15 115 116
135 1 2 50 15 116 117
136 1 2 50 15 117 118
137 1 2 50 15 118 119
138 1 2 50 15 119 120
139 1 2 50 15 120 1
140 2 2 100 1 176 278 375
141 2 2 100 1 332 168 365
142 2 2 100 1 352 25 488
143 2 2 100 1 214 331 388
144 2 2 100 1 331 139 388
145 2 2 100 1 266 169 382
146 2 2 100 1 278 176 385
147 2 2 100 1 301 167 386
148 2 2 100 1 177 265 557
149 2 2 100 1 341 219 412
150 2 2 100 1 342 218 411
151 2 2 100 1 265 177 453
152 2 2 100 1 143 341 412
153 2 2 100 1 142 342 411
154 2 2 100 1 24 25 352
155 2 2 100 1 307 167 367
156 2 2 100 1 279 37 564
157 2 2 100 1 256 407 558
158 2 2 100 1 169 266 431
159 2 2 100 1 173 333 373
160 2 2 100 1 345 136 450
161 2 2 100 1 346 135 449
162 2 2 100 1 294 566 615
163 2 2 100 1 188 268 397
164 2 2 100 1 300 238 621
165 2 2 100 1 238 555 621
166 2 2 100 1 301 386 507
167 2 2 100 1 51 52 297
168 2 2 100 1 220 339 417
169 2 2 100 1 339 186 417
170 2 2 100 1 343 232 486
171 2 2 100 1 244 391 483
172 2 2 100 1 20 3 355
173 2 2 100 1 270 396 663
174 2 2 100 1 191 420 512
175 2 2 100 1 294 244 566
176 2 2 100 1 37 38 564
177 2 2 100 1 495 268 633
178 2 2 100 1 332 365 531
179 2 2 100 1 268 188 633
180 2 2 100 1 167 320 367
181 2 2 100 1 207 320 529
182 2 2 100 1 167 301 362
183 2 2 100 1 320 362 529
184 2 2 100 1 51 297 492
185 2 2 100 1 396 270 538
186 2 2 100 1 338 588 640
187 2 2 100 1 88 89 287
188 2 2 100 1 325 268 495
189 2 2 100 1 93 285 574
190 2 2 100 1 338 151 588
191 2 2 100 1 355 3 453
192 2 2 100 1 320 207 406
193 2 2 100 1 141 320 406
194 2 2 100 1 147 343 486
195 2 2 100 1 172 292 387
196 2 2 100 1 277 163 342
197 2 2 100 1 276 162 341
198 2 2 100 1 136 324 450
199 2 2 100 1 135 323 449
200 2 2 100 1 131 280 377
201 2 2 100 1 280 204 377
202 2 2 100 1 313 180 346
203 2 2 100 1 183 314 347
204 2 2 100 1 315 184 345
205 2 2 100 1 49 50 290
206 2 2 100 1 432 267 451
207 2 2 100 1 193 432 451
208 2 2 100 1 271 43 676
209 2 2 100 1 337 194 377
210 2 2 100 1 204 337 377
211 2 2 100 1 43 271 448
212 2 2 100 1 248 282 383
213 2 2 100 1 83 84 286
214 2 2 100 1 188 501 534
215 2 2 100 1 269 199 527
216 2 2 100 1 373 333 498
217 2 2 100 1 88 287 587
218 2 2 100 1 584 351 651
219 2 2 100 1 375 278 576
220 2 2 100 1 391 183 483
221 2 2 100 1 589 349 643
222 2 2 100 1 290 212 378
223 2 2 100 1 156 351 584
224 2 2 100 1 199 269 402
225 2 2 100 1 272 196 376
226 2 2 100 1 92 93 574
227 2 2 100 1 152 349 589
228 2 2 100 1 271 196 448
229 2 2 100 1 202 278 385
230 2 2 100 1 178 538 654
231 2 2 100 1 282 248 628
232 2 2 100 1 169 431 460
233 2 2 100 1 420 237 512
234 2 2 100 1 368 29 709
235 2 2 100 1 288 161 368
236 2 2 100 1 236 309 571
237 2 2 100 1 235 308 570
238 2 2 100 1 571 309 645
239 2 2 100 1 570 308 646
240 2 2 100 1 196 272 525
241 2 2 100 1 176 326 385
242 2 2 100 1 196 271 479
243 2 2 100 1 63 64 317
244 2 2 100 1 116 117 316
245 2 2 100 1 274 187 438
246 2 2 100 1 317 64 518
247 2 2 100 1 316 117 519
248 2 2 100 1 431 239 460
249 2 2 100 1 181 450 474
250 2 2 100 1 240 361 617
251 2 2 100 1 361 283 617
252 2 2 100 1 125 333 466
253 2 2 100 1 206 288 489
254 2 2 100 1 393 195 441
255 2 2 100 1 407 256 567
256 2 2 100 1 379 145 498
257 2 2 100 1 288 368 709
258 2 2 100 1 280 131 353
259 2 2 100 1 145 379 481
260 2 2 100 1 125 466 500
261 2 2 100 1 244 294 391
262 2 2 100 1 197 427 503
263 2 2 100 1 198 428 502
264 2 2 100 1 221 306 414
265 2 2 100 1 323 135 554
266 2 2 100 1 393 441 561
267 2 2 100 1 346 180 383
268 2 2 100 1 122 283 361
269 2 2 100 1 380 178 654
270 2 2 100 1 18 19 357
271 2 2 100 1 354 281 606
272 2 2 100 1 124 354 606
273 2 2 100 1 283 122 594
274 2 2 100 1 324 136 533
275 2 2 100 1 407 186 558
276 2 2 100 1 135 402 554
277 2 2 100 1 465 324 533
278 2 2 100 1 293 138 436
279 2 2 100 1 34 35 295
280 2 2 100 1 137 528 542
281 2 2 100 1 9 72 310
282 2 2 100 1 627 348 644
283 2 2 100 1 217 319 475
284 2 2 100 1 357 19 535
285 2 2 100 1 73 74 302
286 2 2 100 1 290 50 492
287 2 2 100 1 242 369 616
288 2 2 100 1 175 312 426
289 2 2 100 1 369 284 616
290 2 2 100 1 282 135 383
291 2 2 100 1 153 348 627
292 2 2 100 1 479 271 540
293 2 2 100 1 297 212 492
294 2 2 100 1 24 352 445
295 2 2 100 1 381 137 542
296 2 2 100 1 187 274 445
297 2 2 100 1 166 299 459
298 2 2 100 1 501 267 534
299 2 2 100 1 391 126 477
300 2 2 100 1 427 245 503
301 2 2 100 1 428 246 502
302 2 2 100 1 333 125 480
303 2 2 100 1 228 333 480
304 2 2 100 1 211 400 474
305 2 2 100 1 46 47 420
306 2 2 100 1 474 400 600
307 2 2 100 1 421 503 629
308 2 2 100 1 422 502 630
309 2 2 100 1 345 184 414
310 2 2 100 1 155 479 540
311 2 2 100 1 391 477 575
312 2 2 100 1 421 143 503
313 2 2 100 1 422 142 502
314 2 2 100 1 566 155 615
315 2 2 100 1 76 77 409
316 2 2 100 1 292 123 526
317 2 2 100 1 220 292 526
318 2 2 100 1 205 281 707
319 2 2 100 1 96 97 325
320 2 2 100 1 221 414 610
321 2 2 100 1 253 571 583
322 2 2 100 1 362 301 485
323 2 2 100 1 185 290 378
324 2 2 100 1 28 29 368
325 2 2 100 1 133 329 376
326 2 2 100 1 433 144 504
327 2 2 100 1 326 209 435
328 2 2 100 1 113 114 308
329 2 2 100 1 60 61 309
330 2 2 100 1 283 210 684
331 2 2 100 1 151 338 389
332 2 2 100 1 253 359 571
333 2 2 100 1 319 160 475
334 2 2 100 1 204 280 497
335 2 2 100 1 165 298 689
336 2 2 100 1 291 221 437
337 2 2 100 1 144 433 687
338 2 2 100 1 360 188 390
339 2 2 100 1 205 360 390
340 2 2 100 1 23 24 445
341 2 2 100 1 329 133 424
342 2 2 100 1 188 397 501
343 2 2 100 1 420 47 625
344 2 2 100 1 509 423 599
345 2 2 100 1 200 327 408
346 2 2 100 1 327 139 408
347 2 2 100 1 278 202 506
348 2 2 100 1 161 288 440
349 2 2 100 1 31 32 312
350 2 2 100 1 325 97 656
351 2 2 100 1 201 276 456
352 2 2 100 1 200 277 455
353 2 2 100 1 307 129 655
354 2 2 100 1 361 181 474
355 2 2 100 1 279 194 446
356 2 2 100 1 37 279 446
357 2 2 100 1 179 313 346
358 2 2 100 1 181 315 345
359 2 2 100 1 314 182 347
360 2 2 100 1 303 177 557
361 2 2 100 1 404 512 592
362 2 2 100 1 298 458 689
363 2 2 100 1 407 641 694
364 2 2 100 1 404 141 512
365 2 2 100 1 228 379 498
366 2 2 100 1 396 130 663
367 2 2 100 1 183 347 483
368 2 2 100 1 276 201 490
369 2 2 100 1 133 347 424
370 2 2 100 1 286 84 452
371 2 2 100 1 65 66 334
372 2 2 100 1 118 119 335
373 2 2 100 1 280 353 595
374 2 2 100 1 310 72 508
375 2 2 100 1 162 276 685
376 2 2 100 1 163 277 686
377 2 2 100 1 277 200 522
378 2 2 100 1 353 241 595
379 2 2 100 1 409 77 578
380 2 2 100 1 248 383 668
381 2 2 100 1 297 52 429
382 2 2 100 1 313 179 353
383 2 2 100 1 212 290 492
384 2 2 100 1 432 137 534
385 2 2 100 1 219 317 518
386 2 2 100 1 218 316 519
387 2 2 100 1 328 140 416
388 2 2 100 1 201 328 416
389 2 2 100 1 296 134 403
390 2 2 100 1 379 224 481
391 2 2 100 1 131 313 353
392 2 2 100 1 226 350 509
393 2 2 100 1 137 390 534
394 2 2 100 1 313 131 369
395 2 2 100 1 214 303 372
396 2 2 100 1 192 307 367
397 2 2 100 1 129 307 413
398 2 2 100 1 307 192 413
399 2 2 100 1 312 175 465
400 2 2 100 1 206 312 465
401 2 2 100 1 285 93 447
402 2 2 100 1 106 469 641
403 2 2 100 1 369 131 647
404 2 2 100 1 290 185 553
405 2 2 100 1 284 194 478
406 2 2 100 1 186 407 694
407 2 2 100 1 210 283 594
408 2 2 100 1 128 289 683
409 2 2 100 1 381 205 390
410 2 2 100 1 137 381 390
411 2 2 100 1 223 423 509
412 2 2 100 1 194 279 478
413 2 2 100 1 387 292 468
414 2 2 100 1 284 369 647
415 2 2 100 1 252 358 652
416 2 2 100 1 386 307 655
417 2 2 100 1 305 185 378
418 2 2 100 1 528 137 590
419 2 2 100 1 294 126 391
420 2 2 100 1 135 282 664
421 2 2 100 1 281 205 606
422 2 2 100 1 392 208 424
423 2 2 100 1 226 509 532
424 2 2 100 1 289 201 416
425 2 2 100 1 358 570 652
426 2 2 100 1 469 275 641
427 2 2 100 1 287 89 462
428 2 2 100 1 199 287 462
429 2 2 100 1 194 284 647
430 2 2 100 1 213 352 488
431 2 2 100 1 489 288 709
432 2 2 100 1 331 214 439
433 2 2 100 1 314 183 403
434 2 2 100 1 189 310 374
435 2 2 100 1 180 313 369
436 2 2 100 1 132 356 511
437 2 2 100 1 356 243 511
438 2 2 100 1 310 215 374
439 2 2 100 1 83 286 454
440 2 2 100 1 378 212 577
441 2 2 100 1 321 252 582
442 2 2 100 1 138 305 378
443 2 2 100 1 320 167 362
444 2 2 100 1 380 205 381
445 2 2 100 1 178 380 381
446 2 2 100 1 73 302 508
447 2 2 100 1 288 206 440
448 2 2 100 1 43 44 676
449 2 2 100 1 304 213 463
450 2 2 100 1 13 108 321
451 2 2 100 1 55 56 322
452 2 2 100 1 314 134 435
453 2 2 100 1 320 141 367
454 2 2 100 1 395 600 634
455 2 2 100 1 506 86 576
456 2 2 100 1 136 306 533
457 2 2 100 1 192 293 413
458 2 2 100 1 497 280 595
459 2 2 100 1 182 392 424
460 2 2 100 1 140 328 374
461 2 2 100 1 167 307 386
462 2 2 100 1 165 321 582
463 2 2 100 1 175 426 644
464 2 2 100 1 538 264 654
465 2 2 100 1 395 122 600
466 2 2 100 1 36 4 337
467 2 2 100 1 94 95 336
468 2 2 100 1 348 153 400
469 2 2 100 1 268 325 656
470 2 2 100 1 372 123 439
471 2 2 100 1 214 372 439
472 2 2 100 1 344 129 413
473 2 2 100 1 306 136 414
474 2 2 100 1 357 190 713
475 2 2 100 1 328 189 374
476 2 2 100 1 306 161 440
477 2 2 100 1 123 292 439
478 2 2 100 1 278 506 576
479 2 2 100 1 190 419 713
480 2 2 100 1 109 110 358
481 2 2 100 1 57 5 359
482 2 2 100 1 160 297 562
483 2 2 100 1 215 310 508
484 2 2 100 1 45 318 676
485 2 2 100 1 315 181 510
486 2 2 100 1 184 315 511
487 2 2 100 1 154 495 633
488 2 2 100 1 34 295 609
489 2 2 100 1 134 326 435
490 2 2 100 1 356 203 495
491 2 2 100 1 287 199 482
492 2 2 100 1 371 130 396
493 2 2 100 1 225 371 396
494 2 2 100 1 173 484 638
495 2 2 100 1 168 293 436
496 2 2 100 1 221 291 572
497 2 2 100 1 138 293 631
498 2 2 100 1 188 360 633
499 2 2 100 1 326 134 385
500 2 2 100 1 370 91 691
501 2 2 100 1 296 403 710
502 2 2 100 1 302 215 508
503 2 2 100 1 295 260 609
504 2 2 100 1 318 191 540
505 2 2 100 1 63 317 443
506 2 2 100 1 116 316 442
507 2 2 100 1 151 389 616
508 2 2 100 1 233 433 504
509 2 2 100 1 363 170 384
510 2 2 100 1 330 256 695
511 2 2 100 1 185 305 404
512 2 2 100 1 204 295 473
513 2 2 100 1 295 35 473
514 2 2 100 1 49 290 553
515 2 2 100 1 91 12 691
516 2 2 100 1 153 497 595
517 2 2 100 1 209 410 499
518 2 2 100 1 302 74 425
519 2 2 100 1 304 130 476
520 2 2 100 1 435 209 622
521 2 2 100 1 139 331 408
522 2 2 100 1 134 314 403
523 2 2 100 1 384 170 493
524 2 2 100 1 178 396 538
525 2 2 100 1 351 156 410
526 2 2 100 1 311 200 408
527 2 2 100 1 484 289 638
528 2 2 100 1 339 146 558
529 2 2 100 1 403 251 710
530 2 2 100 1 360 205 707
531 2 2 100 1 310 189 642
532 2 2 100 1 26 300 488
533 2 2 100 1 289 128 490
534 2 2 100 1 201 289 490
535 2 2 100 1 379 228 475
536 2 2 100 1 160 379 475
537 2 2 100 1 127 311 681
538 2 2 100 1 375 87 698
539 2 2 100 1 139 327 461
540 2 2 100 1 109 358 597
541 2 2 100 1 57 359 598
542 2 2 100 1 164 302 608
543 2 2 100 1 135 346 383
544 2 2 100 1 436 138 569
545 2 2 100 1 210 349 684
546 2 2 100 1 338 208 389
547 2 2 100 1 202 296 496
548 2 2 100 1 357 222 461
549 2 2 100 1 190 357 461
550 2 2 100 1 40 366 678
551 2 2 100 1 292 220 468
552 2 2 100 1 87 10 698
553 2 2 100 1 286 496 516
554 2 2 100 1 2 16 428
555 2 2 100 1 69 70 427
556 2 2 100 1 130 304 663
557 2 2 100 1 330 193 618
558 2 2 100 1 293 168 593
559 2 2 100 1 184 354 610
560 2 2 100 1 496 159 516
561 2 2 100 1 181 345 450
562 2 2 100 1 179 346 449
563 2 2 100 1 90 513 527
564 2 2 100 1 293 192 631
565 2 2 100 1 312 32 426
566 2 2 100 1 170 415 493
567 2 2 100 1 415 250 493
568 2 2 100 1 415 170 494
569 2 2 100 1 249 415 494
570 2 2 100 1 296 202 614
571 2 2 100 1 203 356 669
572 2 2 100 1 31 312 489
573 2 2 100 1 457 330 695
574 2 2 100 1 496 296 710
575 2 2 100 1 166 459 688
576 2 2 100 1 499 410 596
577 2 2 100 1 159 496 710
578 2 2 100 1 292 172 657
579 2 2 100 1 177 355 453
580 2 2 100 1 229 301 599
581 2 2 100 1 301 148 599
582 2 2 100 1 41 525 530
583 2 2 100 1 331 439 657
584 2 2 100 1 208 329 424
585 2 2 100 1 39 40 678
586 2 2 100 1 136 345 414
587 2 2 100 1 337 4 446
588 2 2 100 1 94 336 447
589 2 2 100 1 450 211 474
590 2 2 100 1 170 363 494
591 2 2 100 1 363 226 494
592 2 2 100 1 227 384 493
593 2 2 100 1 312 206 489
594 2 2 100 1 44 45 676
595 2 2 100 1 286 452 496
596 2 2 100 1 376 196 394
597 2 2 100 1 133 376 394
598 2 2 100 1 303 214 650
599 2 2 100 1 261 584 651
600 2 2 100 1 558 146 695
601 2 2 100 1 182 314 435
602 2 2 100 1 376 329 626
603 2 2 100 1 371 225 487
604 2 2 100 1 169 371 487
605 2 2 100 1 304 463 663
606 2 2 100 1 277 342 455
607 2 2 100 1 276 341 456
608 2 2 100 1 271 318 540
609 2 2 100 1 12 92 574
610 2 2 100 1 368 161 635
611 2 2 100 1 211 348 400
612 2 2 100 1 222 357 535
613 2 2 100 1 219 334 412
614 2 2 100 1 218 335 411
615 2 2 100 1 137 432 590
616 2 2 100 1 356 441 669
617 2 2 100 1 469 233 504
618 2 2 100 1 275 469 504
619 2 2 100 1 217 365 436
620 2 2 100 1 365 168 436
621 2 2 100 1 356 495 560
622 2 2 100 1 189 328 421
623 2 2 100 1 190 327 422
624 2 2 100 1 12 574 691
625 2 2 100 1 335 198 411
626 2 2 100 1 334 197 412
627 2 2 100 1 298 165 582
628 2 2 100 1 259 589 643
629 2 2 100 1 319 217 569
630 2 2 100 1 194 337 446
631 2 2 100 1 336 195 447
632 2 2 100 1 588 258 640
633 2 2 100 1 354 505 610
634 2 2 100 1 52 6 429
635 2 2 100 1 347 133 483
636 2 2 100 1 207 294 615
637 2 2 100 1 294 207 529
638 2 2 100 1 126 294 529
639 2 2 100 1 260 295 627
640 2 2 100 1 334 66 546
641 2 2 100 1 335 119 547
642 2 2 100 1 300 26 637
643 2 2 100 1 191 318 548
644 2 2 100 1 113 308 605
645 2 2 100 1 60 309 604
646 2 2 100 1 38 39 564
647 2 2 100 1 248 430 596
648 2 2 100 1 306 440 533
649 2 2 100 1 295 204 497
650 2 2 100 1 289 484 683
651 2 2 100 1 134 296 614
652 2 2 100 1 354 243 714
653 2 2 100 1 309 61 544
654 2 2 100 1 308 114 543
655 2 2 100 1 231 309 544
656 2 2 100 1 230 308 543
657 2 2 100 1 213 300 621
658 2 2 100 1 212 297 541
659 2 2 100 1 507 249 532
660 2 2 100 1 14 112 523
661 2 2 100 1 111 14 523
662 2 2 100 1 7 59 524
663 2 2 100 1 58 7 524
664 2 2 100 1 297 160 541
665 2 2 100 1 252 321 597
666 2 2 100 1 253 322 598
667 2 2 100 1 358 252 597
668 2 2 100 1 359 253 598
669 2 2 100 1 209 351 410
670 2 2 100 1 395 179 449
671 2 2 100 1 210 395 449
672 2 2 100 1 406 191 512
673 2 2 100 1 300 213 488
674 2 2 100 1 428 16 620
675 2 2 100 1 427 70 619
676 2 2 100 1 299 166 653
677 2 2 100 1 403 183 575
678 2 2 100 1 123 431 526
679 2 2 100 1 431 266 526
680 2 2 100 1 469 107 470
681 2 2 100 1 301 229 485
682 2 2 100 1 482 282 628
683 2 2 100 1 281 354 714
684 2 2 100 1 192 305 631
685 2 2 100 1 140 364 416
686 2 2 100 1 185 401 553
687 2 2 100 1 513 269 527
688 2 2 100 1 199 462 527
689 2 2 100 1 347 182 424
690 2 2 100 1 191 405 540
691 2 2 100 1 322 253 653
692 2 2 100 1 525 272 530
693 2 2 100 1 238 300 637
694 2 2 100 1 564 39 678
695 2 2 100 1 193 457 590
696 2 2 100 1 452 202 496
697 2 2 100 1 448 196 525
698 2 2 100 1 590 457 648
699 2 2 100 1 148 301 507
700 2 2 100 1 193 451 618
701 2 2 100 1 323 210 449
702 2 2 100 1 324 211 450
703 2 2 100 1 125 365 480
704 2 2 100 1 365 217 480
705 2 2 100 1 274 438 565
706 2 2 100 1 311 172 467
707 2 2 100 1 305 192 591
708 2 2 100 1 318 271 676
709 2 2 100 1 247 332 531
710 2 2 100 1 400 153 595
711 2 2 100 1 321 108 597
712 2 2 100 1 322 56 598
713 2 2 100 1 215 302 581
714 2 2 100 1 9 310 642
715 2 2 100 1 308 235 605
716 2 2 100 1 309 236 604
717 2 2 100 1 189 418 642
718 2 2 100 1 173 373 484
719 2 2 100 1 304 476 624
720 2 2 100 1 476 187 624
721 2 2 100 1 207 405 406
722 2 2 100 1 405 191 406
723 2 2 100 1 67 398 546
724 2 2 100 1 120 399 547
725 2 2 100 1 10 88 587
726 2 2 100 1 311 467 681
727 2 2 100 1 341 143 456
728 2 2 100 1 342 142 455
729 2 2 100 1 306 221 572
730 2 2 100 1 161 306 572
731 2 2 100 1 144 417 504
732 2 2 100 1 303 150 520
733 2 2 100 1 150 303 557
734 2 2 100 1 302 164 581
735 2 2 100 1 285 447 636
736 2 2 100 1 81 350 563
737 2 2 100 1 177 303 650
738 2 2 100 1 166 322 653
739 2 2 100 1 327 190 461
740 2 2 100 1 213 304 624
741 2 2 100 1 98 99 397
742 2 2 100 1 447 195 636
743 2 2 100 1 193 330 457
744 2 2 100 1 305 138 631
745 2 2 100 1 184 511 667
746 2 2 100 1 62 63 443
747 2 2 100 1 115 116 442
748 2 2 100 1 336 95 472
749 2 2 100 1 203 336 472
750 2 2 100 1 337 204 473
751 2 2 100 1 36 337 473
752 2 2 100 1 463 270 663
753 2 2 100 1 434 145 481
754 2 2 100 1 234 434 481
755 2 2 100 1 66 67 546
756 2 2 100 1 119 120 547
757 2 2 100 1 476 130 632
758 2 2 100 1 284 478 616
759 2 2 100 1 164 343 464
760 2 2 100 1 343 247 464
761 2 2 100 1 510 181 665
762 2 2 100 1 250 344 517
763 2 2 100 1 333 228 498
764 2 2 100 1 200 311 522
765 2 2 100 1 156 482 628
766 2 2 100 1 352 187 445
767 2 2 100 1 641 275 694
768 2 2 100 1 257 528 590
769 2 2 100 1 175 324 465
770 2 2 100 1 104 105 407
771 2 2 100 1 10 587 698
772 2 2 100 1 202 385 614
773 2 2 100 1 297 429 562
774 2 2 100 1 329 171 626
775 2 2 100 1 356 132 441
776 2 2 100 1 350 81 545
777 2 2 100 1 333 173 466
778 2 2 100 1 308 230 646
779 2 2 100 1 309 231 645
780 2 2 100 1 311 127 522
781 2 2 100 1 394 196 479
782 2 2 100 1 53 54 705
783 2 2 100 1 251 403 575
784 2 2 100 1 172 311 699
785 2 2 100 1 143 421 697
786 2 2 100 1 142 422 696
787 2 2 100 1 367 141 591
788 2 2 100 1 96 325 472
789 2 2 100 1 325 203 472
790 2 2 100 1 132 315 510
791 2 2 100 1 315 132 511
792 2 2 100 1 460 239 623
793 2 2 100 1 291 437 568
794 2 2 100 1 389 242 616
795 2 2 100 1 13 321 470
796 2 2 100 1 55 322 471
797 2 2 100 1 302 425 608
798 2 2 100 1 148 509 599
799 2 2 100 1 233 469 470
800 2 2 100 1 444 53 705
801 2 2 100 1 82 83 454
802 2 2 100 1 478 151 616
803 2 2 100 1 260 627 644
804 2 2 100 1 410 156 628
805 2 2 100 1 456 143 697
806 2 2 100 1 455 142 696
807 2 2 100 1 78 384 578
808 2 2 100 1 74 75 425
809 2 2 100 1 32 33 426
810 2 2 100 1 316 218 579
811 2 2 100 1 317 219 580
812 2 2 100 1 555 149 621
813 2 2 100 1 430 248 668
814 2 2 100 1 318 45 548
815 2 2 100 1 330 102 692
816 2 2 100 1 335 218 519
817 2 2 100 1 334 219 518
818 2 2 100 1 118 335 519
819 2 2 100 1 65 334 518
820 2 2 100 1 273 460 623
821 2 2 100 1 434 586 688
822 2 2 100 1 426 260 644
823 2 2 100 1 417 144 468
824 2 2 100 1 220 417 468
825 2 2 100 1 198 399 671
826 2 2 100 1 197 398 670
827 2 2 100 1 397 268 656
828 2 2 100 1 371 169 460
829 2 2 100 1 258 366 640
830 2 2 100 1 366 171 640
831 2 2 100 1 504 417 694
832 2 2 100 1 160 319 541
833 2 2 100 1 319 138 577
834 2 2 100 1 319 212 541
835 2 2 100 1 212 319 577
836 2 2 100 1 353 179 634
837 2 2 100 1 138 319 569
838 2 2 100 1 141 404 591
839 2 2 100 1 203 325 495
840 2 2 100 1 80 81 563
841 2 2 100 1 226 363 675
842 2 2 100 1 126 362 485
843 2 2 100 1 266 382 677
844 2 2 100 1 232 343 608
845 2 2 100 1 209 326 662
846 2 2 100 1 25 26 488
847 2 2 100 1 466 216 500
848 2 2 100 1 412 197 503
849 2 2 100 1 411 198 502
850 2 2 100 1 173 364 466
851 2 2 100 1 197 334 546
852 2 2 100 1 198 335 547
853 2 2 100 1 282 482 664
854 2 2 100 1 210 323 659
855 2 2 100 1 211 324 658
856 2 2 100 1 344 413 593
857 2 2 100 1 168 332 706
858 2 2 100 1 77 78 578
859 2 2 100 1 321 165 585
860 2 2 100 1 322 166 586
861 2 2 100 1 343 164 608
862 2 2 100 1 393 152 636
863 2 2 100 1 257 487 528
864 2 2 100 1 241 353 634
865 2 2 100 1 377 194 647
866 2 2 100 1 238 368 635
867 2 2 100 1 241 400 595
868 2 2 100 1 428 198 671
869 2 2 100 1 427 197 670
870 2 2 100 1 420 191 548
871 2 2 100 1 483 133 711
872 2 2 100 1 148 507 532
873 2 2 100 1 257 382 487
874 2 2 100 1 430 121 596
875 2 2 100 1 370 259 643
876 2 2 100 1 174 370 643
877 2 2 100 1 107 13 470
878 2 2 100 1 54 55 471
879 2 2 100 1 572 291 635
880 2 2 100 1 20 355 535
881 2 2 100 1 361 240 665
882 2 2 100 1 323 174 659
883 2 2 100 1 324 175 658
884 2 2 100 1 326 176 662
885 2 2 100 1 438 273 623
886 2 2 100 1 150 438 623
887 2 2 100 1 195 336 669
888 2 2 100 1 48 401 625
889 2 2 100 1 4 37 446
890 2 2 100 1 93 94 447
891 2 2 100 1 42 43 448
892 2 2 100 1 332 247 672
893 2 2 100 1 375 261 651
894 2 2 100 1 176 375 651
895 2 2 100 1 364 216 466
896 2 2 100 1 174 323 554
897 2 2 100 1 386 249 507
898 2 2 100 1 329 208 649
899 2 2 100 1 327 200 696
900 2 2 100 1 328 201 697
901 2 2 100 1 402 135 664
902 2 2 100 1 438 150 565
903 2 2 100 1 237 420 625
904 2 2 100 1 81 82 545
905 2 2 100 1 144 387 468
906 2 2 100 1 171 329 649
907 2 2 100 1 273 476 632
908 2 2 100 1 401 48 553
909 2 2 100 1 84 85 452
910 2 2 100 1 216 464 500
911 2 2 100 1 464 247 500
912 2 2 100 1 336 203 669
913 2 2 100 1 490 128 552
914 2 2 100 1 276 490 552
915 2 2 100 1 122 361 474
916 2 2 100 1 47 48 625
917 2 2 100 1 232 409 486
918 2 2 100 1 227 409 578
919 2 2 100 1 338 171 649
920 2 2 100 1 147 517 672
921 2 2 100 1 517 332 672
922 2 2 100 1 202 452 506
923 2 2 100 1 102 330 618
924 2 2 100 1 98 397 656
925 2 2 100 1 99 100 501
926 2 2 100 1 256 330 692
927 2 2 100 1 208 338 649
928 2 2 100 1 172 387 467
929 2 2 100 1 340 164 712
930 2 2 100 1 382 146 677
931 2 2 100 1 89 11 462
932 2 2 100 1 152 589 636
933 2 2 100 1 48 49 553
934 2 2 100 1 245 427 619
935 2 2 100 1 246 428 620
936 2 2 100 1 171 338 640
937 2 2 100 1 316 579 701
938 2 2 100 1 317 580 702
939 2 2 100 1 85 86 506
940 2 2 100 1 426 33 609
941 2 2 100 1 104 407 567
942 2 2 100 1 350 223 509
943 2 2 100 1 355 177 556
944 2 2 100 1 222 355 556
945 2 2 100 1 392 182 622
946 2 2 100 1 387 254 467
947 2 2 100 1 122 474 600
948 2 2 100 1 571 158 583
949 2 2 100 1 146 339 677
950 2 2 100 1 41 42 525
951 2 2 100 1 161 572 635
952 2 2 100 1 273 438 476
953 2 2 100 1 438 187 476
954 2 2 100 1 248 410 628
955 2 2 100 1 423 159 521
956 2 2 100 1 229 423 521
957 2 2 100 1 339 220 704
958 2 2 100 1 247 343 672
959 2 2 100 1 343 147 672
960 2 2 100 1 11 90 527
961 2 2 100 1 382 257 648
962 2 2 100 1 146 382 648
963 2 2 100 1 586 166 688
964 2 2 100 1 434 234 586
965 2 2 100 1 243 354 667
966 2 2 100 1 528 225 542
967 2 2 100 1 463 149 613
968 2 2 100 1 373 255 484
969 2 2 100 1 260 426 609
970 2 2 100 1 100 101 703
971 2 2 100 1 354 124 505
972 2 2 100 1 487 225 528
973 2 2 100 1 215 340 693
974 2 2 100 1 579 163 701
975 2 2 100 1 580 162 702
976 2 2 100 1 344 250 679
977 2 2 100 1 129 344 679
978 2 2 100 1 139 461 607
979 2 2 100 1 174 349 659
980 2 2 100 1 175 348 658
981 2 2 100 1 502 246 630
982 2 2 100 1 503 245 629
983 2 2 100 1 404 305 591
984 2 2 100 1 164 340 581
985 2 2 100 1 186 339 558
986 2 2 100 1 105 106 641
987 2 2 100 1 349 152 684
988 2 2 100 1 176 351 662
989 2 2 100 1 441 132 561
990 2 2 100 1 270 463 613
991 2 2 100 1 402 269 554
992 2 2 100 1 396 178 542
993 2 2 100 1 225 396 542
994 2 2 100 1 372 303 520
995 2 2 100 1 223 350 545
996 2 2 100 1 341 162 580
997 2 2 100 1 219 341 580
998 2 2 100 1 342 163 579
999 2 2 100 1 218 342 579
1000 2 2 100 1 340 215 581
1001 2 2 100 1 71 9 642
1002 2 2 100 1 482 199 664
1003 2 2 100 1 382 169 487
1004 2 2 100 1 418 71 642
1005 2 2 100 1 145 373 498
1006 2 2 100 1 224 444 481
1007 2 2 100 1 444 234 481
1008 2 2 100 1 205 380 606
1009 2 2 100 1 352 213 624
1010 2 2 100 1 26 27 637
1011 2 2 100 1 349 210 659
1012 2 2 100 1 348 211 658
1013 2 2 100 1 350 226 563
1014 2 2 100 1 349 174 643
1015 2 2 100 1 348 175 644
1016 2 2 100 1 101 451 703
1017 2 2 100 1 369 242 682
1018 2 2 100 1 152 393 617
1019 2 2 100 1 393 240 617
1020 2 2 100 1 19 20 535
1021 2 2 100 1 355 222 535
1022 2 2 100 1 102 103 692
1023 2 2 100 1 351 209 662
1024 2 2 100 1 91 370 513
1025 2 2 100 1 509 148 532
1026 2 2 100 1 398 197 546
1027 2 2 100 1 399 198 547
1028 2 2 100 1 106 107 469
1029 2 2 100 1 362 126 529
1030 2 2 100 1 351 176 651
1031 2 2 100 1 512 237 592
1032 2 2 100 1 140 374 693
1033 2 2 100 1 129 415 655
1034 2 2 100 1 239 372 520
1035 2 2 100 1 385 134 614
1036 2 2 100 1 366 40 530
1037 2 2 100 1 408 331 699
1038 2 2 100 1 365 125 531
1039 2 2 100 1 95 96 472
1040 2 2 100 1 35 36 473
1041 2 2 100 1 235 358 602
1042 2 2 100 1 236 359 603
1043 2 2 100 1 359 5 603
1044 2 2 100 1 358 110 602
1045 2 2 100 1 437 264 568
1046 2 2 100 1 28 368 549
1047 2 2 100 1 368 238 549
1048 2 2 100 1 21 22 491
1049 2 2 100 1 3 21 680
1050 2 2 100 1 187 352 624
1051 2 2 100 1 224 379 562
1052 2 2 100 1 379 160 562
1053 2 2 100 1 159 423 516
1054 2 2 100 1 423 223 516
1055 2 2 100 1 243 356 560
1056 2 2 100 1 18 357 713
1057 2 2 100 1 491 274 565
1058 2 2 100 1 265 491 565
1059 2 2 100 1 354 184 667
1060 2 2 100 1 121 392 499
1061 2 2 100 1 401 185 592
1062 2 2 100 1 237 401 592
1063 2 2 100 1 522 127 551
1064 2 2 100 1 277 522 551
1065 2 2 100 1 563 226 675
1066 2 2 100 1 394 479 566
1067 2 2 100 1 364 140 573
1068 2 2 100 1 397 99 501
1069 2 2 100 1 600 241 634
1070 2 2 100 1 409 227 486
1071 2 2 100 1 358 235 570
1072 2 2 100 1 359 236 571
1073 2 2 100 1 82 454 545
1074 2 2 100 1 45 46 548
1075 2 2 100 1 389 208 601
1076 2 2 100 1 46 420 548
1077 2 2 100 1 124 437 505
1078 2 2 100 1 437 221 505
1079 2 2 100 1 138 378 577
1080 2 2 100 1 374 215 693
1081 2 2 100 1 216 364 573
1082 2 2 100 1 405 207 615
1083 2 2 100 1 181 361 665
1084 2 2 100 1 30 31 489
1085 2 2 100 1 178 381 542
1086 2 2 100 1 208 392 601
1087 2 2 100 1 388 177 650
1088 2 2 100 1 573 140 693
1089 2 2 100 1 388 139 607
1090 2 2 100 1 50 51 492
1091 2 2 100 1 366 258 678
1092 2 2 100 1 415 129 679
1093 2 2 100 1 364 173 638
1094 2 2 100 1 267 432 534
1095 2 2 100 1 340 573 693
1096 2 2 100 1 453 3 680
1097 2 2 100 1 395 210 594
1098 2 2 100 1 192 367 591
1099 2 2 100 1 90 91 513
1100 2 2 100 1 425 75 559
1101 2 2 100 1 232 425 559
1102 2 2 100 1 171 366 690
1103 2 2 100 1 123 372 708
1104 2 2 100 1 259 370 691
1105 2 2 100 1 142 411 502
1106 2 2 100 1 143 412 503
1107 2 2 100 1 149 555 568
1108 2 2 100 1 555 291 568
1109 2 2 100 1 87 375 576
1110 2 2 100 1 141 406 512
1111 2 2 100 1 180 369 682
1112 2 2 100 1 390 188 534
1113 2 2 100 1 251 477 521
1114 2 2 100 1 477 229 521
1115 2 2 100 1 217 475 480
1116 2 2 100 1 475 228 480
1117 2 2 100 1 255 373 700
1118 2 2 100 1 373 145 700
1119 2 2 100 1 370 174 661
1120 2 2 100 1 16 17 620
1121 2 2 100 1 70 71 619
1122 2 2 100 1 71 418 619
1123 2 2 100 1 17 419 620
1124 2 2 100 1 130 371 632
1125 2 2 100 1 418 189 629
1126 2 2 100 1 245 418 629
1127 2 2 100 1 419 190 630
1128 2 2 100 1 246 419 630
1129 2 2 100 1 372 239 708
1130 2 2 100 1 517 344 706
1131 2 2 100 1 261 375 698
1132 2 2 100 1 463 213 621
1133 2 2 100 1 157 570 646
1134 2 2 100 1 158 571 645
1135 2 2 100 1 177 388 556
1136 2 2 100 1 272 376 626
1137 2 2 100 1 499 392 622
1138 2 2 100 1 40 41 530
1139 2 2 100 1 72 73 508
1140 2 2 100 1 384 227 578
1141 2 2 100 1 380 124 606
1142 2 2 100 1 86 87 576
1143 2 2 100 1 254 387 687
1144 2 2 100 1 387 144 687
1145 2 2 100 1 477 251 575
1146 2 2 100 1 242 389 660
1147 2 2 100 1 398 68 670
1148 2 2 100 1 399 15 671
1149 2 2 100 1 131 377 647
1150 2 2 100 1 311 408 699
1151 2 2 100 1 76 409 559
1152 2 2 100 1 124 380 654
1153 2 2 100 1 64 65 518
1154 2 2 100 1 117 118 519
1155 2 2 100 1 6 53 550
1156 2 2 100 1 612 299 673
1157 2 2 100 1 611 298 674
1158 2 2 100 1 439 292 657
1159 2 2 100 1 441 195 669
1160 2 2 100 1 229 477 485
1161 2 2 100 1 477 126 485
1162 2 2 100 1 115 442 543
1163 2 2 100 1 442 230 543
1164 2 2 100 1 62 443 544
1165 2 2 100 1 443 231 544
1166 2 2 100 1 415 249 655
1167 2 2 100 1 244 394 566
1168 2 2 100 1 240 393 561
1169 2 2 100 1 383 180 668
1170 2 2 100 1 405 155 540
1171 2 2 100 1 384 78 666
1172 2 2 100 1 363 384 666
1173 2 2 100 1 75 76 559
1174 2 2 100 1 183 391 575
1175 2 2 100 1 298 652 674
1176 2 2 100 1 437 124 654
1177 2 2 100 1 264 437 654
1178 2 2 100 1 230 442 701
1179 2 2 100 1 231 443 702
1180 2 2 100 1 112 113 605
1181 2 2 100 1 59 60 604
1182 2 2 100 1 110 111 602
1183 2 2 100 1 5 58 603
1184 2 2 100 1 454 286 516
1185 2 2 100 1 249 386 655
1186 2 2 100 1 214 388 650
1187 2 2 100 1 30 489 709
1188 2 2 100 1 249 494 532
1189 2 2 100 1 68 69 670
1190 2 2 100 1 15 2 671
1191 2 2 100 1 122 395 594
1192 2 2 100 1 392 121 601
1193 2 2 100 1 180 430 668
1194 2 2 100 1 165 433 585
1195 2 2 100 1 433 233 585
1196 2 2 100 1 250 517 539
1197 2 2 100 1 452 85 506
1198 2 2 100 1 114 115 543
1199 2 2 100 1 61 62 544
1200 2 2 100 1 400 241 600
1201 2 2 100 1 17 18 713
1202 2 2 100 1 27 28 549
1203 2 2 100 1 419 17 713
1204 2 2 100 1 409 232 559
1205 2 2 100 1 53 444 550
1206 2 2 100 1 554 269 661
1207 2 2 100 1 416 364 638
1208 2 2 100 1 429 6 550
1209 2 2 100 1 224 429 550
1210 2 2 100 1 195 393 636
1211 2 2 100 1 666 79 675
1212 2 2 100 1 179 395 634
1213 2 2 100 1 101 102 618
1214 2 2 100 1 421 328 697
1215 2 2 100 1 422 327 696
1216 2 2 100 1 440 206 533
1217 2 2 100 1 363 666 675
1218 2 2 100 1 42 448 525
1219 2 2 100 1 133 394 711
1220 2 2 100 1 262 611 674
1221 2 2 100 1 263 612 673
1222 2 2 100 1 185 404 592
1223 2 2 100 1 401 237 625
1224 2 2 100 1 276 552 685
1225 2 2 100 1 277 551 686
1226 2 2 100 1 223 454 516
1227 2 2 100 1 394 244 711
1228 2 2 100 1 164 464 712
1229 2 2 100 1 68 398 715
1230 2 2 100 1 15 399 716
1231 2 2 100 1 398 67 715
1232 2 2 100 1 399 120 716
1233 2 2 100 1 593 168 706
1234 2 2 100 1 344 593 706
1235 2 2 100 1 454 223 545
1236 2 2 100 1 501 100 703
1237 2 2 100 1 103 104 567
1238 2 2 100 1 155 405 615
1239 2 2 100 1 54 471 705
1240 2 2 100 1 413 293 593
1241 2 2 100 1 410 248 596
1242 2 2 100 1 458 298 611
1243 2 2 100 1 459 299 612
1244 2 2 100 1 121 499 596
1245 2 2 100 1 429 224 562
1246 2 2 100 1 250 415 679
1247 2 2 100 1 459 255 688
1248 2 2 100 1 199 402 664
1249 2 2 100 1 462 11 527
1250 2 2 100 1 154 633 707
1251 2 2 100 1 633 360 707
1252 2 2 100 1 274 491 639
1253 2 2 100 1 491 22 639
1254 2 2 100 1 407 105 641
1255 2 2 100 1 414 184 610
1256 2 2 100 1 108 109 597
1257 2 2 100 1 56 57 598
1258 2 2 100 1 217 436 569
1259 2 2 100 1 33 34 609
1260 2 2 100 1 423 229 599
1261 2 2 100 1 444 224 550
1262 2 2 100 1 495 154 560
1263 2 2 100 1 418 245 619
1264 2 2 100 1 419 246 620
1265 2 2 100 1 289 416 638
1266 2 2 100 1 517 147 539
1267 2 2 100 1 451 101 618
1268 2 2 100 1 189 421 629
1269 2 2 100 1 190 422 630
1270 2 2 100 1 206 465 533
1271 2 2 100 1 125 500 531
1272 2 2 100 1 500 247 531
1273 2 2 100 1 425 232 608
1274 2 2 100 1 22 23 639
1275 2 2 100 1 442 316 701
1276 2 2 100 1 443 317 702
1277 2 2 100 1 432 193 590
1278 2 2 100 1 486 227 539
1279 2 2 100 1 493 250 539
1280 2 2 100 1 652 157 674
1281 2 2 100 1 584 261 587
1282 2 2 100 1 287 584 587
1283 2 2 100 1 470 321 585
1284 2 2 100 1 471 322 586
1285 2 2 100 1 79 80 675
1286 2 2 100 1 151 478 588
1287 2 2 100 1 478 279 588
1288 2 2 100 1 97 98 656
1289 2 2 100 1 227 493 539
1290 2 2 100 1 78 79 666
1291 2 2 100 1 275 504 694
1292 2 2 100 1 120 1 716
1293 2 2 100 1 67 8 715
1294 2 2 100 1 8 68 715
1295 2 2 100 1 1 15 716
1296 2 2 100 1 121 430 660
1297 2 2 100 1 430 242 660
1298 2 2 100 1 417 186 694
1299 2 2 100 1 564 258 588
1300 2 2 100 1 279 564 588
1301 2 2 100 1 29 30 709
1302 2 2 100 1 570 157 652
1303 2 2 100 1 182 435 622
1304 2 2 100 1 574 285 589
1305 2 2 100 1 259 574 589
1306 2 2 100 1 537 231 702
1307 2 2 100 1 536 230 701
1308 2 2 100 1 257 590 648
1309 2 2 100 1 263 514 537
1310 2 2 100 1 262 515 536
1311 2 2 100 1 433 165 689
1312 2 2 100 1 254 433 689
1313 2 2 100 1 69 427 670
1314 2 2 100 1 2 428 671
1315 2 2 100 1 239 431 708
1316 2 2 100 1 430 180 682
1317 2 2 100 1 461 222 607
1318 2 2 100 1 242 430 682
1319 2 2 100 1 434 255 700
1320 2 2 100 1 145 434 700
1321 2 2 100 1 230 515 646
1322 2 2 100 1 231 514 645
1323 2 2 100 1 433 254 687
1324 2 2 100 1 255 434 688
1325 2 2 100 1 431 123 708
1326 2 2 100 1 23 445 639
1327 2 2 100 1 234 444 705
1328 2 2 100 1 127 458 611
1329 2 2 100 1 128 459 612
1330 2 2 100 1 291 555 635
1331 2 2 100 1 445 274 639
1332 2 2 100 1 494 226 532
1333 2 2 100 1 209 499 622
1334 2 2 100 1 147 486 539
1335 2 2 100 1 460 273 632
1336 2 2 100 1 371 460 632
1337 2 2 100 1 482 156 584
1338 2 2 100 1 287 482 584
1339 2 2 100 1 589 285 636
1340 2 2 100 1 523 112 605
1341 2 2 100 1 524 59 604
1342 2 2 100 1 111 523 602
1343 2 2 100 1 58 524 603
1344 2 2 100 1 149 463 621
1345 2 2 100 1 549 238 637
1346 2 2 100 1 479 155 566
1347 2 2 100 1 457 146 648
1348 2 2 100 1 515 230 536
1349 2 2 100 1 514 231 537
1350 2 2 100 1 451 267 703
1351 2 2 100 1 583 158 673
1352 2 2 100 1 299 583 673
1353 2 2 100 1 265 453 680
1354 2 2 100 1 295 497 627
1355 2 2 100 1 233 470 585
1356 2 2 100 1 234 471 586
1357 2 2 100 1 154 707 714
1358 2 2 100 1 458 127 681
1359 2 2 100 1 254 458 681
1360 2 2 100 1 298 582 652
1361 2 2 100 1 583 299 653
1362 2 2 100 1 459 128 683
1363 2 2 100 1 255 459 683
1364 2 2 100 1 200 455 696
1365 2 2 100 1 201 456 697
1366 2 2 100 1 146 457 695
1367 2 2 100 1 458 254 689
1368 2 2 100 1 657 172 699
1369 2 2 100 1 331 657 699
1370 2 2 100 1 264 538 613
1371 2 2 100 1 538 270 613
1372 2 2 100 1 21 491 680
1373 2 2 100 1 556 388 607
1374 2 2 100 1 510 240 561
1375 2 2 100 1 560 154 714
1376 2 2 100 1 132 510 561
1377 2 2 100 1 174 554 661
1378 2 2 100 1 258 564 678
1379 2 2 100 1 239 520 623
1380 2 2 100 1 574 259 691
1381 2 2 100 1 471 234 705
1382 2 2 100 1 505 221 610
1383 2 2 100 1 267 501 703
1384 2 2 100 1 464 216 712
1385 2 2 100 1 150 557 565
1386 2 2 100 1 557 265 565
1387 2 2 100 1 497 153 627
1388 2 2 100 1 467 254 681
1389 2 2 100 1 389 601 660
1390 2 2 100 1 491 265 680
1391 2 2 100 1 523 235 602
1392 2 2 100 1 524 236 603
1393 2 2 100 1 236 524 604
1394 2 2 100 1 235 523 605
1395 2 2 100 1 587 261 698
1396 2 2 100 1 263 537 685
1397 2 2 100 1 262 536 686
1398 2 2 100 1 520 150 623
1399 2 2 100 1 567 256 692
1400 2 2 100 1 240 510 665
1401 2 2 100 1 222 556 607
1402 2 2 100 1 244 483 711
1403 2 2 100 1 511 243 667
1404 2 2 100 1 521 159 710
1405 2 2 100 1 513 370 661
1406 2 2 100 1 149 568 613
1407 2 2 100 1 484 255 683
1408 2 2 100 1 551 127 611
1409 2 2 100 1 552 128 612
1410 2 2 100 1 256 558 695
1411 2 2 100 1 262 551 611
1412 2 2 100 1 263 552 612
1413 2 2 100 1 332 517 706
1414 2 2 100 1 514 158 645
1415 2 2 100 1 515 157 646
1416 2 2 100 1 568 264 613
1417 2 2 100 1 269 513 661
1418 2 2 100 1 27 549 637
1419 2 2 100 1 515 262 674
1420 2 2 100 1 514 263 673
1421 2 2 100 1 555 238 635
1422 2 2 100 1 158 514 673
1423 2 2 100 1 157 515 674
1424 2 2 100 1 220 526 704
1425 2 2 100 1 530 272 690
1426 2 2 100 1 366 530 690
1427 2 2 100 1 526 266 704
1428 2 2 100 1 251 521 710
1429 2 2 100 1 537 162 685
1430 2 2 100 1 536 163 686
1431 2 2 100 1 152 617 684
1432 2 2 100 1 617 283 684
1433 2 2 100 1 163 536 701
1434 2 2 100 1 162 537 702
1435 2 2 100 1 551 262 686
1436 2 2 100 1 552 263 685
1437 2 2 100 1 582 252 652
1438 2 2 100 1 253 583 653
1439 2 2 100 1 707 281 714
1440 2 2 100 1 80 563 675
1441 2 2 100 1 601 121 660
1442 2 2 100 1 626 171 690
1443 2 2 100 1 216 573 712
1444 2 2 100 1 573 340 712
1445 2 2 100 1 103 567 692
1446 2 2 100 1 243 560 714
1447 2 2 100 1 272 626 690
1448 2 2 100 1 266 677 704
1449 2 2 100 1 677 339 704
$EndElements
