$MeshFormat
2.2 0 8
$EndMeshFormat
$Nodes
484
1 -1 -1 0
2 1 -1 0
3 1 1 0
4 -1 1 0
5 -0.5 0 0
6 0.5 0 0
7 0 -0.5 0
8 0 0.5 0
9 -0.9000000000002774 -1 0
10 -0.8000000000005548 -1 0
11 -0.7000000000008322 -1 0
12 -0.6000000000011096 -1 0
13 -0.500000000001387 -1 0
14 -0.4000000000016644 -1 0
15 -0.3000000000019418 -1 0
16 -0.2000000000022192 -1 0
17 -0.1000000000024964 -1 0
18 -2.752242878045763e-12 -1 0
19 0.09999999999750342 -1 0
20 0.1999999999977808 -1 0
21 0.2999999999980583 -1 0
22 0.3999999999983355 -1 0
23 0.4999999999986129 -1 0
24 0.5999999999988903 -1 0
25 0.699999999999168 -1 0
26 0.7999999999994454 -1 0
27 0.8999999999997226 -1 0
28 1 -0.9000000000002774 0
29 1 -0.8000000000005548 0
30 1 -0.7000000000008322 0
31 1 -0.6000000000011096 0
32 1 -0.500000000001387 0
33 1 -0.4000000000016644 0
34 1 -0.3000000000019418 0
35 1 -0.2000000000022192 0
36 1 -0.1000000000024964 0
37 1 -2.752242878045763e-12 0
38 1 0.09999999999750342 0
39 1 0.1999999999977808 0
40 1 0.2999999999980583 0
41 1 0.3999999999983355 0
42 1 0.4999999999986129 0
43 1 0.5999999999988903 0
44 1 0.699999999999168 0
45 1 0.7999999999994454 0
46 1 0.8999999999997226 0
47 0.9000000000002774 1 0
48 0.8000000000005548 1 0
49 0.7000000000008322 1 0
50 0.6000000000011096 1 0
51 0.500000000001387 1 0
52 0.4000000000016644 1 0
53 0.3000000000019418 1 0
54 0.2000000000022192 1 0
55 0.1000000000024964 1 0
56 2.752242878045763e-12 1 0
57 -0.09999999999750342 1 0
58 -0.1999999999977808 1 0
59 -0.2999999999980583 1 0
60 -0.3999999999983355 1 0
61 -0.4999999999986129 1 0
62 -0.5999999999988903 1 0
63 -0.699999999999168 1 0
64 -0.7999999999994454 1 0
65 -0.8999999999997226 1 0
66 -1 0.9000000000002774 0
67 -1 0.8000000000005548 0
68 -1 0.7000000000008322 0
69 -1 0.6000000000011096 0
70 -1 0.500000000001387 0
71 -1 0.4000000000016644 0
72 -1 0.3000000000019418 0
73 -1 0.2000000000022192 0
74 -1 0.1000000000024964 0
75 -1 2.752242878045763e-12 0
76 -1 -0.09999999999750342 0
77 -1 -0.1999999999977808 0
78 -1 -0.2999999999980583 0
79 -1 -0.3999999999983355 0
80 -1 -0.4999999999986129 0
81 -1 -0.5999999999988903 0
82 -1 -0.699999999999168 0
83 -1 -0.7999999999994454 0
84 -1 -0.8999999999997226 0
85 0.4903926401520308 0.09754516125734172 0
86 0.4619397660413571 0.1913417166998779 0
87 0.4157348056849914 0.2777851172076403 0
88 0.3535533897883815 0.3535533913981661 0
89 0.2777851158147919 0.4157348066156629 0
90 0.1913417156147864 0.4619397664908166 0
91 0.09754516070669164 0.4903926402615619 0
92 -0.09754516125734172 0.4903926401520308 0
93 -0.1913417166998779 0.4619397660413571 0
94 -0.2777851172076403 0.4157348056849914 0
95 -0.3535533913981661 0.3535533897883815 0
96 -0.4157348066156629 0.2777851158147919 0
97 -0.4619397664908166 0.1913417156147864 0
98 -0.4903926402615619 0.09754516070669164 0
99 -0.4903926401520308 -0.09754516125734172 0
100 -0.4619397660413571 -0.1913417166998779 0
101 -0.4157348056849914 -0.2777851172076403 0
102 -0.3535533897883815 -0.3535533913981661 0
103 -0.2777851158147919 -0.4157348066156629 0
104 -0.1913417156147864 -0.4619397664908166 0
105 -0.09754516070669164 -0.4903926402615619 0
106 0.09754516125734172 -0.4903926401520308 0
107 0.1913417166998779 -0.4619397660413571 0
108 0.2777851172076403 -0.4157348056849914 0
109 0.3535533913981661 -0.3535533897883815 0
110 0.4157348066156629 -0.2777851158147919 0
111 0.4619397664908166 -0.1913417156147864 0
112 0.4903926402615619 -0.09754516070669164 0
113 0.6097514688781007 -0.6173343629086168 0
114 0.6173343629086165 0.6097514688781009 0
115 -0.6097514688781009 0.6173343629086165 0
116 -0.6173343629086168 -0.6097514688781007 0
117 -0.3375317856677061 -0.7127543338466407 0
118 0.7127543338466407 -0.3375317856677061 0
119 0.337531785667706 0.7127543338466407 0
120 -0.7127543338466407 0.337531785667706 0
121 0.7096780180496026 0.3447170378237849 0
122 -0.3447170378237849 0.7096780180496027 0
123 0.3447170378237848 -0.7096780180496026 0
124 -0.7096780180496026 -0.3447170378237847 0
125 0.7442313884905265 -0.07890575391994038 0
126 -0.07890575391994047 -0.7442313884905266 0
127 -0.7442313884905265 0.07890575391994051 0
128 0.07890575391994056 0.7442313884905265 0
129 -0.7787455927012421 -0.7787455927013601 0
130 0.7787455927013601 -0.7787455927012421 0
131 0.7787455927012422 0.7787455927013601 0
132 -0.7787455927013601 0.7787455927012422 0
133 -0.1393425418673942 0.7794862729145474 0
134 0.1393425418673943 -0.7794862729145475 0
135 -0.7794862729145475 -0.1393425418673942 0
136 0.7794862729145474 0.1393425418673942 0
137 0.5251264226489788 0.4321212066888416 0
138 -0.4321212066888416 0.5251264226489787 0
139 -0.525126422648979 -0.4321212066888417 0
140 0.4321212066888417 -0.525126422648979 0
141 0.5329730214153305 0.7862515070365468 0
142 -0.7862515070365468 0.5329730214153305 0
143 -0.5329730214153309 -0.7862515070365468 0
144 0.7862515070365468 -0.5329730214153309 0
145 0.5254794878775948 -0.7994442194040636 0
146 -0.7994442194040636 -0.5254794878775948 0
147 0.7994442194040636 0.5254794878775949 0
148 -0.5254794878775949 0.7994442194040636 0
149 0.3894163220795701 0.5459654411648686 0
150 -0.5459654411648686 0.3894163220795701 0
151 -0.3894163220795703 -0.5459654411648686 0
152 0.5459654411648686 -0.3894163220795703 0
153 -0.2122042886999821 -0.8276523435355926 0
154 0.8276523435355924 -0.2122042886999821 0
155 0.2122042886999821 0.8276523435355924 0
156 -0.8276523435355925 0.212204288699982 0
157 0.1861468186441023 0.6385085662962615 0
158 -0.6385085662962615 0.1861468186441023 0
159 -0.1861468186441022 -0.6385085662962616 0
160 0.6385085662962615 -0.1861468186441022 0
161 0.6325509489538601 0.1973158303557991 0
162 -0.6325509489538601 -0.1973158303557991 0
163 -0.1973158303557994 0.6325509489538599 0
164 0.1973158303557993 -0.6325509489538599 0
165 -0.04879766781158354 0.6546500424296821 0
166 0.04879766781158358 -0.6546500424296821 0
167 -0.6546500424296821 -0.04879766781158348 0
168 0.6546500424296821 0.04879766781158353 0
169 0.2787758893191379 -0.8491050651884764 0
170 -0.8491050651884764 -0.2787758893191382 0
171 -0.2787758893191379 0.8491050651884765 0
172 0.8491050651884764 0.2787758893191377 0
173 0.387356936440034 0.8525581933098422 0
174 -0.8525581933098422 0.387356936440034 0
175 -0.3873569364400342 -0.8525581933098421 0
176 0.8525581933098421 -0.3873569364400342 0
177 0.6610806932495518 -0.4820360383226253 0
178 -0.4820360383226253 -0.6610806932495518 0
179 0.4820360383226251 0.6610806932495517 0
180 -0.6610806932495517 0.4820360383226251 0
181 0.6579392746246218 0.8603901830218845 0
182 -0.8603901830218845 0.6579392746246218 0
183 -0.6579392746246219 -0.8603901830218846 0
184 0.8603901830218846 -0.6579392746246219 0
185 0.6579392746845922 -0.860390183042804 0
186 -0.860390183042804 -0.6579392746845922 0
187 0.8603901830428042 0.6579392746845925 0
188 -0.6579392746845925 0.8603901830428042 0
189 -0.01723304907815773 0.8565193108796489 0
190 0.01723304907815787 -0.8565193108796491 0
191 0.8565193108796489 0.01723304907815796 0
192 -0.8565193108796489 -0.01723304907815789 0
193 0.6819646119853811 0.4828466598188073 0
194 -0.4828466598188073 0.6819646119853811 0
195 0.4828466598188073 -0.6819646119853813 0
196 -0.6819646119853813 -0.4828466598188073 0
197 -0.5472243176434043 -0.3139737824265327 0
198 0.5472243176434042 0.3139737824265325 0
199 0.3139737824265328 -0.5472243176434042 0
200 -0.3139737824265327 0.5472243176434041 0
201 0.8672066577925377 0.410769800887089 0
202 0.4107698008870892 -0.8672066577925379 0
203 -0.4107698008870893 0.8672066577925378 0
204 -0.867206657792538 -0.4107698008870894 0
205 -0.8596415691053771 -0.8596415691077031 0
206 0.8596415691077031 -0.8596415691053771 0
207 0.8596415691053775 0.8596415691077032 0
208 -0.8596415691077032 0.8596415691053775 0
209 0.09964698360970223 0.6021969805866805 0
210 -0.6021969805866804 0.09964698360970231 0
211 -0.09964698360970217 -0.6021969805866805 0
212 0.6021969805866803 -0.09964698360970221 0
213 0.8765436574775974 -0.1066550609603293 0
214 -0.8765436574775975 0.1066550609603294 0
215 -0.1066550609603296 -0.8765436574775978 0
216 0.1066550609603295 0.8765436574775978 0
217 0.7404955551411133 0.6806729177561746 0
218 -0.6806729177561746 0.7404955551411133 0
219 0.6806729177561746 -0.740495555141113 0
220 -0.740495555141113 -0.6806729177561746 0
221 0.7451997830389001 -0.6249850810588993 0
222 -0.6249850810588993 -0.7451997830389001 0
223 0.6249850810588989 0.7451997830389003 0
224 -0.7451997830389003 0.6249850810588989 0
225 -0.2801796516944582 -0.5303149331817635 0
226 0.5303149331817635 -0.2801796516944582 0
227 0.2801796516944581 0.5303149331817635 0
228 -0.5303149331817635 0.2801796516944581 0
229 0.5365339836292223 0.5593176912101818 0
230 -0.5593176912101818 0.5365339836292223 0
231 0.5593176912101816 -0.5365339836292226 0
232 -0.5365339836292226 -0.5593176912101816 0
233 0.1514197731700003 -0.915996660742062 0
234 -0.1514197731700002 0.9159966607420618 0
235 -0.9159966607420618 -0.1514197731700003 0
236 0.9159966607420615 0.1514197731700002 0
237 -0.4245587723484747 -0.4380097499344168 0
238 0.4380097499344168 -0.4245587723484747 0
239 0.4245587723484744 0.4380097499344169 0
240 -0.4380097499344169 0.4245587723484744 0
241 0.7561413627675492 0.8958563274369988 0
242 -0.8958563274369988 0.7561413627675492 0
243 -0.7561413627675493 -0.8958563274369991 0
244 0.8958563274369991 -0.7561413627675493 0
245 0.7585164249643154 -0.8962025992111974 0
246 -0.8962025992111974 -0.7585164249643154 0
247 0.8962025992111977 0.7585164249643155 0
248 -0.7585164249643155 0.8962025992111977 0
249 0.7420816807436248 0.2406041794380014 0
250 -0.2406041794380015 0.7420816807436249 0
251 0.2406041794380015 -0.7420816807436249 0
252 -0.7420816807436249 -0.2406041794380014 0
253 0.5575067235680239 0.8942421893491102 0
254 -0.8942421893491102 0.5575067235680239 0
255 -0.5575067235680239 -0.8942421893491102 0
256 0.8942421893491102 -0.5575067235680239 0
257 0.5613455992743122 -0.8965949525883262 0
258 0.8965949525883266 0.5613455992743123 0
259 -0.5613455992743123 0.8965949525883264 0
260 -0.8965949525883262 -0.5613455992743123 0
261 -0.03304696364040546 0.7592384536161078 0
262 0.03304696364040554 -0.7592384536161079 0
263 -0.7592384536161079 -0.03304696364040548 0
264 0.7592384536161078 0.03304696364040553 0
265 -0.7354195235163032 0.1762590241708853 0
266 0.1762590241708853 0.7354195235163031 0
267 0.7354195235163031 -0.1762590241708852 0
268 -0.1762590241708853 -0.7354195235163032 0
269 -0.7685226477667561 -0.4286660020712516 0
270 0.4286660020712515 -0.7685226477667562 0
271 -0.4286660020712517 0.7685226477667562 0
272 0.7685226477667562 0.4286660020712517 0
273 0.6166688655406078 0.3757564814732566 0
274 -0.3757564814732567 0.6166688655406077 0
275 0.3757564814732568 -0.6166688655406078 0
276 -0.6166688655406081 -0.3757564814732567 0
277 -0.4364362279855452 -0.7514001057194795 0
278 0.7514001057194795 -0.4364362279855452 0
279 0.4364362279855451 0.7514001057194791 0
280 -0.7514001057194791 0.4364362279855451 0
281 -0.2854342025549151 -0.9016200455299115 0
282 0.9016200455299115 -0.2854342025549151 0
283 0.285434202554915 0.9016200455299115 0
284 -0.9016200455299115 0.2854342025549149 0
285 0.5888014900158788 -0.7018537697712334 0
286 -0.7018537697712334 -0.5888014900158788 0
287 0.7018537697712334 0.5888014900158788 0
288 -0.5888014900158788 0.7018537697712334 0
289 -0.1148569794862155 0.594714774153021 0
290 -0.5947147741530212 -0.1148569794862153 0
291 0.1148569794862154 -0.5947147741530211 0
292 0.5947147741530212 0.1148569794862153 0
293 -0.1275416883984794 0.6927834147481751 0
294 0.1275416883984794 -0.6927834147481753 0
295 -0.6927834147481757 -0.1275416883984793 0
296 0.6927834147481755 0.1275416883984793 0
297 0.3359569360366174 0.6173085594909669 0
298 -0.6173085594909669 0.3359569360366174 0
299 -0.3359569360366176 -0.6173085594909669 0
300 0.6173085594909669 -0.3359569360366176 0
301 0.461715143658767 0.3489761663315699 0
302 -0.34897616633157 0.461715143658767 0
303 -0.4617151436587671 -0.3489761663315699 0
304 0.34897616633157 -0.4617151436587671 0
305 -0.3128599477001634 -0.8000336508407939 0
306 0.8000336508407939 -0.3128599477001633 0
307 0.3128599477001632 0.8000336508407938 0
308 -0.8000336508407938 0.3128599477001632 0
309 -0.4459928036408171 -0.9193549147753606 0
310 0.9193549147753606 -0.4459928036408171 0
311 0.445992803640817 0.9193549147753606 0
312 -0.9193549147753606 0.445992803640817 0
313 0.6378919084720419 0.2887053144577444 0
314 -0.2887053144577448 0.6378919084720418 0
315 0.2887053144577448 -0.6378919084720419 0
316 -0.6378919084720421 -0.2887053144577444 0
317 0.1866603200311123 0.5561578398770329 0
318 -0.5561578398770329 0.1866603200311123 0
319 -0.1866603200311123 -0.556157839877033 0
320 0.556157839877033 -0.1866603200311123 0
321 -0.3365774878974255 0.9179150925115771 0
322 0.917915092511577 0.3365774878974251 0
323 0.3365774878974254 -0.9179150925115771 0
324 -0.9179150925115771 -0.3365774878974253 0
325 -0.3446146837343147 -0.4648881115069945 0
326 0.4648881115069945 -0.3446146837343147 0
327 0.3446146837343146 0.4648881115069946 0
328 -0.4648881115069946 0.3446146837343146 0
329 -0.2578138856803346 -0.684276944045306 0
330 0.684276944045306 -0.2578138856803346 0
331 0.2578138856803345 0.6842769440453061 0
332 -0.6842769440453061 0.2578138856803345 0
333 -0.9123552706617312 0.1876043054602405 0
334 0.1876043054602409 0.9123552706617313 0
335 -0.187604305460241 -0.9123552706617313 0
336 0.9123552706617312 -0.1876043054602406 0
337 0.2095931286810352 -0.5503102972639859 0
338 -0.2095931286810352 0.5503102972639859 0
339 -0.5503102972639861 -0.209593128681035 0
340 0.5503102972639861 0.2095931286810349 0
341 0.5648130494938319 0.6872720157235718 0
342 -0.6872720157235718 0.5648130494938319 0
343 0.6872720157235713 -0.564813049493832 0
344 -0.564813049493832 -0.6872720157235713 0
345 0.79748951812552 0.3480765154540271 0
346 -0.3480765154540271 0.7974895181255202 0
347 0.3480765154540271 -0.7974895181255197 0
348 -0.7974895181255194 -0.3480765154540268 0
349 -0.9229651729952821 -0.2460871152625065 0
350 0.2460871152625065 -0.9229651729952821 0
351 0.9229651729952819 0.2460871152625064 0
352 -0.2460871152625064 0.9229651729952821 0
353 0.6224910078532235 0.5405287950862754 0
354 -0.5405287950862754 0.6224910078532235 0
355 0.5405287950862754 -0.6224910078532238 0
356 -0.6224910078532238 -0.5405287950862754 0
357 0.03675090528508395 0.9239511309546554 0
358 0.9239511309546558 -0.03675090528508394 0
359 -0.9239511309546555 0.03675090528508414 0
360 -0.03675090528508432 -0.9239511309546558 0
361 0.9239830966471148 0.0540184339613871 0
362 -0.923983096647115 -0.05401843396138707 0
363 0.05401843396138711 -0.9239830966471151 0
364 -0.05401843396138704 0.923983096647115 0
365 0.9234840747634666 0.4704455835334748 0
366 -0.4704455835334749 0.9234840747634664 0
367 0.4704455835334748 -0.9234840747634666 0
368 -0.9234840747634666 -0.4704455835334749 0
369 0.6794517342649653 -0.1155446102131353 0
370 -0.6794517342649653 0.1155446102131355 0
371 -0.1155446102131353 -0.6794517342649655 0
372 0.1155446102131354 0.6794517342649654 0
373 0.611697789542532 -0.7979306552473031 0
374 -0.7979306552473031 -0.611697789542532 0
375 0.7979306552473038 0.6116977895425321 0
376 -0.6116977895425321 0.7979306552473038 0
377 0.6893349129598852 0.7786110922164831 0
378 -0.7786110922164831 0.6893349129598852 0
379 -0.6893349129598854 -0.7786110922164831 0
380 0.7786110922164831 -0.6893349129598854 0
381 0.0001351492184581881 -0.5803205564109106 0
382 -0.0001351492184582702 0.5803205564109106 0
383 -0.5803205564109106 -0.0001351492184580789 0
384 0.5803205564109106 0.0001351492184581061 0
385 -0.03535292784538844 -0.6700148592998121 0
386 -0.670014859299812 0.03535292784538854 0
387 0.03535292784538849 0.6700148592998121 0
388 0.670014859299812 -0.03535292784538846 0
389 -0.1322946193033849 -0.8002231122521014 0
390 0.1322946193033851 0.8002231122521012 0
391 -0.8002231122521014 0.1322946193033851 0
392 0.8002231122521013 -0.1322946193033848 0
393 0.4647808910849573 0.5060415924127739 0
394 -0.5060415924127739 0.4647808910849573 0
395 -0.4647808910849577 -0.5060415924127739 0
396 0.5060415924127739 -0.4647808910849577 0
397 -0.4043499794035337 -0.6543784429751377 0
398 0.6543784429751377 -0.4043499794035337 0
399 0.4043499794035335 0.6543784429751374 0
400 -0.6543784429751374 0.4043499794035335 0
401 -0.8413655057955447 -0.1939641510302244 0
402 -0.1939641510302244 0.8413655057955449 0
403 0.1939641510302244 -0.841365505795545 0
404 0.8413655057955447 0.1939641510302242 0
405 0.6515734228112684 0.9357067165670767 0
406 -0.9357067165670767 0.6515734228112684 0
407 -0.6515734228112684 -0.935706716567077 0
408 0.935706716567077 -0.6515734228112684 0
409 0.6520263337400009 -0.9359034392425226 0
410 -0.9359034392425226 -0.6520263337400009 0
411 0.9359034392425225 0.6520263337400009 0
412 -0.6520263337400009 0.9359034392425225 0
413 -0.05204695767937004 -0.8227027398759013 0
414 0.8227027398759013 -0.05204695767936965 0
415 -0.8227027398759014 0.05204695767936984 0
416 0.05204695767936986 0.8227027398759013 0
417 0.3662929897614579 0.9316180843601237 0
418 -0.9316180843601237 0.3662929897614579 0
419 -0.366292989761458 -0.9316180843601236 0
420 0.9316180843601236 -0.366292989761458 0
421 -0.9261670259278487 -0.926167025927868 0
422 0.926167025927868 -0.9261670259278487 0
423 0.9261670259278488 0.926167025927868 0
424 -0.926167025927868 0.9261670259278488 0
425 -0.09438147543322467 0.8469455951851552 0
426 0.094381475433225 -0.8469455951851552 0
427 -0.846945595185155 -0.0943814754332248 0
428 0.8469455951851547 0.09438147543322475 0
429 -0.4554234429039819 -0.5853567722025027 0
430 0.5853567722025027 -0.4554234429039819 0
431 0.4554234429039816 0.5853567722025027 0
432 -0.5853567722025027 0.4554234429039816 0
433 -0.8043847785255605 -0.7035065876919194 0
434 0.7035065876919194 -0.8043847785255605 0
435 0.8043847785255609 0.7035065876919195 0
436 -0.7035065876919195 0.8043847785255609 0
437 0.6035645034860451 0.8115211358311527 0
438 -0.8115211358311527 0.6035645034860451 0
439 -0.6035645034860455 -0.8115211358311526 0
440 0.8115211358311526 -0.6035645034860455 0
441 -0.4720531426099502 -0.8407613820380677 0
442 0.8407613820380677 -0.4720531426099502 0
443 0.4720531426099501 0.8407613820380677 0
444 -0.8407613820380677 0.4720531426099501 0
445 0.848865003999811 -0.9364022388488845 0
446 -0.9364022388488845 -0.848865003999811 0
447 0.9364022388488848 0.848865003999811 0
448 -0.848865003999811 0.9364022388488848 0
449 0.8483899915603216 0.9363329844945141 0
450 -0.9363329844945141 0.8483899915603216 0
451 -0.8483899915603215 -0.9363329844945141 0
452 0.9363329844945141 -0.8483899915603215 0
453 0.4874577254321871 0.2634131160837337 0
454 -0.4874577254321871 -0.2634131160837342 0
455 -0.2634131160837343 0.4874577254321871 0
456 0.2634131160837344 -0.4874577254321871 0
457 -0.5045862180500966 -0.7238130233174682 0
458 0.7238130233174682 -0.5045862180500966 0
459 0.5045862180500964 0.7238130233174683 0
460 -0.7238130233174683 0.5045862180500964 0
461 0.659373717567627 0.6807674214701548 0
462 -0.6807674214701548 0.659373717567627 0
463 0.6807674214701545 -0.6593737175676271 0
464 -0.6593737175676271 -0.6807674214701545 0
465 -0.249351522417325 -0.6053133685782662 0
466 0.6053133685782662 -0.249351522417325 0
467 0.2493515224173249 0.6053133685782662 0
468 -0.6053133685782662 0.2493515224173249 0
469 -0.2508472888288762 -0.761303533206768 0
470 0.761303533206768 -0.2508472888288761 0
471 0.250847288828876 0.7613035332067679 0
472 -0.7613035332067679 0.250847288828876 0
473 -0.6033159645610858 -0.4673381703092728 0
474 0.4673381703092728 -0.6033159645610857 0
475 0.6033159645610857 0.4673381703092727 0
476 -0.4673381703092727 0.6033159645610857 0
477 0.679682439231575 0.4104029693822878 0
478 -0.4104029693822878 0.6796824392315752 0
479 -0.6796824392315757 -0.4104029693822878 0
480 0.4104029693822877 -0.6796824392315755 0
481 -0.8536187634364686 -0.4801125175090248 0
482 0.8536187634364685 0.4801125175090243 0
483 -0.4801125175090243 0.8536187634364681 0
484 0.4801125175090243 -0.8536187634364684 0
$EndNodes
$Elements
968
1 1 2 13 1 1 9
2 1 2 13 1 9 10
3 1 2 13 1 10 11
4 1 2 13 1 11 12
5 1 2 13 1 12 13
6 1 2 13 1 13 14
7 1 2 13 1 14 15
8 1 2 13 1 15 16
9 1 2 13 1 16 17
10 1 2 13 1 17 18
11 1 2 13 1 18 19
12 1 2 13 1 19 20
13 1 2 13 1 20 21
14 1 2 13 1 21 22
15 1 2 13 1 22 23
16 1 2 13 1 23 24
17 1 2 13 1 24 25
18 1 2 13 1 25 26
19 1 2 13 1 26 27
20 1 2 13 1 27 2
21 1 2 12 2 2 28
22 1 2 12 2 28 29
23 1 2 12 2 29 30
24 1 2 12 2 30 31
25 1 2 12 2 31 32
26 1 2 12 2 32 33
27 1 2 12 2 33 34
28 1 2 12 2 34 35
29 1 2 12 2 35 36
30 1 2 12 2 36 37
31 1 2 12 2 37 38
32 1 2 12 2 38 39
33 1 2 12 2 39 40
34 1 2 12 2 40 41
35 1 2 12 2 41 42
36 1 2 12 2 42 43
37 1 2 12 2 43 44
38 1 2 12 2 44 45
39 1 2 12 2 45 46
40 1 2 12 2 46 3
41 1 2 11 3 3 47
42 1 2 11 3 47 48
43 1 2 11 3 48 49
44 1 2 11 3 49 50
45 1 2 11 3 50 51
46 1 2 11 3 51 52
47 1 2 11 3 52 53
48 1 2 11 3 53 54
49 1 2 11 3 54 55
50 1 2 11 3 55 56
51 1 2 11 3 56 57
52 1 2 11 3 57 58
53 1 2 11 3 58 59
54 1 2 11 3 59 60
55 1 2 11 3 60 61
56 1 2 11 3 61 62
57 1 2 11 3 62 63
58 1 2 11 3 63 64
59 1 2 11 3 64 65
60 1 2 11 3 65 4
61 1 2 10 4 4 66
62 1 2 10 4 66 67
63 1 2 10 4 67 68
64 1 2 10 4 68 69
65 1 2 10 4 69 70
66 1 2 10 4 70 71
67 1 2 10 4 71 72
68 1 2 10 4 72 73
69 1 2 10 4 73 74
70 1 2 10 4 74 75
71 1 2 10 4 75 76
72 1 2 10 4 76 77
73 1 2 10 4 77 78
74 1 2 10 4 78 79
75 1 2 10 4 79 80
76 1 2 10 4 80 81
77 1 2 10 4 81 82
78 1 2 10 4 82 83
79 1 2 10 4 83 84
80 1 2 10 4 84 1
81 1 2 14 5 6 85
82 1 2 14 5 85 86
83 1 2 14 5 86 87
84 1 2 14 5 87 88
85 1 2 14 5 88 89
86 1 2 14 5 89 90
87 1 2 14 5 90 91
88 1 2 14 5 91 8
89 1 2 14 6 8 92
90 1 2 14 6 92 93
91 1 2 14 6 93 94
92 1 2 14 6 94 95
93 1 2 14 6 95 96
94 1 2 14 6 96 97
95 1 2 14 6 97 98
96 1 2 14 6 98 5
97 1 2 14 7 5 99
98 1 2 14 7 99 100
99 1 2 14 7 100 101
100 1 2 14 7 101 102
101 1 2 14 7 102 103
102 1 2 14 7 103 104
103 1 2 14 7 104 105
104 1 2 14 7 105 7
105 1 2 14 8 7 106
106 1 2 14 8 106 107
107 1 2 14 8 107 108
108 1 2 14 8 108 109
109 1 2 14 8 109 110
110 1 2 14 8 110 111
111 1 2 14 8 111 112
112 1 2 14 8 112 6
113 2 2 100 1 147 193 272
114 2 2 100 1 148 194 271
115 2 2 100 1 146 196 269
116 2 2 100 1 145 195 270
117 2 2 100 1 281 16 335
118 2 2 100 1 282 35 336
119 2 2 100 1 283 54 334
120 2 2 100 1 284 73 333
121 2 2 100 1 15 16 281
122 2 2 100 1 34 35 282
123 2 2 100 1 53 54 283
124 2 2 100 1 72 73 284
125 2 2 100 1 193 147 287
126 2 2 100 1 194 148 288
127 2 2 100 1 195 145 285
128 2 2 100 1 196 146 286
129 2 2 100 1 129 205 243
130 2 2 100 1 130 206 244
131 2 2 100 1 131 207 241
132 2 2 100 1 132 208 242
133 2 2 100 1 205 129 246
134 2 2 100 1 206 130 245
135 2 2 100 1 207 131 247
136 2 2 100 1 208 132 248
137 2 2 100 1 179 229 341
138 2 2 100 1 180 230 342
139 2 2 100 1 177 231 343
140 2 2 100 1 178 232 344
141 2 2 100 1 229 114 341
142 2 2 100 1 230 115 342
143 2 2 100 1 231 113 343
144 2 2 100 1 232 116 344
145 2 2 100 1 98 210 383
146 2 2 100 1 105 211 381
147 2 2 100 1 112 212 384
148 2 2 100 1 91 209 382
149 2 2 100 1 292 85 384
150 2 2 100 1 290 99 383
151 2 2 100 1 289 92 382
152 2 2 100 1 291 106 381
153 2 2 100 1 279 173 307
154 2 2 100 1 280 174 308
155 2 2 100 1 277 175 305
156 2 2 100 1 278 176 306
157 2 2 100 1 197 139 303
158 2 2 100 1 199 140 304
159 2 2 100 1 198 137 301
160 2 2 100 1 200 138 302
161 2 2 100 1 139 197 276
162 2 2 100 1 137 198 273
163 2 2 100 1 138 200 274
164 2 2 100 1 140 199 275
165 2 2 100 1 104 103 225
166 2 2 100 1 111 110 226
167 2 2 100 1 90 89 227
168 2 2 100 1 97 96 228
169 2 2 100 1 92 289 338
170 2 2 100 1 106 291 337
171 2 2 100 1 99 290 339
172 2 2 100 1 85 292 340
173 2 2 100 1 250 171 346
174 2 2 100 1 249 172 345
175 2 2 100 1 251 169 347
176 2 2 100 1 252 170 348
177 2 2 100 1 217 131 377
178 2 2 100 1 218 132 378
179 2 2 100 1 220 129 379
180 2 2 100 1 219 130 380
181 2 2 100 1 119 279 307
182 2 2 100 1 120 280 308
183 2 2 100 1 117 277 305
184 2 2 100 1 118 278 306
185 2 2 100 1 8 91 382
186 2 2 100 1 7 105 381
187 2 2 100 1 5 98 383
188 2 2 100 1 6 112 384
189 2 2 100 1 106 7 381
190 2 2 100 1 92 8 382
191 2 2 100 1 99 5 383
192 2 2 100 1 85 6 384
193 2 2 100 1 93 92 338
194 2 2 100 1 107 106 337
195 2 2 100 1 86 85 340
196 2 2 100 1 100 99 339
197 2 2 100 1 60 203 321
198 2 2 100 1 41 201 322
199 2 2 100 1 22 202 323
200 2 2 100 1 79 204 324
201 2 2 100 1 219 380 463
202 2 2 100 1 220 379 464
203 2 2 100 1 217 377 461
204 2 2 100 1 218 378 462
205 2 2 100 1 203 60 366
206 2 2 100 1 201 41 365
207 2 2 100 1 202 22 367
208 2 2 100 1 204 79 368
209 2 2 100 1 36 213 336
210 2 2 100 1 55 216 334
211 2 2 100 1 17 215 335
212 2 2 100 1 74 214 333
213 2 2 100 1 122 250 346
214 2 2 100 1 121 249 345
215 2 2 100 1 123 251 347
216 2 2 100 1 124 252 348
217 2 2 100 1 211 105 319
218 2 2 100 1 209 91 317
219 2 2 100 1 210 98 318
220 2 2 100 1 212 112 320
221 2 2 100 1 225 103 325
222 2 2 100 1 226 110 326
223 2 2 100 1 227 89 327
224 2 2 100 1 228 96 328
225 2 2 100 1 157 209 317
226 2 2 100 1 158 210 318
227 2 2 100 1 160 212 320
228 2 2 100 1 159 211 319
229 2 2 100 1 48 49 241
230 2 2 100 1 67 68 242
231 2 2 100 1 10 11 243
232 2 2 100 1 29 30 244
233 2 2 100 1 25 26 245
234 2 2 100 1 82 83 246
235 2 2 100 1 44 45 247
236 2 2 100 1 63 64 248
237 2 2 100 1 222 143 344
238 2 2 100 1 221 144 343
239 2 2 100 1 223 141 341
240 2 2 100 1 224 142 342
241 2 2 100 1 129 220 433
242 2 2 100 1 130 219 434
243 2 2 100 1 131 217 435
244 2 2 100 1 132 218 436
245 2 2 100 1 129 243 379
246 2 2 100 1 130 244 380
247 2 2 100 1 131 241 377
248 2 2 100 1 132 242 378
249 2 2 100 1 25 245 409
250 2 2 100 1 82 246 410
251 2 2 100 1 44 247 411
252 2 2 100 1 63 248 412
253 2 2 100 1 243 11 407
254 2 2 100 1 244 30 408
255 2 2 100 1 241 49 405
256 2 2 100 1 242 68 406
257 2 2 100 1 88 239 327
258 2 2 100 1 95 240 328
259 2 2 100 1 102 237 325
260 2 2 100 1 109 238 326
261 2 2 100 1 257 185 373
262 2 2 100 1 260 186 374
263 2 2 100 1 258 187 375
264 2 2 100 1 259 188 376
265 2 2 100 1 344 143 457
266 2 2 100 1 343 144 458
267 2 2 100 1 341 141 459
268 2 2 100 1 342 142 460
269 2 2 100 1 171 250 402
270 2 2 100 1 169 251 403
271 2 2 100 1 170 252 401
272 2 2 100 1 172 249 404
273 2 2 100 1 104 225 319
274 2 2 100 1 111 226 320
275 2 2 100 1 90 227 317
276 2 2 100 1 97 228 318
277 2 2 100 1 241 181 377
278 2 2 100 1 242 182 378
279 2 2 100 1 243 183 379
280 2 2 100 1 244 184 380
281 2 2 100 1 143 222 439
282 2 2 100 1 144 221 440
283 2 2 100 1 141 223 437
284 2 2 100 1 142 224 438
285 2 2 100 1 239 88 301
286 2 2 100 1 237 102 303
287 2 2 100 1 238 109 304
288 2 2 100 1 240 95 302
289 2 2 100 1 38 39 236
290 2 2 100 1 76 77 235
291 2 2 100 1 19 20 233
292 2 2 100 1 57 58 234
293 2 2 100 1 252 162 295
294 2 2 100 1 249 161 296
295 2 2 100 1 251 164 294
296 2 2 100 1 250 163 293
297 2 2 100 1 209 157 372
298 2 2 100 1 210 158 370
299 2 2 100 1 211 159 371
300 2 2 100 1 212 160 369
301 2 2 100 1 133 250 293
302 2 2 100 1 136 249 296
303 2 2 100 1 134 251 294
304 2 2 100 1 135 252 295
305 2 2 100 1 16 17 335
306 2 2 100 1 54 55 334
307 2 2 100 1 35 36 336
308 2 2 100 1 73 74 333
309 2 2 100 1 145 257 373
310 2 2 100 1 146 260 374
311 2 2 100 1 147 258 375
312 2 2 100 1 148 259 376
313 2 2 100 1 183 243 407
314 2 2 100 1 184 244 408
315 2 2 100 1 181 241 405
316 2 2 100 1 182 242 406
317 2 2 100 1 245 185 409
318 2 2 100 1 246 186 410
319 2 2 100 1 247 187 411
320 2 2 100 1 248 188 412
321 2 2 100 1 213 36 358
322 2 2 100 1 214 74 359
323 2 2 100 1 215 17 360
324 2 2 100 1 216 55 357
325 2 2 100 1 154 213 392
326 2 2 100 1 155 216 390
327 2 2 100 1 156 214 391
328 2 2 100 1 153 215 389
329 2 2 100 1 89 88 327
330 2 2 100 1 96 95 328
331 2 2 100 1 103 102 325
332 2 2 100 1 110 109 326
333 2 2 100 1 213 154 336
334 2 2 100 1 216 155 334
335 2 2 100 1 214 156 333
336 2 2 100 1 215 153 335
337 2 2 100 1 319 225 465
338 2 2 100 1 320 226 466
339 2 2 100 1 317 227 467
340 2 2 100 1 318 228 468
341 2 2 100 1 225 151 299
342 2 2 100 1 226 152 300
343 2 2 100 1 227 149 297
344 2 2 100 1 228 150 298
345 2 2 100 1 324 204 348
346 2 2 100 1 323 202 347
347 2 2 100 1 322 201 345
348 2 2 100 1 321 203 346
349 2 2 100 1 151 225 325
350 2 2 100 1 152 226 326
351 2 2 100 1 149 227 327
352 2 2 100 1 150 228 328
353 2 2 100 1 139 237 303
354 2 2 100 1 140 238 304
355 2 2 100 1 137 239 301
356 2 2 100 1 138 240 302
357 2 2 100 1 88 87 301
358 2 2 100 1 95 94 302
359 2 2 100 1 102 101 303
360 2 2 100 1 109 108 304
361 2 2 100 1 159 319 465
362 2 2 100 1 160 320 466
363 2 2 100 1 157 317 467
364 2 2 100 1 158 318 468
365 2 2 100 1 247 131 435
366 2 2 100 1 248 132 436
367 2 2 100 1 246 129 433
368 2 2 100 1 245 130 434
369 2 2 100 1 50 51 253
370 2 2 100 1 69 70 254
371 2 2 100 1 12 13 255
372 2 2 100 1 31 32 256
373 2 2 100 1 23 24 257
374 2 2 100 1 80 81 260
375 2 2 100 1 42 43 258
376 2 2 100 1 61 62 259
377 2 2 100 1 170 324 348
378 2 2 100 1 169 323 347
379 2 2 100 1 171 321 346
380 2 2 100 1 172 322 345
381 2 2 100 1 161 249 313
382 2 2 100 1 162 252 316
383 2 2 100 1 164 251 315
384 2 2 100 1 163 250 314
385 2 2 100 1 249 121 313
386 2 2 100 1 250 122 314
387 2 2 100 1 251 123 315
388 2 2 100 1 252 124 316
389 2 2 100 1 229 137 475
390 2 2 100 1 230 138 476
391 2 2 100 1 232 139 473
392 2 2 100 1 231 140 474
393 2 2 100 1 263 127 415
394 2 2 100 1 262 126 413
395 2 2 100 1 264 125 414
396 2 2 100 1 261 128 416
397 2 2 100 1 165 261 293
398 2 2 100 1 166 262 294
399 2 2 100 1 168 264 296
400 2 2 100 1 167 263 295
401 2 2 100 1 261 133 293
402 2 2 100 1 262 134 294
403 2 2 100 1 264 136 296
404 2 2 100 1 263 135 295
405 2 2 100 1 114 287 461
406 2 2 100 1 115 288 462
407 2 2 100 1 113 285 463
408 2 2 100 1 116 286 464
409 2 2 100 1 185 257 409
410 2 2 100 1 186 260 410
411 2 2 100 1 187 258 411
412 2 2 100 1 188 259 412
413 2 2 100 1 255 183 407
414 2 2 100 1 256 184 408
415 2 2 100 1 253 181 405
416 2 2 100 1 254 182 406
417 2 2 100 1 315 199 337
418 2 2 100 1 316 197 339
419 2 2 100 1 314 200 338
420 2 2 100 1 313 198 340
421 2 2 100 1 287 217 461
422 2 2 100 1 288 218 462
423 2 2 100 1 285 219 463
424 2 2 100 1 286 220 464
425 2 2 100 1 164 315 337
426 2 2 100 1 162 316 339
427 2 2 100 1 163 314 338
428 2 2 100 1 161 313 340
429 2 2 100 1 183 255 439
430 2 2 100 1 184 256 440
431 2 2 100 1 181 253 437
432 2 2 100 1 182 254 438
433 2 2 100 1 250 133 402
434 2 2 100 1 251 134 403
435 2 2 100 1 252 135 401
436 2 2 100 1 249 136 404
437 2 2 100 1 236 39 351
438 2 2 100 1 233 20 350
439 2 2 100 1 234 58 352
440 2 2 100 1 235 77 349
441 2 2 100 1 190 262 413
442 2 2 100 1 192 263 415
443 2 2 100 1 191 264 414
444 2 2 100 1 189 261 416
445 2 2 100 1 137 229 393
446 2 2 100 1 138 230 394
447 2 2 100 1 139 232 395
448 2 2 100 1 140 231 396
449 2 2 100 1 185 245 434
450 2 2 100 1 186 246 433
451 2 2 100 1 187 247 435
452 2 2 100 1 188 248 436
453 2 2 100 1 231 177 430
454 2 2 100 1 232 178 429
455 2 2 100 1 229 179 431
456 2 2 100 1 230 180 432
457 2 2 100 1 290 167 295
458 2 2 100 1 291 166 294
459 2 2 100 1 292 168 296
460 2 2 100 1 289 165 293
461 2 2 100 1 162 290 295
462 2 2 100 1 164 291 294
463 2 2 100 1 161 292 296
464 2 2 100 1 163 289 293
465 2 2 100 1 168 292 384
466 2 2 100 1 166 291 381
467 2 2 100 1 165 289 382
468 2 2 100 1 167 290 383
469 2 2 100 1 153 281 335
470 2 2 100 1 154 282 336
471 2 2 100 1 156 284 333
472 2 2 100 1 155 283 334
473 2 2 100 1 380 221 463
474 2 2 100 1 379 222 464
475 2 2 100 1 377 223 461
476 2 2 100 1 378 224 462
477 2 2 100 1 299 151 397
478 2 2 100 1 300 152 398
479 2 2 100 1 297 149 399
480 2 2 100 1 298 150 400
481 2 2 100 1 114 229 353
482 2 2 100 1 115 230 354
483 2 2 100 1 113 231 355
484 2 2 100 1 116 232 356
485 2 2 100 1 127 263 386
486 2 2 100 1 125 264 388
487 2 2 100 1 126 262 385
488 2 2 100 1 128 261 387
489 2 2 100 1 397 151 429
490 2 2 100 1 398 152 430
491 2 2 100 1 399 149 431
492 2 2 100 1 400 150 432
493 2 2 100 1 133 261 425
494 2 2 100 1 134 262 426
495 2 2 100 1 135 263 427
496 2 2 100 1 136 264 428
497 2 2 100 1 289 163 338
498 2 2 100 1 291 164 337
499 2 2 100 1 290 162 339
500 2 2 100 1 292 161 340
501 2 2 100 1 262 190 426
502 2 2 100 1 261 189 425
503 2 2 100 1 263 192 427
504 2 2 100 1 264 191 428
505 2 2 100 1 143 255 441
506 2 2 100 1 144 256 442
507 2 2 100 1 141 253 443
508 2 2 100 1 142 254 444
509 2 2 100 1 297 119 331
510 2 2 100 1 298 120 332
511 2 2 100 1 299 117 329
512 2 2 100 1 300 118 330
513 2 2 100 1 360 18 363
514 2 2 100 1 359 75 362
515 2 2 100 1 357 56 364
516 2 2 100 1 358 37 361
517 2 2 100 1 50 253 405
518 2 2 100 1 69 254 406
519 2 2 100 1 12 255 407
520 2 2 100 1 31 256 408
521 2 2 100 1 257 24 409
522 2 2 100 1 260 81 410
523 2 2 100 1 258 43 411
524 2 2 100 1 259 62 412
525 2 2 100 1 255 13 309
526 2 2 100 1 256 32 310
527 2 2 100 1 253 51 311
528 2 2 100 1 254 70 312
529 2 2 100 1 239 137 393
530 2 2 100 1 240 138 394
531 2 2 100 1 237 139 395
532 2 2 100 1 238 140 396
533 2 2 100 1 255 143 439
534 2 2 100 1 256 144 440
535 2 2 100 1 253 141 437
536 2 2 100 1 254 142 438
537 2 2 100 1 281 153 305
538 2 2 100 1 282 154 306
539 2 2 100 1 283 155 307
540 2 2 100 1 284 156 308
541 2 2 100 1 239 149 327
542 2 2 100 1 240 150 328
543 2 2 100 1 237 151 325
544 2 2 100 1 238 152 326
545 2 2 100 1 173 283 307
546 2 2 100 1 174 284 308
547 2 2 100 1 175 281 305
548 2 2 100 1 176 282 306
549 2 2 100 1 287 114 353
550 2 2 100 1 288 115 354
551 2 2 100 1 285 113 355
552 2 2 100 1 286 116 356
553 2 2 100 1 264 168 388
554 2 2 100 1 262 166 385
555 2 2 100 1 263 167 386
556 2 2 100 1 261 165 387
557 2 2 100 1 173 279 443
558 2 2 100 1 174 280 444
559 2 2 100 1 175 277 441
560 2 2 100 1 176 278 442
561 2 2 100 1 13 14 309
562 2 2 100 1 32 33 310
563 2 2 100 1 51 52 311
564 2 2 100 1 70 71 312
565 2 2 100 1 353 229 475
566 2 2 100 1 354 230 476
567 2 2 100 1 355 231 474
568 2 2 100 1 356 232 473
569 2 2 100 1 241 207 449
570 2 2 100 1 242 208 450
571 2 2 100 1 243 205 451
572 2 2 100 1 244 206 452
573 2 2 100 1 205 246 446
574 2 2 100 1 206 245 445
575 2 2 100 1 207 247 447
576 2 2 100 1 208 248 448
577 2 2 100 1 48 241 449
578 2 2 100 1 67 242 450
579 2 2 100 1 10 243 451
580 2 2 100 1 29 244 452
581 2 2 100 1 245 26 445
582 2 2 100 1 246 83 446
583 2 2 100 1 247 45 447
584 2 2 100 1 248 64 448
585 2 2 100 1 236 351 404
586 2 2 100 1 235 349 401
587 2 2 100 1 234 352 402
588 2 2 100 1 233 350 403
589 2 2 100 1 40 41 322
590 2 2 100 1 21 22 323
591 2 2 100 1 59 60 321
592 2 2 100 1 78 79 324
593 2 2 100 1 19 233 363
594 2 2 100 1 76 235 362
595 2 2 100 1 38 236 361
596 2 2 100 1 57 234 364
597 2 2 100 1 195 285 355
598 2 2 100 1 196 286 356
599 2 2 100 1 193 287 353
600 2 2 100 1 194 288 354
601 2 2 100 1 56 57 364
602 2 2 100 1 37 38 361
603 2 2 100 1 75 76 362
604 2 2 100 1 18 19 363
605 2 2 100 1 151 237 395
606 2 2 100 1 152 238 396
607 2 2 100 1 149 239 393
608 2 2 100 1 150 240 394
609 2 2 100 1 276 197 316
610 2 2 100 1 275 199 315
611 2 2 100 1 273 198 313
612 2 2 100 1 274 200 314
613 2 2 100 1 117 305 469
614 2 2 100 1 118 306 470
615 2 2 100 1 119 307 471
616 2 2 100 1 120 308 472
617 2 2 100 1 299 329 465
618 2 2 100 1 300 330 466
619 2 2 100 1 297 331 467
620 2 2 100 1 298 332 468
621 2 2 100 1 121 273 313
622 2 2 100 1 124 276 316
623 2 2 100 1 123 275 315
624 2 2 100 1 122 274 314
625 2 2 100 1 41 42 365
626 2 2 100 1 22 23 367
627 2 2 100 1 60 61 366
628 2 2 100 1 79 80 368
629 2 2 100 1 266 157 331
630 2 2 100 1 265 158 332
631 2 2 100 1 268 159 329
632 2 2 100 1 267 160 330
633 2 2 100 1 255 309 441
634 2 2 100 1 256 310 442
635 2 2 100 1 253 311 443
636 2 2 100 1 254 312 444
637 2 2 100 1 329 117 469
638 2 2 100 1 330 118 470
639 2 2 100 1 331 119 471
640 2 2 100 1 332 120 472
641 2 2 100 1 268 153 389
642 2 2 100 1 267 154 392
643 2 2 100 1 266 155 390
644 2 2 100 1 265 156 391
645 2 2 100 1 84 1 421
646 2 2 100 1 27 2 422
647 2 2 100 1 46 3 423
648 2 2 100 1 65 4 424
649 2 2 100 1 1 9 421
650 2 2 100 1 2 28 422
651 2 2 100 1 3 47 423
652 2 2 100 1 4 66 424
653 2 2 100 1 157 266 372
654 2 2 100 1 158 265 370
655 2 2 100 1 160 267 369
656 2 2 100 1 159 268 371
657 2 2 100 1 271 194 478
658 2 2 100 1 270 195 480
659 2 2 100 1 272 193 477
660 2 2 100 1 269 196 479
661 2 2 100 1 55 56 357
662 2 2 100 1 74 75 359
663 2 2 100 1 36 37 358
664 2 2 100 1 17 18 360
665 2 2 100 1 204 269 348
666 2 2 100 1 202 270 347
667 2 2 100 1 203 271 346
668 2 2 100 1 201 272 345
669 2 2 100 1 279 119 399
670 2 2 100 1 280 120 400
671 2 2 100 1 277 117 397
672 2 2 100 1 278 118 398
673 2 2 100 1 179 279 399
674 2 2 100 1 180 280 400
675 2 2 100 1 177 278 398
676 2 2 100 1 178 277 397
677 2 2 100 1 402 133 425
678 2 2 100 1 401 135 427
679 2 2 100 1 404 136 428
680 2 2 100 1 403 134 426
681 2 2 100 1 53 283 417
682 2 2 100 1 72 284 418
683 2 2 100 1 15 281 419
684 2 2 100 1 34 282 420
685 2 2 100 1 234 402 425
686 2 2 100 1 236 404 428
687 2 2 100 1 235 401 427
688 2 2 100 1 233 403 426
689 2 2 100 1 23 257 367
690 2 2 100 1 80 260 368
691 2 2 100 1 61 259 366
692 2 2 100 1 42 258 365
693 2 2 100 1 190 360 363
694 2 2 100 1 192 359 362
695 2 2 100 1 189 357 364
696 2 2 100 1 191 358 361
697 2 2 100 1 146 269 481
698 2 2 100 1 145 270 484
699 2 2 100 1 147 272 482
700 2 2 100 1 148 271 483
701 2 2 100 1 269 204 481
702 2 2 100 1 270 202 484
703 2 2 100 1 272 201 482
704 2 2 100 1 271 203 483
705 2 2 100 1 259 148 483
706 2 2 100 1 257 145 484
707 2 2 100 1 258 147 482
708 2 2 100 1 260 146 481
709 2 2 100 1 14 15 419
710 2 2 100 1 33 34 420
711 2 2 100 1 52 53 417
712 2 2 100 1 71 72 418
713 2 2 100 1 105 104 319
714 2 2 100 1 112 111 320
715 2 2 100 1 91 90 317
716 2 2 100 1 98 97 318
717 2 2 100 1 217 287 375
718 2 2 100 1 218 288 376
719 2 2 100 1 219 285 373
720 2 2 100 1 220 286 374
721 2 2 100 1 285 145 373
722 2 2 100 1 286 146 374
723 2 2 100 1 287 147 375
724 2 2 100 1 288 148 376
725 2 2 100 1 267 125 369
726 2 2 100 1 268 126 371
727 2 2 100 1 266 128 372
728 2 2 100 1 265 127 370
729 2 2 100 1 271 122 346
730 2 2 100 1 272 121 345
731 2 2 100 1 269 124 348
732 2 2 100 1 270 123 347
733 2 2 100 1 125 267 392
734 2 2 100 1 126 268 389
735 2 2 100 1 127 265 391
736 2 2 100 1 128 266 390
737 2 2 100 1 351 172 404
738 2 2 100 1 349 170 401
739 2 2 100 1 350 169 403
740 2 2 100 1 352 171 402
741 2 2 100 1 358 191 414
742 2 2 100 1 360 190 413
743 2 2 100 1 357 189 416
744 2 2 100 1 359 192 415
745 2 2 100 1 213 358 414
746 2 2 100 1 215 360 413
747 2 2 100 1 216 357 416
748 2 2 100 1 214 359 415
749 2 2 100 1 279 141 443
750 2 2 100 1 280 142 444
751 2 2 100 1 277 143 441
752 2 2 100 1 278 144 442
753 2 2 100 1 153 268 469
754 2 2 100 1 154 267 470
755 2 2 100 1 155 266 471
756 2 2 100 1 156 265 472
757 2 2 100 1 20 21 350
758 2 2 100 1 39 40 351
759 2 2 100 1 58 59 352
760 2 2 100 1 77 78 349
761 2 2 100 1 382 209 387
762 2 2 100 1 381 211 385
763 2 2 100 1 383 210 386
764 2 2 100 1 384 212 388
765 2 2 100 1 165 382 387
766 2 2 100 1 166 381 385
767 2 2 100 1 167 383 386
768 2 2 100 1 168 384 388
769 2 2 100 1 473 276 479
770 2 2 100 1 474 275 480
771 2 2 100 1 476 274 478
772 2 2 100 1 475 273 477
773 2 2 100 1 137 273 475
774 2 2 100 1 140 275 474
775 2 2 100 1 138 274 476
776 2 2 100 1 139 276 473
777 2 2 100 1 311 52 417
778 2 2 100 1 312 71 418
779 2 2 100 1 309 14 419
780 2 2 100 1 310 33 420
781 2 2 100 1 341 114 461
782 2 2 100 1 342 115 462
783 2 2 100 1 343 113 463
784 2 2 100 1 344 116 464
785 2 2 100 1 122 271 478
786 2 2 100 1 121 272 477
787 2 2 100 1 123 270 480
788 2 2 100 1 124 269 479
789 2 2 100 1 221 343 463
790 2 2 100 1 222 344 464
791 2 2 100 1 223 341 461
792 2 2 100 1 224 342 462
793 2 2 100 1 301 87 453
794 2 2 100 1 302 94 455
795 2 2 100 1 304 108 456
796 2 2 100 1 303 101 454
797 2 2 100 1 198 301 453
798 2 2 100 1 197 303 454
799 2 2 100 1 199 304 456
800 2 2 100 1 200 302 455
801 2 2 100 1 196 473 479
802 2 2 100 1 195 474 480
803 2 2 100 1 194 476 478
804 2 2 100 1 193 475 477
805 2 2 100 1 283 173 417
806 2 2 100 1 284 174 418
807 2 2 100 1 281 175 419
808 2 2 100 1 282 176 420
809 2 2 100 1 223 377 437
810 2 2 100 1 224 378 438
811 2 2 100 1 221 380 440
812 2 2 100 1 222 379 439
813 2 2 100 1 377 181 437
814 2 2 100 1 378 182 438
815 2 2 100 1 379 183 439
816 2 2 100 1 380 184 440
817 2 2 100 1 276 124 479
818 2 2 100 1 273 121 477
819 2 2 100 1 274 122 478
820 2 2 100 1 275 123 480
821 2 2 100 1 49 50 405
822 2 2 100 1 68 69 406
823 2 2 100 1 11 12 407
824 2 2 100 1 30 31 408
825 2 2 100 1 43 44 411
826 2 2 100 1 62 63 412
827 2 2 100 1 24 25 409
828 2 2 100 1 81 82 410
829 2 2 100 1 278 177 458
830 2 2 100 1 277 178 457
831 2 2 100 1 279 179 459
832 2 2 100 1 280 180 460
833 2 2 100 1 143 277 457
834 2 2 100 1 144 278 458
835 2 2 100 1 141 279 459
836 2 2 100 1 142 280 460
837 2 2 100 1 321 171 352
838 2 2 100 1 323 169 350
839 2 2 100 1 324 170 349
840 2 2 100 1 322 172 351
841 2 2 100 1 219 373 434
842 2 2 100 1 220 374 433
843 2 2 100 1 217 375 435
844 2 2 100 1 218 376 436
845 2 2 100 1 373 185 434
846 2 2 100 1 374 186 433
847 2 2 100 1 375 187 435
848 2 2 100 1 376 188 436
849 2 2 100 1 21 323 350
850 2 2 100 1 40 322 351
851 2 2 100 1 59 321 352
852 2 2 100 1 78 324 349
853 2 2 100 1 173 311 417
854 2 2 100 1 174 312 418
855 2 2 100 1 175 309 419
856 2 2 100 1 176 310 420
857 2 2 100 1 94 93 455
858 2 2 100 1 108 107 456
859 2 2 100 1 101 100 454
860 2 2 100 1 87 86 453
861 2 2 100 1 26 27 445
862 2 2 100 1 83 84 446
863 2 2 100 1 45 46 447
864 2 2 100 1 64 65 448
865 2 2 100 1 9 10 451
866 2 2 100 1 28 29 452
867 2 2 100 1 47 48 449
868 2 2 100 1 66 67 450
869 2 2 100 1 117 299 397
870 2 2 100 1 118 300 398
871 2 2 100 1 119 297 399
872 2 2 100 1 120 298 400
873 2 2 100 1 210 370 386
874 2 2 100 1 211 371 385
875 2 2 100 1 209 372 387
876 2 2 100 1 212 369 388
877 2 2 100 1 370 127 386
878 2 2 100 1 372 128 387
879 2 2 100 1 371 126 385
880 2 2 100 1 369 125 388
881 2 2 100 1 311 173 443
882 2 2 100 1 312 174 444
883 2 2 100 1 309 175 441
884 2 2 100 1 310 176 442
885 2 2 100 1 177 398 430
886 2 2 100 1 178 397 429
887 2 2 100 1 179 399 431
888 2 2 100 1 180 400 432
889 2 2 100 1 225 299 465
890 2 2 100 1 226 300 466
891 2 2 100 1 227 297 467
892 2 2 100 1 228 298 468
893 2 2 100 1 305 153 469
894 2 2 100 1 306 154 470
895 2 2 100 1 307 155 471
896 2 2 100 1 308 156 472
897 2 2 100 1 331 157 467
898 2 2 100 1 332 158 468
899 2 2 100 1 329 159 465
900 2 2 100 1 330 160 466
901 2 2 100 1 100 339 454
902 2 2 100 1 107 337 456
903 2 2 100 1 93 338 455
904 2 2 100 1 86 340 453
905 2 2 100 1 127 391 415
906 2 2 100 1 125 392 414
907 2 2 100 1 128 390 416
908 2 2 100 1 126 389 413
909 2 2 100 1 390 216 416
910 2 2 100 1 392 213 414
911 2 2 100 1 389 215 413
912 2 2 100 1 391 214 415
913 2 2 100 1 367 257 484
914 2 2 100 1 366 259 483
915 2 2 100 1 365 258 482
916 2 2 100 1 368 260 481
917 2 2 100 1 151 395 429
918 2 2 100 1 152 396 430
919 2 2 100 1 149 393 431
920 2 2 100 1 150 394 432
921 2 2 100 1 393 229 431
922 2 2 100 1 394 230 432
923 2 2 100 1 396 231 430
924 2 2 100 1 395 232 429
925 2 2 100 1 267 330 470
926 2 2 100 1 268 329 469
927 2 2 100 1 265 332 472
928 2 2 100 1 266 331 471
929 2 2 100 1 190 363 426
930 2 2 100 1 191 361 428
931 2 2 100 1 192 362 427
932 2 2 100 1 189 364 425
933 2 2 100 1 361 236 428
934 2 2 100 1 362 235 427
935 2 2 100 1 363 233 426
936 2 2 100 1 364 234 425
937 2 2 100 1 339 197 454
938 2 2 100 1 337 199 456
939 2 2 100 1 340 198 453
940 2 2 100 1 338 200 455
941 2 2 100 1 179 341 459
942 2 2 100 1 180 342 460
943 2 2 100 1 177 343 458
944 2 2 100 1 178 344 457
945 2 2 100 1 423 207 447
946 2 2 100 1 424 208 448
947 2 2 100 1 421 205 446
948 2 2 100 1 422 206 445
949 2 2 100 1 207 423 449
950 2 2 100 1 208 424 450
951 2 2 100 1 205 421 451
952 2 2 100 1 206 422 452
953 2 2 100 1 27 422 445
954 2 2 100 1 84 421 446
955 2 2 100 1 46 423 447
956 2 2 100 1 65 424 448
957 2 2 100 1 421 9 451
958 2 2 100 1 422 28 452
959 2 2 100 1 423 47 449
960 2 2 100 1 424 66 450
961 2 2 100 1 193 353 475
962 2 2 100 1 194 354 476
963 2 2 100 1 195 355 474
964 2 2 100 1 196 356 473
965 2 2 100 1 201 365 482
966 2 2 100 1 204 368 481
967 2 2 100 1 202 367 484
968 2 2 100 1 203 366 483
$EndElements
