$MeshFormat
2.2 0 8
$EndMeshFormat
$Nodes
193
1 0 0 0
2 -1 0 0
3 -1 0.5 0
4 0.5 0.5 0
5 0.5 -1 0
6 0 -1 0
7 -0.09999999999981467 0 0
8 -0.1999999999995579 0 0
9 -0.2999999999992664 0 0
10 -0.3999999999989749 0 0
11 -0.4999999999986943 0 0
12 -0.5999999999989468 0 0
13 -0.69999999999921 0 0
14 -0.7999999999994734 0 0
15 -0.8999999999997368 0 0
16 -1 0.09999999999977893 0
17 -1 0.1999999999994874 0
18 -1 0.2999999999994734 0
19 -1 0.3999999999997367 0
20 -0.9000000000003697 0.5 0
21 -0.8000000000007395 0.5 0
22 -0.7000000000011093 0.5 0
23 -0.6000000000014792 0.5 0
24 -0.5000000000018492 0.5 0
25 -0.4000000000022191 0.5 0
26 -0.300000000002589 0.5 0
27 -0.2000000000025886 0.5 0
28 -0.1000000000022188 0.5 0
29 -1.848965425210736e-12 0.5 0
30 0.09999999999852083 0.5 0
31 0.1999999999988906 0.5 0
32 0.2999999999992604 0.5 0
33 0.3999999999996302 0.5 0
34 0.5 0.4000000000003697 0
35 0.5 0.3000000000007395 0
36 0.5 0.2000000000011093 0
37 0.5 0.1000000000014792 0
38 0.5 1.849131958664429e-12 0
39 0.5 -0.09999999999778086 0
40 0.5 -0.199999999997411 0
41 0.5 -0.2999999999974114 0
42 0.5 -0.3999999999977812 0
43 0.5 -0.499999999998151 0
44 0.5 -0.5999999999985208 0
45 0.5 -0.6999999999988906 0
46 0.5 -0.7999999999992604 0
47 0.5 -0.8999999999996302 0
48 0.3999999999999999 -1 0
49 0.3000000000006934 -1 0
50 0.2000000000008322 -1 0
51 0.1000000000004161 -1 0
52 0 -0.8999999999995836 0
53 0 -0.7999999999999998 0
54 0 -0.7000000000006934 0
55 0 -0.6000000000013869 0
56 0 -0.5000000000020587 0
57 0 -0.4000000000016644 0
58 0 -0.3000000000012483 0
59 0 -0.2000000000008322 0
60 0 -0.100000000000416 0
61 0.2203249767253938 0.2194070227159421 0
62 0.2314523653511453 -0.7260321537012917 0
63 -0.4500000000020342 0.2499999999996755 0
64 -0.7413624211001558 0.2485679888412742 0
65 0.2748375620610723 -0.05372375003314883 0
66 -0.05358564448108943 0.2526434154367336 0
67 0.2597046216109793 -0.3507077925339018 0
68 -0.2489054101555779 0.2104546307735465 0
69 0.2104546307737053 -0.5510945898439006 0
70 0.3325792049988534 0.3235794114320826 0
71 -0.5944961423665099 0.3275284145331976 0
72 0.3300000000000066 -0.1999999999978145 0
73 0.3321949275118646 0.08827549822346517 0
74 0.1107824252278446 0.3389698793068651 0
75 -0.5883582508076854 0.1591142043876015 0
76 0.1633845733798956 -0.1934148100534057 0
77 -0.3165976180125214 0.3373016587366142 0
78 0.3373016587368923 -0.4834023819870555 0
79 0.05806416920334187 0.1464745726552958 0
80 -0.1696489103923705 0.3404875037450489 0
81 0.3497793148873434 -0.6329655248106492 0
82 0.1387431621659929 -0.8557949205647214 0
83 0.3562499999998436 -0.8562500000000054 0
84 -0.8577584955428612 0.3455070144592703 0
85 -0.863626119386693 0.150880338563926 0
86 0.1825581395344007 0.07090254706629427 0
87 0.1524865341629163 -0.6884371741321167 0
88 -0.1276315789481932 0.135526315789757 0
89 -0.3721054877092392 0.1372314991649137 0
90 0.136637343592009 -0.4276433275634687 0
91 -0.4514389014684465 0.4135035395530641 0
92 0.3877402274645569 -0.05047685339179567 0
93 0.4126618529473325 -0.3488416607331426 0
94 0.08908252522925708 -0.05149504268351041 0
95 -0.0416430536661878 0.3783286107330561 0
96 -0.7097745587281308 0.1311972836724336 0
97 -0.719290046629217 0.3801723967670645 0
98 0.375643019175481 0.2132602265274262 0
99 0.2087984259972705 0.3766533404488479 0
100 0.1229519177183635 -0.294966282933619 0
101 0.3917504716546221 -0.7447275333693968 0
102 -0.4925363843605201 0.1132547548457679 0
103 -0.8989059990357755 0.2441485712564381 0
104 0.2441259293611386 -0.8978901692012434 0
105 0.06908693152829859 -0.5500000000008796 0
106 -0.2499999999997481 0.06908693152825016 0
107 -0.1491495892008862 0.2335749538557853 0
108 0.2445318096277804 -0.642336579307818 0
109 -0.3457533765108759 0.2330445376042537 0
110 0.234185133330705 -0.4543063352281903 0
111 -0.04161688153076266 0.08021062210275288 0
112 0.08491471875670016 -0.7594254240591939 0
113 0.1077504058454949 0.2390360186274826 0
114 -0.243417734922646 0.4046133265333132 0
115 0.405537803971722 -0.5535822147398607 0
116 0.4001218934945605 0.4001218934945613 0
117 0.2319628356724945 -0.2618345449266422 0
118 -0.6447052711118584 0.2404239619321329 0
119 0.4100698421583076 -0.1509362730143689 0
120 -0.5437804878065648 0.4113414634147926 0
121 0.4118224076589218 -0.253064086826832 0
122 0.08687107357643956 0.04680087403350148 0
123 0.4124442380917868 0.04760359847341623 0
124 0.03843757033062631 0.4139315757807898 0
125 -0.5463333333353224 0.249999999999939 0
126 0.2507644305768754 -0.1558705878248638 0
127 0.0862261603609194 -0.1407901621622071 0
128 -0.2443540961740153 0.293188480297713 0
129 0.2940649990851256 -0.557208309961732 0
130 -0.6367602176052374 0.4150000000001175 0
131 0.290072677050614 0.246567534589627 0
132 -0.6312893373711144 0.07524305753424114 0
133 0.4127472465870784 0.1333489145899549 0
134 0.1798022899933464 0.296123369990876 0
135 0.2432216730208928 0.1229233045461529 0
136 0.2611254335041153 0.03900902606652722 0
137 -0.3512157164751962 0.4159243871023152 0
138 0.4159342431539676 -0.4484605349372834 0
139 0.4112776885593235 0.2946854287262091 0
140 0.2946854287253878 0.4112776885592847 0
141 0.07451253029183573 -0.2258342510302625 0
142 0.1316036843106306 0.4259109591073006 0
143 -0.7978107160571749 0.08307838027576647 0
144 0.01319511936130964 0.3089040254364372 0
145 0.3268586196482429 -0.3026150535067341 0
146 -0.7988426844805377 0.4179658904258771 0
147 0.08354166666695524 -0.9164583333330447 0
148 0.4164583333333315 -0.9164583333332708 0
149 -0.9164583333335099 0.4164583333334057 0
150 -0.9164583333334839 0.08354166666643652 0
151 -0.1195506222175198 0.4161209642770935 0
152 0.4322449249736683 -0.6499999999987055 0
153 0.1481084770619159 0.1474573525607491 0
154 -0.4974677714927223 0.3278955695834006 0
155 0.3306824124521637 -0.1222014928523983 0
156 0.01735464891448071 0.2221842227980931 0
157 -0.3987577639774566 0.314999999999735 0
158 0.3311076882380199 -0.3980556264877179 0
159 0.1748825419345095 -0.1003818617251572 0
160 -0.5598614691510794 0.06896214353605076 0
161 -0.8058761647035304 0.1900575647829041 0
162 0.1890325893141135 -0.7918928359285384 0
163 0.07614496122810063 -0.3727050397883274 0
164 0.3090286805821575 -0.7106994662900297 0
165 0.2856636689132513 -0.7981615923667738 0
166 -0.8178098891807238 0.2743388851067966 0
167 -0.09187804173334395 0.3184256054945302 0
168 0.4328917609975594 -0.8434871733403126 0
169 0.07145737272465448 -0.4583616242329803 0
170 -0.3437151076706819 0.0678153302083454 0
171 0.0755605307417531 -0.649673536691953 0
172 -0.1499999999996863 0.06038579458356278 0
173 0.1600455729172519 -0.9327539062497903 0
174 0.06143990951792965 -0.8463357355913086 0
175 -0.9327539062501102 0.3399544270832546 0
176 0.3433668525390015 -0.934119700506904 0
177 -0.9357980903511904 0.1557141152972134 0
178 -0.05622846844816839 0.1738874031642118 0
179 0.1782262126399657 -0.008148034545915572 0
180 0.3336684777266792 0.01413750386769282 0
181 -0.4381897066605488 0.1744490858042392 0
182 0.176931135525442 -0.3603605538290249 0
183 -0.4249227947701691 0.07152943605485888 0
184 0.3123674200118874 0.170630416865428 0
185 0.2543771672484776 0.3122680612894433 0
186 -0.6767495308251621 0.3184328115341481 0
187 -0.5030835350332221 0.1893636090074446 0
188 0.1447827353253293 -0.5069307498044779 0
189 -0.2933834600147566 0.1440846548801542 0
190 -0.2031783397198081 0.1421855469018427 0
191 0.1468750000026036 -0.6001786219574484 0
192 -0.7733528982154485 0.3344258183333645 0
193 -0.04858163815004404 0.447205169228115 0
$EndNodes
$Elements
384
1 1 2 15 1 1 7
2 1 2 15 1 7 8
3 1 2 15 1 8 9
4 1 2 15 1 9 10
5 1 2 15 1 10 11
6 1 2 15 1 11 12
7 1 2 15 1 12 13
8 1 2 15 1 13 14
9 1 2 15 1 14 15
10 1 2 15 1 15 2
11 1 2 10 2 2 16
12 1 2 10 2 16 17
13 1 2 10 2 17 18
14 1 2 10 2 18 19
15 1 2 10 2 19 3
16 1 2 11 3 3 20
17 1 2 11 3 20 21
18 1 2 11 3 21 22
19 1 2 11 3 22 23
20 1 2 11 3 23 24
21 1 2 11 3 24 25
22 1 2 11 3 25 26
23 1 2 11 3 26 27
24 1 2 11 3 27 28
25 1 2 11 3 28 29
26 1 2 11 3 29 30
27 1 2 11 3 30 31
28 1 2 11 3 31 32
29 1 2 11 3 32 33
30 1 2 11 3 33 4
31 1 2 12 4 4 34
32 1 2 12 4 34 35
33 1 2 12 4 35 36
34 1 2 12 4 36 37
35 1 2 12 4 37 38
36 1 2 12 4 38 39
37 1 2 12 4 39 40
38 1 2 12 4 40 41
39 1 2 12 4 41 42
40 1 2 12 4 42 43
41 1 2 12 4 43 44
42 1 2 12 4 44 45
43 1 2 12 4 45 46
44 1 2 12 4 46 47
45 1 2 12 4 47 5
46 1 2 13 5 5 48
47 1 2 13 5 48 49
48 1 2 13 5 49 50
49 1 2 13 5 50 51
50 1 2 13 5 51 6
51 1 2 14 6 6 52
52 1 2 14 6 52 53
53 1 2 14 6 53 54
54 1 2 14 6 54 55
55 1 2 14 6 55 56
56 1 2 14 6 56 57
57 1 2 14 6 57 58
58 1 2 14 6 58 59
59 1 2 14 6 59 60
60 1 2 14 6 60 1
61 2 2 100 1 96 64 118
62 2 2 100 1 75 96 118
63 2 2 100 1 143 15 150
64 2 2 100 1 4 34 116
65 2 2 100 1 33 4 116
66 2 2 100 1 62 87 108
67 2 2 100 1 24 25 91
68 2 2 100 1 38 39 92
69 2 2 100 1 41 42 93
70 2 2 100 1 60 1 94
71 2 2 100 1 14 15 143
72 2 2 100 1 100 76 117
73 2 2 100 1 161 103 166
74 2 2 100 1 85 103 161
75 2 2 100 1 100 117 182
76 2 2 100 1 87 62 162
77 2 2 100 1 116 34 139
78 2 2 100 1 33 116 140
79 2 2 100 1 34 35 139
80 2 2 100 1 32 33 140
81 2 2 100 1 20 146 149
82 2 2 100 1 104 162 165
83 2 2 100 1 104 82 162
84 2 2 100 1 114 27 151
85 2 2 100 1 164 101 165
86 2 2 100 1 99 31 140
87 2 2 100 1 36 98 139
88 2 2 100 1 20 21 146
89 2 2 100 1 101 83 165
90 2 2 100 1 22 97 146
91 2 2 100 1 96 13 143
92 2 2 100 1 45 46 101
93 2 2 100 1 117 67 182
94 2 2 100 1 94 1 122
95 2 2 100 1 91 25 137
96 2 2 100 1 93 42 138
97 2 2 100 1 64 96 161
98 2 2 100 1 24 91 120
99 2 2 100 1 92 39 119
100 2 2 100 1 41 93 121
101 2 2 100 1 1 111 122
102 2 2 100 1 111 79 122
103 2 2 100 1 111 7 172
104 2 2 100 1 80 114 151
105 2 2 100 1 38 92 123
106 2 2 100 1 92 65 180
107 2 2 100 1 60 94 127
108 2 2 100 1 65 92 155
109 2 2 100 1 31 32 140
110 2 2 100 1 35 36 139
111 2 2 100 1 13 96 132
112 2 2 100 1 97 22 130
113 2 2 100 1 98 36 133
114 2 2 100 1 96 75 132
115 2 2 100 1 21 22 146
116 2 2 100 1 1 7 111
117 2 2 100 1 17 18 103
118 2 2 100 1 49 50 104
119 2 2 100 1 100 58 141
120 2 2 100 1 101 46 168
121 2 2 100 1 79 111 178
122 2 2 100 1 156 79 178
123 2 2 100 1 112 54 171
124 2 2 100 1 88 111 172
125 2 2 100 1 13 14 143
126 2 2 100 1 31 99 142
127 2 2 100 1 85 143 150
128 2 2 100 1 74 113 144
129 2 2 100 1 99 74 142
130 2 2 100 1 70 98 131
131 2 2 100 1 74 99 134
132 2 2 100 1 98 70 139
133 2 2 100 1 91 137 157
134 2 2 100 1 93 138 158
135 2 2 100 1 144 113 156
136 2 2 100 1 88 107 178
137 2 2 100 1 119 40 121
138 2 2 100 1 58 100 163
139 2 2 100 1 53 54 112
140 2 2 100 1 62 164 165
141 2 2 100 1 109 77 128
142 2 2 100 1 68 109 128
143 2 2 100 1 69 110 129
144 2 2 100 1 110 78 129
145 2 2 100 1 186 64 192
146 2 2 100 1 107 66 178
147 2 2 100 1 76 100 141
148 2 2 100 1 87 112 171
149 2 2 100 1 115 81 129
150 2 2 100 1 78 115 129
151 2 2 100 1 77 114 128
152 2 2 100 1 114 80 128
153 2 2 100 1 146 84 149
154 2 2 100 1 138 78 158
155 2 2 100 1 137 77 157
156 2 2 100 1 101 81 152
157 2 2 100 1 45 101 152
158 2 2 100 1 63 154 157
159 2 2 100 1 55 56 105
160 2 2 100 1 8 9 106
161 2 2 100 1 6 52 147
162 2 2 100 1 5 48 148
163 2 2 100 1 51 6 147
164 2 2 100 1 3 20 149
165 2 2 100 1 47 5 148
166 2 2 100 1 19 3 149
167 2 2 100 1 2 16 150
168 2 2 100 1 15 2 150
169 2 2 100 1 72 119 121
170 2 2 100 1 27 28 151
171 2 2 100 1 75 102 160
172 2 2 100 1 122 79 153
173 2 2 100 1 86 122 153
174 2 2 100 1 112 87 162
175 2 2 100 1 83 101 168
176 2 2 100 1 97 186 192
177 2 2 100 1 109 89 181
178 2 2 100 1 110 90 182
179 2 2 100 1 47 148 168
180 2 2 100 1 11 102 183
181 2 2 100 1 154 91 157
182 2 2 100 1 81 101 164
183 2 2 100 1 67 145 158
184 2 2 100 1 95 124 144
185 2 2 100 1 61 134 185
186 2 2 100 1 107 88 190
187 2 2 100 1 108 87 191
188 2 2 100 1 131 61 185
189 2 2 100 1 26 27 114
190 2 2 100 1 43 44 115
191 2 2 100 1 63 109 181
192 2 2 100 1 67 110 182
193 2 2 100 1 40 41 121
194 2 2 100 1 39 40 119
195 2 2 100 1 23 24 120
196 2 2 100 1 58 59 141
197 2 2 100 1 46 47 168
198 2 2 100 1 124 74 144
199 2 2 100 1 102 75 187
200 2 2 100 1 37 38 123
201 2 2 100 1 64 161 166
202 2 2 100 1 102 11 160
203 2 2 100 1 59 60 127
204 2 2 100 1 145 93 158
205 2 2 100 1 36 37 133
206 2 2 100 1 72 117 126
207 2 2 100 1 118 71 125
208 2 2 100 1 117 76 126
209 2 2 100 1 75 118 125
210 2 2 100 1 94 122 179
211 2 2 100 1 12 13 132
212 2 2 100 1 17 103 177
213 2 2 100 1 49 104 176
214 2 2 100 1 103 85 177
215 2 2 100 1 84 103 175
216 2 2 100 1 104 83 176
217 2 2 100 1 103 18 175
218 2 2 100 1 104 50 173
219 2 2 100 1 82 104 173
220 2 2 100 1 22 23 130
221 2 2 100 1 26 114 137
222 2 2 100 1 43 115 138
223 2 2 100 1 162 62 165
224 2 2 100 1 107 68 128
225 2 2 100 1 80 107 128
226 2 2 100 1 108 69 129
227 2 2 100 1 81 108 129
228 2 2 100 1 122 86 179
229 2 2 100 1 116 70 140
230 2 2 100 1 70 116 139
231 2 2 100 1 103 84 166
232 2 2 100 1 83 104 165
233 2 2 100 1 105 56 169
234 2 2 100 1 55 105 171
235 2 2 100 1 106 9 170
236 2 2 100 1 8 106 172
237 2 2 100 1 90 110 188
238 2 2 100 1 89 109 189
239 2 2 100 1 114 77 137
240 2 2 100 1 115 78 138
241 2 2 100 1 68 107 190
242 2 2 100 1 69 108 191
243 2 2 100 1 133 73 184
244 2 2 100 1 98 133 184
245 2 2 100 1 29 30 124
246 2 2 100 1 23 120 130
247 2 2 100 1 57 58 163
248 2 2 100 1 65 136 180
249 2 2 100 1 30 31 142
250 2 2 100 1 110 69 188
251 2 2 100 1 109 68 189
252 2 2 100 1 37 123 133
253 2 2 100 1 61 131 184
254 2 2 100 1 59 127 141
255 2 2 100 1 62 108 164
256 2 2 100 1 108 81 164
257 2 2 100 1 81 115 152
258 2 2 100 1 115 44 152
259 2 2 100 1 171 105 191
260 2 2 100 1 172 106 190
261 2 2 100 1 106 170 189
262 2 2 100 1 105 169 188
263 2 2 100 1 135 61 184
264 2 2 100 1 63 125 154
265 2 2 100 1 126 65 155
266 2 2 100 1 10 11 183
267 2 2 100 1 107 80 167
268 2 2 100 1 66 107 167
269 2 2 100 1 120 71 130
270 2 2 100 1 67 117 145
271 2 2 100 1 124 95 193
272 2 2 100 1 113 74 134
273 2 2 100 1 74 124 142
274 2 2 100 1 61 113 134
275 2 2 100 1 132 75 160
276 2 2 100 1 109 63 157
277 2 2 100 1 77 109 157
278 2 2 100 1 78 110 158
279 2 2 100 1 110 67 158
280 2 2 100 1 65 159 179
281 2 2 100 1 29 124 193
282 2 2 100 1 130 71 186
283 2 2 100 1 97 130 186
284 2 2 100 1 144 66 167
285 2 2 100 1 95 144 167
286 2 2 100 1 118 64 186
287 2 2 100 1 61 135 153
288 2 2 100 1 135 86 153
289 2 2 100 1 113 61 153
290 2 2 100 1 79 113 153
291 2 2 100 1 25 26 137
292 2 2 100 1 42 43 138
293 2 2 100 1 72 121 145
294 2 2 100 1 121 93 145
295 2 2 100 1 123 73 133
296 2 2 100 1 140 70 185
297 2 2 100 1 99 140 185
298 2 2 100 1 65 126 159
299 2 2 100 1 117 72 145
300 2 2 100 1 80 151 167
301 2 2 100 1 151 95 167
302 2 2 100 1 124 30 142
303 2 2 100 1 181 89 183
304 2 2 100 1 159 94 179
305 2 2 100 1 120 91 154
306 2 2 100 1 71 120 154
307 2 2 100 1 92 119 155
308 2 2 100 1 119 72 155
309 2 2 100 1 52 53 174
310 2 2 100 1 50 51 173
311 2 2 100 1 48 49 176
312 2 2 100 1 18 19 175
313 2 2 100 1 16 17 177
314 2 2 100 1 127 94 159
315 2 2 100 1 76 127 159
316 2 2 100 1 113 79 156
317 2 2 100 1 44 45 152
318 2 2 100 1 111 88 178
319 2 2 100 1 11 12 160
320 2 2 100 1 127 76 141
321 2 2 100 1 148 83 168
322 2 2 100 1 135 73 136
323 2 2 100 1 86 135 136
324 2 2 100 1 82 112 162
325 2 2 100 1 102 181 183
326 2 2 100 1 53 112 174
327 2 2 100 1 112 82 174
328 2 2 100 1 125 71 154
329 2 2 100 1 72 126 155
330 2 2 100 1 66 144 156
331 2 2 100 1 56 57 169
332 2 2 100 1 9 10 170
333 2 2 100 1 7 8 172
334 2 2 100 1 54 55 171
335 2 2 100 1 125 63 187
336 2 2 100 1 126 76 159
337 2 2 100 1 66 156 178
338 2 2 100 1 90 163 182
339 2 2 100 1 163 100 182
340 2 2 100 1 64 166 192
341 2 2 100 1 87 171 191
342 2 2 100 1 88 172 190
343 2 2 100 1 170 89 189
344 2 2 100 1 169 90 188
345 2 2 100 1 105 188 191
346 2 2 100 1 106 189 190
347 2 2 100 1 189 68 190
348 2 2 100 1 188 69 191
349 2 2 100 1 86 136 179
350 2 2 100 1 136 65 179
351 2 2 100 1 28 29 193
352 2 2 100 1 71 118 186
353 2 2 100 1 73 123 180
354 2 2 100 1 75 125 187
355 2 2 100 1 123 92 180
356 2 2 100 1 143 85 161
357 2 2 100 1 96 143 161
358 2 2 100 1 12 132 160
359 2 2 100 1 147 52 174
360 2 2 100 1 148 48 176
361 2 2 100 1 51 147 173
362 2 2 100 1 150 16 177
363 2 2 100 1 19 149 175
364 2 2 100 1 134 99 185
365 2 2 100 1 136 73 180
366 2 2 100 1 131 98 184
367 2 2 100 1 73 135 184
368 2 2 100 1 70 131 185
369 2 2 100 1 63 181 187
370 2 2 100 1 147 82 173
371 2 2 100 1 82 147 174
372 2 2 100 1 83 148 176
373 2 2 100 1 149 84 175
374 2 2 100 1 85 150 177
375 2 2 100 1 163 90 169
376 2 2 100 1 57 163 169
377 2 2 100 1 89 170 183
378 2 2 100 1 84 146 192
379 2 2 100 1 146 97 192
380 2 2 100 1 95 151 193
381 2 2 100 1 151 28 193
382 2 2 100 1 170 10 183
383 2 2 100 1 166 84 192
384 2 2 100 1 181 102 187
$EndElements
