$MeshFormat
2.2 0 8
$EndMeshFormat
$Nodes
13
1 -1 -1 0
2 1 -1 0
3 1 1 0
4 -1 1 0
5 -2.752797989558076e-12 -1 0
6 1 -2.752797989558076e-12 0
7 2.752797989558076e-12 1 0
8 -1 2.752797989558076e-12 0
9 0 0 0
10 0.4999999999986236 -0.5000000000013765 0
11 0.5000000000013765 0.4999999999986236 0
12 -0.5000000000010252 -0.4999999999989747 0
13 -0.4999999999986235 0.5000000000013765 0
$EndNodes
$Elements
24
1 1 2 10 1 1 5
2 1 2 10 1 5 2
3 1 2 11 2 2 6
4 1 2 11 2 6 3
5 1 2 12 3 3 7
6 1 2 12 3 7 4
7 1 2 13 4 4 8
8 1 2 13 4 8 1
9 2 2 100 1 8 1 12
10 2 2 100 1 5 2 10
11 2 2 100 1 6 3 11
12 2 2 100 1 7 4 13
13 2 2 100 1 9 5 10
14 2 2 100 1 5 9 12
15 2 2 100 1 10 6 11
16 2 2 100 1 11 7 13
17 2 2 100 1 9 8 12
18 2 2 100 1 8 9 13
19 2 2 100 1 9 10 11
20 2 2 100 1 9 11 13
21 2 2 100 1 2 6 10
22 2 2 100 1 3 7 11
23 2 2 100 1 4 8 13
24 2 2 100 1 1 5 12
$EndElements
