//+
//hole_1.msh :  L/h = 32
//d0= 0.125;
//d=0.125;
///hole_2.msh L/h = 64
d0= 0.0625;
d=0.0625;
///hole_3.msh L/h = 128
//d0= 0.03125;
//d=0.03125;

R = 0.2;
L = 2.;
Point(1) = {0., 0., 0., d};
Point(2) = {-L/2., -L/2., 0., d0};
Point(3) = {L/2., -L/2., 0., d0};
Point(4) = {L/2., L/2., 0., d0};
Point(5) = {-L/2., L/2., 0., d0};
Point(6) = {-R, 0, 0., d};
Point(7) = {R, 0, 0., d};
Point(8) = {0, -R, 0., d};
Point(9) = {0, R, 0., d};

//+
Line(1) = {2, 3};
//+
Line(2) = {3, 4}; //right
//+
Line(3) = {4, 5};
//+
Line(4) = {5, 2}; //left
//+


//+
Circle(5) = {7, 1, 9};
//+
Circle(6) = {9, 1, 6};
//+
Circle(7) = {6, 1, 8};
//+
Circle(8) = {8, 1, 7};
//+
Curve Loop(1) = {4, 1, 2, 3};
//+
Curve Loop(2) = {6, 7, 8, 5};
//+
Plane Surface(1) = {1, 2};
Physical Point(2) = {2};
Physical Point(3) = {3};
Physical Point(4) = {4};
Physical Point(5) = {5};
//+
Physical Curve(10) = {4}; //left
//+
Physical Curve(11) = {3};
//+
Physical Curve(12) = {2}; //right
//+
Physical Curve(13) = {1};
//+
Physical Curve(14) = {7, 6, 5, 8};
//+
Physical Surface(100) = {1};
