$MeshFormat
2.2 0 8
$EndMeshFormat
$Nodes
289
1 -1 -1 0
2 1 -1 0
3 1 1 0
4 -1 1 0
5 -0.8750000000003466 -1 0
6 -0.7500000000006932 -1 0
7 -0.6250000000010399 -1 0
8 -0.5000000000013867 -1 0
9 -0.3750000000017331 -1 0
10 -0.2500000000020793 -1 0
11 -0.1250000000024256 -1 0
12 -2.750244476601438e-12 -1 0
13 0.1249999999975746 -1 0
14 0.249999999997921 -1 0
15 0.3749999999982676 -1 0
16 0.499999999998614 -1 0
17 0.6249999999989604 -1 0
18 0.749999999999307 -1 0
19 0.8749999999996534 -1 0
20 1 -0.8750000000003466 0
21 1 -0.7500000000006932 0
22 1 -0.6250000000010399 0
23 1 -0.5000000000013867 0
24 1 -0.3750000000017331 0
25 1 -0.2500000000020793 0
26 1 -0.1250000000024256 0
27 1 -2.750244476601438e-12 0
28 1 0.1249999999975746 0
29 1 0.249999999997921 0
30 1 0.3749999999982676 0
31 1 0.499999999998614 0
32 1 0.6249999999989604 0
33 1 0.749999999999307 0
34 1 0.8749999999996534 0
35 0.8750000000003466 1 0
36 0.7500000000006932 1 0
37 0.6250000000010399 1 0
38 0.5000000000013867 1 0
39 0.3750000000017331 1 0
40 0.2500000000020793 1 0
41 0.1250000000024256 1 0
42 2.750244476601438e-12 1 0
43 -0.1249999999975746 1 0
44 -0.249999999997921 1 0
45 -0.3749999999982676 1 0
46 -0.499999999998614 1 0
47 -0.6249999999989604 1 0
48 -0.749999999999307 1 0
49 -0.8749999999996534 1 0
50 -1 0.8750000000003466 0
51 -1 0.7500000000006932 0
52 -1 0.6250000000010399 0
53 -1 0.5000000000013867 0
54 -1 0.3750000000017331 0
55 -1 0.2500000000020793 0
56 -1 0.1250000000024256 0
57 -1 2.750244476601438e-12 0
58 -1 -0.1249999999975746 0
59 -1 -0.249999999997921 0
60 -1 -0.3749999999982676 0
61 -1 -0.499999999998614 0
62 -1 -0.6249999999989604 0
63 -1 -0.749999999999307 0
64 -1 -0.8749999999996534 0
65 -0.8750000000003035 -0.8749999999996965 0
66 -0.87500000000026 -0.7499999999993936 0
67 -0.8750000000002164 -0.6249999999990906 0
68 -0.8750000000001734 -0.4999999999987874 0
69 -0.8750000000001299 -0.3749999999984842 0
70 -0.8750000000000869 -0.2499999999981809 0
71 -0.8750000000000433 -0.1249999999978778 0
72 -0.875 2.406463917026258e-12 0
73 -0.8749999999999566 0.1250000000021224 0
74 -0.8749999999999134 0.2500000000018194 0
75 -0.8749999999998701 0.3750000000015166 0
76 -0.8749999999998266 0.5000000000012134 0
77 -0.8749999999997835 0.6250000000009099 0
78 -0.87499999999974 0.7500000000006066 0
79 -0.8749999999996967 0.8750000000003033 0
80 -0.7500000000006066 -0.87499999999974 0
81 -0.7500000000005198 -0.7499999999994802 0
82 -0.7500000000004334 -0.6249999999992204 0
83 -0.7500000000003468 -0.4999999999989606 0
84 -0.7500000000002602 -0.3749999999987007 0
85 -0.7500000000001734 -0.2499999999984408 0
86 -0.7500000000000868 -0.1249999999981811 0
87 -0.7500000000000002 2.062683357451078e-12 0
88 -0.7499999999999134 0.1250000000018192 0
89 -0.7499999999998268 0.2500000000015595 0
90 -0.7499999999997402 0.3750000000012998 0
91 -0.7499999999996536 0.5000000000010401 0
92 -0.749999999999567 0.6250000000007798 0
93 -0.7499999999994804 0.7500000000005198 0
94 -0.7499999999993936 0.87500000000026 0
95 -0.62500000000091 -0.8749999999997834 0
96 -0.62500000000078 -0.7499999999995668 0
97 -0.6250000000006501 -0.6249999999993503 0
98 -0.62500000000052 -0.4999999999991338 0
99 -0.6250000000003901 -0.3749999999989173 0
100 -0.6250000000002602 -0.2499999999987008 0
101 -0.6250000000001301 -0.1249999999984843 0
102 -0.6250000000000002 1.718847286724667e-12 0
103 -0.6249999999998703 0.125000000001516 0
104 -0.6249999999997402 0.2500000000012996 0
105 -0.6249999999996103 0.3750000000010834 0
106 -0.6249999999994805 0.5000000000008669 0
107 -0.6249999999993503 0.6250000000006501 0
108 -0.6249999999992204 0.7500000000004331 0
109 -0.6249999999990905 0.8750000000002167 0
110 -0.5000000000012135 -0.8749999999998267 0
111 -0.5000000000010401 -0.7499999999996534 0
112 -0.5000000000008669 -0.6249999999994802 0
113 -0.5000000000006934 -0.499999999999307 0
114 -0.5000000000005203 -0.3749999999991339 0
115 -0.5000000000003468 -0.2499999999989606 0
116 -0.5000000000001736 -0.1249999999987874 0
117 -0.5000000000000002 1.375122238300719e-12 0
118 -0.499999999999827 0.1250000000012129 0
119 -0.4999999999996538 0.2500000000010397 0
120 -0.4999999999994804 0.3750000000008666 0
121 -0.4999999999993072 0.5000000000006934 0
122 -0.4999999999991338 0.62500000000052 0
123 -0.4999999999989606 0.7500000000003466 0
124 -0.4999999999987874 0.8750000000001734 0
125 -0.3750000000015165 -0.8749999999998702 0
126 -0.3750000000013 -0.7499999999997402 0
127 -0.3750000000010833 -0.6249999999996103 0
128 -0.3750000000008668 -0.4999999999994802 0
129 -0.3750000000006501 -0.3749999999993506 0
130 -0.3750000000004335 -0.2499999999992204 0
131 -0.3750000000002169 -0.1249999999990905 0
132 -0.3750000000000003 1.03139718987677e-12 0
133 -0.3749999999997838 0.1250000000009097 0
134 -0.3749999999995672 0.2500000000007799 0
135 -0.3749999999993505 0.3750000000006501 0
136 -0.3749999999991341 0.5000000000005203 0
137 -0.3749999999989173 0.6250000000003901 0
138 -0.3749999999987008 0.75000000000026 0
139 -0.3749999999984842 0.8750000000001299 0
140 -0.2500000000018194 -0.8749999999999133 0
141 -0.2500000000015596 -0.7499999999998268 0
142 -0.2500000000012997 -0.6249999999997402 0
143 -0.2500000000010398 -0.4999999999996539 0
144 -0.2500000000007799 -0.3749999999995671 0
145 -0.25000000000052 -0.2499999999994804 0
146 -0.2500000000002601 -0.1249999999993937 0
147 -0.2500000000000002 6.876166303015907e-13 0
148 -0.2499999999997403 0.1250000000006065 0
149 -0.2499999999994804 0.25000000000052 0
150 -0.2499999999992206 0.3750000000004335 0
151 -0.2499999999989606 0.5000000000003471 0
152 -0.2499999999987007 0.6250000000002602 0
153 -0.2499999999984407 0.7500000000001734 0
154 -0.249999999998181 0.8750000000000866 0
155 -0.1250000000021224 -0.8749999999999568 0
156 -0.1250000000018192 -0.7499999999999134 0
157 -0.1250000000015161 -0.6249999999998702 0
158 -0.1250000000012128 -0.499999999999827 0
159 -0.1250000000009097 -0.3749999999997836 0
160 -0.1250000000006064 -0.2499999999997402 0
161 -0.1250000000003033 -0.1249999999996969 0
162 -0.1250000000000001 3.43836070726411e-13 0
163 -0.1249999999996969 0.1250000000003033 0
164 -0.1249999999993937 0.2500000000002601 0
165 -0.1249999999990906 0.3750000000002169 0
166 -0.1249999999987873 0.5000000000001736 0
167 -0.1249999999984842 0.6250000000001301 0
168 -0.124999999998181 0.7500000000000868 0
169 -0.1249999999978779 0.8750000000000433 0
170 -2.406436161451596e-12 -0.8749999999999998 0
171 -2.062627846301753e-12 -0.7500000000000002 0
172 -1.718930553454374e-12 -0.6250000000000001 0
173 -1.375122238304532e-12 -0.5000000000000002 0
174 -1.031341678730305e-12 -0.3750000000000003 0
175 -6.875056080048474e-13 -0.2500000000000002 0
176 -3.438360707330817e-13 -0.1250000000000001 0
177 -7.564178960885304e-24 0 0
178 3.43780559568509e-13 0.1250000000000001 0
179 6.875056079934106e-13 0.2500000000000002 0
180 1.031397189872006e-12 0.3750000000000003 0
181 1.375122238296907e-12 0.5000000000000003 0
182 1.718847286721808e-12 0.6250000000000002 0
183 2.062627846297941e-12 0.7500000000000002 0
184 2.406519428176536e-12 0.875 0
185 0.1249999999978778 -0.8750000000000432 0
186 0.124999999998181 -0.7500000000000868 0
187 0.1249999999984841 -0.6250000000001302 0
188 0.1249999999987874 -0.5000000000001734 0
189 0.1249999999990906 -0.375000000000217 0
190 0.1249999999993938 -0.2500000000002599 0
191 0.1249999999996969 -0.1250000000003033 0
192 0.1250000000000001 -3.437250484239485e-13 0
193 0.1250000000003033 0.1249999999996969 0
194 0.1250000000006065 0.2499999999997403 0
195 0.1250000000009096 0.3749999999997837 0
196 0.1250000000012129 0.499999999999827 0
197 0.125000000001516 0.6249999999998703 0
198 0.1250000000018193 0.7499999999999134 0
199 0.1250000000021224 0.8749999999999567 0
200 0.2499999999981809 -0.8750000000000868 0
201 0.2499999999984407 -0.7500000000001734 0
202 0.2499999999987007 -0.6250000000002602 0
203 0.2499999999989606 -0.5000000000003466 0
204 0.2499999999992205 -0.3750000000004335 0
205 0.2499999999994804 -0.25000000000052 0
206 0.2499999999997402 -0.1250000000006065 0
207 0.2500000000000001 -6.875888747259751e-13 0
208 0.25000000000026 0.1249999999993937 0
209 0.2500000000005199 0.2499999999994803 0
210 0.2500000000007799 0.3749999999995672 0
211 0.2500000000010397 0.4999999999996537 0
212 0.2500000000012997 0.6249999999997402 0
213 0.2500000000015595 0.7499999999998268 0
214 0.2500000000018194 0.8749999999999134 0
215 0.3749999999984841 -0.8750000000001299 0
216 0.3749999999987008 -0.75000000000026 0
217 0.3749999999989173 -0.6250000000003901 0
218 0.374999999999134 -0.5000000000005203 0
219 0.3749999999993505 -0.37500000000065 0
220 0.3749999999995672 -0.2500000000007798 0
221 0.3749999999997837 -0.1250000000009097 0
222 0.3750000000000003 -1.031258411998692e-12 0
223 0.3750000000002169 0.1249999999990905 0
224 0.3750000000004335 0.2499999999992205 0
225 0.3750000000006501 0.3749999999993505 0
226 0.3750000000008666 0.4999999999994805 0
227 0.3750000000010834 0.6249999999996103 0
228 0.3750000000012998 0.7499999999997402 0
229 0.3750000000015165 0.8749999999998701 0
230 0.4999999999987872 -0.8750000000001734 0
231 0.4999999999989606 -0.7500000000003466 0
232 0.4999999999991339 -0.62500000000052 0
233 0.4999999999993072 -0.5000000000006934 0
234 0.4999999999994805 -0.3750000000008668 0
235 0.4999999999996539 -0.2500000000010398 0
236 0.499999999999827 -0.1250000000012128 0
237 0.5000000000000004 -1.375122238300719e-12 0
238 0.5000000000001736 0.1249999999987874 0
239 0.5000000000003468 0.2499999999989606 0
240 0.5000000000005204 0.374999999999134 0
241 0.5000000000006934 0.4999999999993072 0
242 0.5000000000008668 0.6249999999994804 0
243 0.5000000000010401 0.7499999999996536 0
244 0.5000000000012135 0.8749999999998266 0
245 0.6249999999990903 -0.8750000000002165 0
246 0.6249999999992204 -0.7500000000004332 0
247 0.6249999999993504 -0.62500000000065 0
248 0.6249999999994802 -0.5000000000008666 0
249 0.6249999999996101 -0.3750000000010832 0
250 0.6249999999997402 -0.2500000000012996 0
251 0.6249999999998701 -0.1250000000015161 0
252 0.6250000000000001 -1.718861164512475e-12 0
253 0.6250000000001301 0.1249999999984842 0
254 0.6250000000002601 0.2499999999987008 0
255 0.6250000000003901 0.3749999999989173 0
256 0.62500000000052 0.4999999999991339 0
257 0.6250000000006499 0.6249999999993503 0
258 0.6250000000007798 0.7499999999995668 0
259 0.62500000000091 0.8749999999997835 0
260 0.7499999999993936 -0.87500000000026 0
261 0.7499999999994802 -0.75000000000052 0
262 0.7499999999995669 -0.6250000000007799 0
263 0.7499999999996536 -0.5000000000010398 0
264 0.7499999999997402 -0.3750000000013 0
265 0.7499999999998268 -0.2500000000015596 0
266 0.7499999999999134 -0.1250000000018192 0
267 0.75 -2.062711113026694e-12 0
268 0.7500000000000868 0.124999999998181 0
269 0.7500000000001734 0.2499999999984408 0
270 0.7500000000002599 0.3749999999987008 0
271 0.7500000000003466 0.4999999999989606 0
272 0.7500000000004332 0.6249999999992204 0
273 0.7500000000005199 0.7499999999994802 0
274 0.7500000000006066 0.87499999999974 0
275 0.8749999999996967 -0.8750000000003031 0
276 0.87499999999974 -0.7500000000006066 0
277 0.8749999999997835 -0.6250000000009099 0
278 0.8749999999998266 -0.5000000000012135 0
279 0.8749999999998699 -0.3750000000015165 0
280 0.8749999999999132 -0.2500000000018194 0
281 0.8749999999999567 -0.1250000000021224 0
282 0.8749999999999998 -2.406394528087219e-12 0
283 0.8750000000000432 0.1249999999978778 0
284 0.8750000000000867 0.2499999999981808 0
285 0.87500000000013 0.3749999999984843 0
286 0.8750000000001735 0.4999999999987874 0
287 0.8750000000002167 0.6249999999990905 0
288 0.8750000000002601 0.7499999999993936 0
289 0.8750000000003033 0.8749999999996967 0
$EndNodes
$Elements
576
1 1 2 10 1 1 5
2 1 2 10 1 5 6
3 1 2 10 1 6 7
4 1 2 10 1 7 8
5 1 2 10 1 8 9
6 1 2 10 1 9 10
7 1 2 10 1 10 11
8 1 2 10 1 11 12
9 1 2 10 1 12 13
10 1 2 10 1 13 14
11 1 2 10 1 14 15
12 1 2 10 1 15 16
13 1 2 10 1 16 17
14 1 2 10 1 17 18
15 1 2 10 1 18 19
16 1 2 10 1 19 2
17 1 2 11 2 2 20
18 1 2 11 2 20 21
19 1 2 11 2 21 22
20 1 2 11 2 22 23
21 1 2 11 2 23 24
22 1 2 11 2 24 25
23 1 2 11 2 25 26
24 1 2 11 2 26 27
25 1 2 11 2 27 28
26 1 2 11 2 28 29
27 1 2 11 2 29 30
28 1 2 11 2 30 31
29 1 2 11 2 31 32
30 1 2 11 2 32 33
31 1 2 11 2 33 34
32 1 2 11 2 34 3
33 1 2 12 3 3 35
34 1 2 12 3 35 36
35 1 2 12 3 36 37
36 1 2 12 3 37 38
37 1 2 12 3 38 39
38 1 2 12 3 39 40
39 1 2 12 3 40 41
40 1 2 12 3 41 42
41 1 2 12 3 42 43
42 1 2 12 3 43 44
43 1 2 12 3 44 45
44 1 2 12 3 45 46
45 1 2 12 3 46 47
46 1 2 12 3 47 48
47 1 2 12 3 48 49
48 1 2 12 3 49 4
49 1 2 13 4 4 50
50 1 2 13 4 50 51
51 1 2 13 4 51 52
52 1 2 13 4 52 53
53 1 2 13 4 53 54
54 1 2 13 4 54 55
55 1 2 13 4 55 56
56 1 2 13 4 56 57
57 1 2 13 4 57 58
58 1 2 13 4 58 59
59 1 2 13 4 59 60
60 1 2 13 4 60 61
61 1 2 13 4 61 62
62 1 2 13 4 62 63
63 1 2 13 4 63 64
64 1 2 13 4 64 1
65 2 2 100 1 1 5 64
66 2 2 100 1 64 5 65
67 2 2 100 1 64 65 63
68 2 2 100 1 63 65 66
69 2 2 100 1 63 66 62
70 2 2 100 1 62 66 67
71 2 2 100 1 62 67 61
72 2 2 100 1 61 67 68
73 2 2 100 1 61 68 60
74 2 2 100 1 60 68 69
75 2 2 100 1 60 69 59
76 2 2 100 1 59 69 70
77 2 2 100 1 59 70 58
78 2 2 100 1 58 70 71
79 2 2 100 1 58 71 57
80 2 2 100 1 57 71 72
81 2 2 100 1 57 72 56
82 2 2 100 1 56 72 73
83 2 2 100 1 56 73 55
84 2 2 100 1 55 73 74
85 2 2 100 1 55 74 54
86 2 2 100 1 54 74 75
87 2 2 100 1 54 75 53
88 2 2 100 1 53 75 76
89 2 2 100 1 53 76 52
90 2 2 100 1 52 76 77
91 2 2 100 1 52 77 51
92 2 2 100 1 51 77 78
93 2 2 100 1 51 78 50
94 2 2 100 1 50 78 79
95 2 2 100 1 50 79 4
96 2 2 100 1 4 79 49
97 2 2 100 1 5 6 65
98 2 2 100 1 65 6 80
99 2 2 100 1 65 80 66
100 2 2 100 1 66 80 81
101 2 2 100 1 66 81 67
102 2 2 100 1 67 81 82
103 2 2 100 1 67 82 68
104 2 2 100 1 68 82 83
105 2 2 100 1 68 83 69
106 2 2 100 1 69 83 84
107 2 2 100 1 69 84 70
108 2 2 100 1 70 84 85
109 2 2 100 1 70 85 71
110 2 2 100 1 71 85 86
111 2 2 100 1 71 86 72
112 2 2 100 1 72 86 87
113 2 2 100 1 72 87 73
114 2 2 100 1 73 87 88
115 2 2 100 1 73 88 74
116 2 2 100 1 74 88 89
117 2 2 100 1 74 89 75
118 2 2 100 1 75 89 90
119 2 2 100 1 75 90 76
120 2 2 100 1 76 90 91
121 2 2 100 1 76 91 77
122 2 2 100 1 77 91 92
123 2 2 100 1 77 92 78
124 2 2 100 1 78 92 93
125 2 2 100 1 78 93 79
126 2 2 100 1 79 93 94
127 2 2 100 1 79 94 49
128 2 2 100 1 49 94 48
129 2 2 100 1 6 7 80
130 2 2 100 1 80 7 95
131 2 2 100 1 80 95 81
132 2 2 100 1 81 95 96
133 2 2 100 1 81 96 82
134 2 2 100 1 82 96 97
135 2 2 100 1 82 97 83
136 2 2 100 1 83 97 98
137 2 2 100 1 83 98 84
138 2 2 100 1 84 98 99
139 2 2 100 1 84 99 85
140 2 2 100 1 85 99 100
141 2 2 100 1 85 100 86
142 2 2 100 1 86 100 101
143 2 2 100 1 86 101 87
144 2 2 100 1 87 101 102
145 2 2 100 1 87 102 88
146 2 2 100 1 88 102 103
147 2 2 100 1 88 103 89
148 2 2 100 1 89 103 104
149 2 2 100 1 89 104 90
150 2 2 100 1 90 104 105
151 2 2 100 1 90 105 91
152 2 2 100 1 91 105 106
153 2 2 100 1 91 106 92
154 2 2 100 1 92 106 107
155 2 2 100 1 92 107 93
156 2 2 100 1 93 107 108
157 2 2 100 1 93 108 94
158 2 2 100 1 94 108 109
159 2 2 100 1 94 109 48
160 2 2 100 1 48 109 47
161 2 2 100 1 7 8 95
162 2 2 100 1 95 8 110
163 2 2 100 1 95 110 96
164 2 2 100 1 96 110 111
165 2 2 100 1 96 111 97
166 2 2 100 1 97 111 112
167 2 2 100 1 97 112 98
168 2 2 100 1 98 112 113
169 2 2 100 1 98 113 99
170 2 2 100 1 99 113 114
171 2 2 100 1 99 114 100
172 2 2 100 1 100 114 115
173 2 2 100 1 100 115 101
174 2 2 100 1 101 115 116
175 2 2 100 1 101 116 102
176 2 2 100 1 102 116 117
177 2 2 100 1 102 117 103
178 2 2 100 1 103 117 118
179 2 2 100 1 103 118 104
180 2 2 100 1 104 118 119
181 2 2 100 1 104 119 105
182 2 2 100 1 105 119 120
183 2 2 100 1 105 120 106
184 2 2 100 1 106 120 121
185 2 2 100 1 106 121 107
186 2 2 100 1 107 121 122
187 2 2 100 1 107 122 108
188 2 2 100 1 108 122 123
189 2 2 100 1 108 123 109
190 2 2 100 1 109 123 124
191 2 2 100 1 109 124 47
192 2 2 100 1 47 124 46
193 2 2 100 1 8 9 110
194 2 2 100 1 110 9 125
195 2 2 100 1 110 125 111
196 2 2 100 1 111 125 126
197 2 2 100 1 111 126 112
198 2 2 100 1 112 126 127
199 2 2 100 1 112 127 113
200 2 2 100 1 113 127 128
201 2 2 100 1 113 128 114
202 2 2 100 1 114 128 129
203 2 2 100 1 114 129 115
204 2 2 100 1 115 129 130
205 2 2 100 1 115 130 116
206 2 2 100 1 116 130 131
207 2 2 100 1 116 131 117
208 2 2 100 1 117 131 132
209 2 2 100 1 117 132 118
210 2 2 100 1 118 132 133
211 2 2 100 1 118 133 119
212 2 2 100 1 119 133 134
213 2 2 100 1 119 134 120
214 2 2 100 1 120 134 135
215 2 2 100 1 120 135 121
216 2 2 100 1 121 135 136
217 2 2 100 1 121 136 122
218 2 2 100 1 122 136 137
219 2 2 100 1 122 137 123
220 2 2 100 1 123 137 138
221 2 2 100 1 123 138 124
222 2 2 100 1 124 138 139
223 2 2 100 1 124 139 46
224 2 2 100 1 46 139 45
225 2 2 100 1 9 10 125
226 2 2 100 1 125 10 140
227 2 2 100 1 125 140 126
228 2 2 100 1 126 140 141
229 2 2 100 1 126 141 127
230 2 2 100 1 127 141 142
231 2 2 100 1 127 142 128
232 2 2 100 1 128 142 143
233 2 2 100 1 128 143 129
234 2 2 100 1 129 143 144
235 2 2 100 1 129 144 130
236 2 2 100 1 130 144 145
237 2 2 100 1 130 145 131
238 2 2 100 1 131 145 146
239 2 2 100 1 131 146 132
240 2 2 100 1 132 146 147
241 2 2 100 1 132 147 133
242 2 2 100 1 133 147 148
243 2 2 100 1 133 148 134
244 2 2 100 1 134 148 149
245 2 2 100 1 134 149 135
246 2 2 100 1 135 149 150
247 2 2 100 1 135 150 136
248 2 2 100 1 136 150 151
249 2 2 100 1 136 151 137
250 2 2 100 1 137 151 152
251 2 2 100 1 137 152 138
252 2 2 100 1 138 152 153
253 2 2 100 1 138 153 139
254 2 2 100 1 139 153 154
255 2 2 100 1 139 154 45
256 2 2 100 1 45 154 44
257 2 2 100 1 10 11 140
258 2 2 100 1 140 11 155
259 2 2 100 1 140 155 141
260 2 2 100 1 141 155 156
261 2 2 100 1 141 156 142
262 2 2 100 1 142 156 157
263 2 2 100 1 142 157 143
264 2 2 100 1 143 157 158
265 2 2 100 1 143 158 144
266 2 2 100 1 144 158 159
267 2 2 100 1 144 159 145
268 2 2 100 1 145 159 160
269 2 2 100 1 145 160 146
270 2 2 100 1 146 160 161
271 2 2 100 1 146 161 147
272 2 2 100 1 147 161 162
273 2 2 100 1 147 162 148
274 2 2 100 1 148 162 163
275 2 2 100 1 148 163 149
276 2 2 100 1 149 163 164
277 2 2 100 1 149 164 150
278 2 2 100 1 150 164 165
279 2 2 100 1 150 165 151
280 2 2 100 1 151 165 166
281 2 2 100 1 151 166 152
282 2 2 100 1 152 166 167
283 2 2 100 1 152 167 153
284 2 2 100 1 153 167 168
285 2 2 100 1 153 168 154
286 2 2 100 1 154 168 169
287 2 2 100 1 154 169 44
288 2 2 100 1 44 169 43
289 2 2 100 1 11 12 155
290 2 2 100 1 155 12 170
291 2 2 100 1 155 170 156
292 2 2 100 1 156 170 171
293 2 2 100 1 156 171 157
294 2 2 100 1 157 171 172
295 2 2 100 1 157 172 158
296 2 2 100 1 158 172 173
297 2 2 100 1 158 173 159
298 2 2 100 1 159 173 174
299 2 2 100 1 159 174 160
300 2 2 100 1 160 174 175
301 2 2 100 1 160 175 161
302 2 2 100 1 161 175 176
303 2 2 100 1 161 176 162
304 2 2 100 1 162 176 177
305 2 2 100 1 162 177 163
306 2 2 100 1 163 177 178
307 2 2 100 1 163 178 164
308 2 2 100 1 164 178 179
309 2 2 100 1 164 179 165
310 2 2 100 1 165 179 180
311 2 2 100 1 165 180 166
312 2 2 100 1 166 180 181
313 2 2 100 1 166 181 167
314 2 2 100 1 167 181 182
315 2 2 100 1 167 182 168
316 2 2 100 1 168 182 183
317 2 2 100 1 168 183 169
318 2 2 100 1 169 183 184
319 2 2 100 1 169 184 43
320 2 2 100 1 43 184 42
321 2 2 100 1 12 13 170
322 2 2 100 1 170 13 185
323 2 2 100 1 170 185 171
324 2 2 100 1 171 185 186
325 2 2 100 1 171 186 172
326 2 2 100 1 172 186 187
327 2 2 100 1 172 187 173
328 2 2 100 1 173 187 188
329 2 2 100 1 173 188 174
330 2 2 100 1 174 188 189
331 2 2 100 1 174 189 175
332 2 2 100 1 175 189 190
333 2 2 100 1 175 190 176
334 2 2 100 1 176 190 191
335 2 2 100 1 176 191 177
336 2 2 100 1 177 191 192
337 2 2 100 1 177 192 178
338 2 2 100 1 178 192 193
339 2 2 100 1 178 193 179
340 2 2 100 1 179 193 194
341 2 2 100 1 179 194 180
342 2 2 100 1 180 194 195
343 2 2 100 1 180 195 181
344 2 2 100 1 181 195 196
345 2 2 100 1 181 196 182
346 2 2 100 1 182 196 197
347 2 2 100 1 182 197 183
348 2 2 100 1 183 197 198
349 2 2 100 1 183 198 184
350 2 2 100 1 184 198 199
351 2 2 100 1 184 199 42
352 2 2 100 1 42 199 41
353 2 2 100 1 13 14 185
354 2 2 100 1 185 14 200
355 2 2 100 1 185 200 186
356 2 2 100 1 186 200 201
357 2 2 100 1 186 201 187
358 2 2 100 1 187 201 202
359 2 2 100 1 187 202 188
360 2 2 100 1 188 202 203
361 2 2 100 1 188 203 189
362 2 2 100 1 189 203 204
363 2 2 100 1 189 204 190
364 2 2 100 1 190 204 205
365 2 2 100 1 190 205 191
366 2 2 100 1 191 205 206
367 2 2 100 1 191 206 192
368 2 2 100 1 192 206 207
369 2 2 100 1 192 207 193
370 2 2 100 1 193 207 208
371 2 2 100 1 193 208 194
372 2 2 100 1 194 208 209
373 2 2 100 1 194 209 195
374 2 2 100 1 195 209 210
375 2 2 100 1 195 210 196
376 2 2 100 1 196 210 211
377 2 2 100 1 196 211 197
378 2 2 100 1 197 211 212
379 2 2 100 1 197 212 198
380 2 2 100 1 198 212 213
381 2 2 100 1 198 213 199
382 2 2 100 1 199 213 214
383 2 2 100 1 199 214 41
384 2 2 100 1 41 214 40
385 2 2 100 1 14 15 200
386 2 2 100 1 200 15 215
387 2 2 100 1 200 215 201
388 2 2 100 1 201 215 216
389 2 2 100 1 201 216 202
390 2 2 100 1 202 216 217
391 2 2 100 1 202 217 203
392 2 2 100 1 203 217 218
393 2 2 100 1 203 218 204
394 2 2 100 1 204 218 219
395 2 2 100 1 204 219 205
396 2 2 100 1 205 219 220
397 2 2 100 1 205 220 206
398 2 2 100 1 206 220 221
399 2 2 100 1 206 221 207
400 2 2 100 1 207 221 222
401 2 2 100 1 207 222 208
402 2 2 100 1 208 222 223
403 2 2 100 1 208 223 209
404 2 2 100 1 209 223 224
405 2 2 100 1 209 224 210
406 2 2 100 1 210 224 225
407 2 2 100 1 210 225 211
408 2 2 100 1 211 225 226
409 2 2 100 1 211 226 212
410 2 2 100 1 212 226 227
411 2 2 100 1 212 227 213
412 2 2 100 1 213 227 228
413 2 2 100 1 213 228 214
414 2 2 100 1 214 228 229
415 2 2 100 1 214 229 40
416 2 2 100 1 40 229 39
417 2 2 100 1 15 16 215
418 2 2 100 1 215 16 230
419 2 2 100 1 215 230 216
420 2 2 100 1 216 230 231
421 2 2 100 1 216 231 217
422 2 2 100 1 217 231 232
423 2 2 100 1 217 232 218
424 2 2 100 1 218 232 233
425 2 2 100 1 218 233 219
426 2 2 100 1 219 233 234
427 2 2 100 1 219 234 220
428 2 2 100 1 220 234 235
429 2 2 100 1 220 235 221
430 2 2 100 1 221 235 236
431 2 2 100 1 221 236 222
432 2 2 100 1 222 236 237
433 2 2 100 1 222 237 223
434 2 2 100 1 223 237 238
435 2 2 100 1 223 238 224
436 2 2 100 1 224 238 239
437 2 2 100 1 224 239 225
438 2 2 100 1 225 239 240
439 2 2 100 1 225 240 226
440 2 2 100 1 226 240 241
441 2 2 100 1 226 241 227
442 2 2 100 1 227 241 242
443 2 2 100 1 227 242 228
444 2 2 100 1 228 242 243
445 2 2 100 1 228 243 229
446 2 2 100 1 229 243 244
447 2 2 100 1 229 244 39
448 2 2 100 1 39 244 38
449 2 2 100 1 16 17 230
450 2 2 100 1 230 17 245
451 2 2 100 1 230 245 231
452 2 2 100 1 231 245 246
453 2 2 100 1 231 246 232
454 2 2 100 1 232 246 247
455 2 2 100 1 232 247 233
456 2 2 100 1 233 247 248
457 2 2 100 1 233 248 234
458 2 2 100 1 234 248 249
459 2 2 100 1 234 249 235
460 2 2 100 1 235 249 250
461 2 2 100 1 235 250 236
462 2 2 100 1 236 250 251
463 2 2 100 1 236 251 237
464 2 2 100 1 237 251 252
465 2 2 100 1 237 252 238
466 2 2 100 1 238 252 253
467 2 2 100 1 238 253 239
468 2 2 100 1 239 253 254
469 2 2 100 1 239 254 240
470 2 2 100 1 240 254 255
471 2 2 100 1 240 255 241
472 2 2 100 1 241 255 256
473 2 2 100 1 241 256 242
474 2 2 100 1 242 256 257
475 2 2 100 1 242 257 243
476 2 2 100 1 243 257 258
477 2 2 100 1 243 258 244
478 2 2 100 1 244 258 259
479 2 2 100 1 244 259 38
480 2 2 100 1 38 259 37
481 2 2 100 1 17 18 245
482 2 2 100 1 245 18 260
483 2 2 100 1 245 260 246
484 2 2 100 1 246 260 261
485 2 2 100 1 246 261 247
486 2 2 100 1 247 261 262
487 2 2 100 1 247 262 248
488 2 2 100 1 248 262 263
489 2 2 100 1 248 263 249
490 2 2 100 1 249 263 264
491 2 2 100 1 249 264 250
492 2 2 100 1 250 264 265
493 2 2 100 1 250 265 251
494 2 2 100 1 251 265 266
495 2 2 100 1 251 266 252
496 2 2 100 1 252 266 267
497 2 2 100 1 252 267 253
498 2 2 100 1 253 267 268
499 2 2 100 1 253 268 254
500 2 2 100 1 254 268 269
501 2 2 100 1 254 269 255
502 2 2 100 1 255 269 270
503 2 2 100 1 255 270 256
504 2 2 100 1 256 270 271
505 2 2 100 1 256 271 257
506 2 2 100 1 257 271 272
507 2 2 100 1 257 272 258
508 2 2 100 1 258 272 273
509 2 2 100 1 258 273 259
510 2 2 100 1 259 273 274
511 2 2 100 1 259 274 37
512 2 2 100 1 37 274 36
513 2 2 100 1 18 19 260
514 2 2 100 1 260 19 275
515 2 2 100 1 260 275 261
516 2 2 100 1 261 275 276
517 2 2 100 1 261 276 262
518 2 2 100 1 262 276 277
519 2 2 100 1 262 277 263
520 2 2 100 1 263 277 278
521 2 2 100 1 263 278 264
522 2 2 100 1 264 278 279
523 2 2 100 1 264 279 265
524 2 2 100 1 265 279 280
525 2 2 100 1 265 280 266
526 2 2 100 1 266 280 281
527 2 2 100 1 266 281 267
528 2 2 100 1 267 281 282
529 2 2 100 1 267 282 268
530 2 2 100 1 268 282 283
531 2 2 100 1 268 283 269
532 2 2 100 1 269 283 284
533 2 2 100 1 269 284 270
534 2 2 100 1 270 284 285
535 2 2 100 1 270 285 271
536 2 2 100 1 271 285 286
537 2 2 100 1 271 286 272
538 2 2 100 1 272 286 287
539 2 2 100 1 272 287 273
540 2 2 100 1 273 287 288
541 2 2 100 1 273 288 274
542 2 2 100 1 274 288 289
543 2 2 100 1 274 289 36
544 2 2 100 1 36 289 35
545 2 2 100 1 19 2 275
546 2 2 100 1 275 2 20
547 2 2 100 1 275 20 276
548 2 2 100 1 276 20 21
549 2 2 100 1 276 21 277
550 2 2 100 1 277 21 22
551 2 2 100 1 277 22 278
552 2 2 100 1 278 22 23
553 2 2 100 1 278 23 279
554 2 2 100 1 279 23 24
555 2 2 100 1 279 24 280
556 2 2 100 1 280 24 25
557 2 2 100 1 280 25 281
558 2 2 100 1 281 25 26
559 2 2 100 1 281 26 282
560 2 2 100 1 282 26 27
561 2 2 100 1 282 27 283
562 2 2 100 1 283 27 28
563 2 2 100 1 283 28 284
564 2 2 100 1 284 28 29
565 2 2 100 1 284 29 285
566 2 2 100 1 285 29 30
567 2 2 100 1 285 30 286
568 2 2 100 1 286 30 31
569 2 2 100 1 286 31 287
570 2 2 100 1 287 31 32
571 2 2 100 1 287 32 288
572 2 2 100 1 288 32 33
573 2 2 100 1 288 33 289
574 2 2 100 1 289 33 34
575 2 2 100 1 289 34 35
576 2 2 100 1 35 34 3
$EndElements
